<?xml version="1.0" encoding="utf-8"?>
<!-- Generator: Adobe Illustrator 23.0.1, SVG Export Plug-In . SVG Version: 6.00 Build 0)  -->
<svg version="1.1" id="Layer_1" xmlns="http://www.w3.org/2000/svg" xmlns:xlink="http://www.w3.org/1999/xlink" x="0px" y="0px"
	 viewBox="0 0 80 80" style="enable-background:new 0 0 80 80;" xml:space="preserve">
<style type="text/css">
	.st0{opacity:0.85;fill:#2B3D4F;}
	.st1{fill:#FFFFFF;}
	.st2{fill:#122438;}
	.st3{fill:#959EA7;}
	.st4{fill:#1C2733;}
	.st5{fill:#122438;stroke:#122438;stroke-miterlimit:10;}
	.st6{fill:#122438;stroke:#1C2733;stroke-miterlimit:10;}
	.st7{fill:#122438;stroke:#FFFFFF;stroke-width:1.3626;stroke-miterlimit:10;}
	.st8{fill:#F6EA75;}
	.st9{fill:#FA4545;}
	.st10{fill:none;}
	.st11{fill:#85EFA8;}
	.st12{opacity:0.6;fill:#2B3D4F;}
	.st13{opacity:0.5;}
	.st14{enable-background:new    ;}
	.st15{fill:none;stroke:#FFFFFF;stroke-width:3;stroke-miterlimit:10;}
	.st16{fill:#8DC6FF;}
	.st17{fill:#122438;stroke:#FFFFFF;stroke-miterlimit:10;}
	.st18{fill:#FFFFFF;stroke:#122438;stroke-width:3;stroke-miterlimit:10;}
	.st19{opacity:0.65;fill:url(#Compass_x5F_Circle_13_);}
	.st20{fill:url(#SVGID_1_);}
	.st21{opacity:0.65;fill:none;}
	.st22{fill:#F27E80;}
	.st23{fill:#FA4545;stroke:#122438;stroke-width:1.1465;stroke-miterlimit:10;}
	.st24{opacity:0.65;fill:url(#Compass_x5F_Circle_14_);}
	.st25{fill:none;stroke:#1C2733;stroke-width:6;stroke-linecap:round;stroke-linejoin:round;stroke-miterlimit:10;}
	.st26{fill:none;stroke:#FFFFFF;stroke-width:4;stroke-linecap:round;stroke-linejoin:round;}
	.st27{fill:none;stroke:#FFFFFF;stroke-width:4;stroke-linecap:round;stroke-linejoin:round;stroke-dasharray:6.6913,6.6913;}
	.st28{opacity:0.85;fill:#122438;}
	.st29{opacity:0.65;fill:#8DC6FF;fill-opacity:0.3;stroke:#8DC6FF;stroke-width:2;stroke-miterlimit:10;}
</style>
<metadata><?xpacket begin="﻿" id="W5M0MpCehiHzreSzNTczkc9d"?>
<x:xmpmeta xmlns:x="adobe:ns:meta/" x:xmptk="Adobe XMP Core 5.6-c145 79.163499, 2018/08/13-16:40:22        ">
   <rdf:RDF xmlns:rdf="http://www.w3.org/1999/02/22-rdf-syntax-ns#">
      <rdf:Description rdf:about=""
            xmlns:dc="http://purl.org/dc/elements/1.1/"
            xmlns:xmp="http://ns.adobe.com/xap/1.0/"
            xmlns:xmpGImg="http://ns.adobe.com/xap/1.0/g/img/"
            xmlns:xmpMM="http://ns.adobe.com/xap/1.0/mm/"
            xmlns:stRef="http://ns.adobe.com/xap/1.0/sType/ResourceRef#"
            xmlns:stEvt="http://ns.adobe.com/xap/1.0/sType/ResourceEvent#"
            xmlns:illustrator="http://ns.adobe.com/illustrator/1.0/"
            xmlns:pdf="http://ns.adobe.com/pdf/1.3/"
            xmlns:xmpTPg="http://ns.adobe.com/xap/1.0/t/pg/"
            xmlns:stDim="http://ns.adobe.com/xap/1.0/sType/Dimensions#"
            xmlns:stFnt="http://ns.adobe.com/xap/1.0/sType/Font#"
            xmlns:xmpG="http://ns.adobe.com/xap/1.0/g/">
         <dc:format>image/svg+xml</dc:format>
         <dc:title>
            <rdf:Alt>
               <rdf:li xml:lang="x-default">Icons 11_expand</rdf:li>
            </rdf:Alt>
         </dc:title>
         <xmp:CreatorTool>Adobe Illustrator CC 23.0 (Windows)</xmp:CreatorTool>
         <xmp:CreateDate>2019-01-16T09:09:34+02:00</xmp:CreateDate>
         <xmp:ModifyDate>2019-01-16T09:09:35+02:00</xmp:ModifyDate>
         <xmp:MetadataDate>2019-01-16T09:09:35+02:00</xmp:MetadataDate>
         <xmp:Thumbnails>
            <rdf:Alt>
               <rdf:li rdf:parseType="Resource">
                  <xmpGImg:width>256</xmpGImg:width>
                  <xmpGImg:height>68</xmpGImg:height>
                  <xmpGImg:format>JPEG</xmpGImg:format>
                  <xmpGImg:image>/9j/4AAQSkZJRgABAgEASABIAAD/7QAsUGhvdG9zaG9wIDMuMAA4QklNA+0AAAAAABAASAAAAAEA&#xA;AQBIAAAAAQAB/+4ADkFkb2JlAGTAAAAAAf/bAIQABgQEBAUEBgUFBgkGBQYJCwgGBggLDAoKCwoK&#xA;DBAMDAwMDAwQDA4PEA8ODBMTFBQTExwbGxscHx8fHx8fHx8fHwEHBwcNDA0YEBAYGhURFRofHx8f&#xA;Hx8fHx8fHx8fHx8fHx8fHx8fHx8fHx8fHx8fHx8fHx8fHx8fHx8fHx8fHx8f/8AAEQgARAEAAwER&#xA;AAIRAQMRAf/EAaIAAAAHAQEBAQEAAAAAAAAAAAQFAwIGAQAHCAkKCwEAAgIDAQEBAQEAAAAAAAAA&#xA;AQACAwQFBgcICQoLEAACAQMDAgQCBgcDBAIGAnMBAgMRBAAFIRIxQVEGE2EicYEUMpGhBxWxQiPB&#xA;UtHhMxZi8CRygvElQzRTkqKyY3PCNUQnk6OzNhdUZHTD0uIIJoMJChgZhJRFRqS0VtNVKBry4/PE&#xA;1OT0ZXWFlaW1xdXl9WZ2hpamtsbW5vY3R1dnd4eXp7fH1+f3OEhYaHiImKi4yNjo+Ck5SVlpeYmZ&#xA;qbnJ2en5KjpKWmp6ipqqusra6voRAAICAQIDBQUEBQYECAMDbQEAAhEDBCESMUEFURNhIgZxgZEy&#xA;obHwFMHR4SNCFVJicvEzJDRDghaSUyWiY7LCB3PSNeJEgxdUkwgJChgZJjZFGidkdFU38qOzwygp&#xA;0+PzhJSktMTU5PRldYWVpbXF1eX1RlZmdoaWprbG1ub2R1dnd4eXp7fH1+f3OEhYaHiImKi4yNjo&#xA;+DlJWWl5iZmpucnZ6fkqOkpaanqKmqq6ytrq+v/aAAwDAQACEQMRAD8A9U4q7FVpkAZVI+0aA7eF&#xA;fH2w0wM6IHf+q2F675W0xL7XNTtfL92+pXlsiS6jY3SwT3ILxlo4j6qmMr6SkkqKgU3yQKSEVd+W&#xA;7+/m1Jnjmhh1WW1kl46lcQvEtt6XH0ljRliJo/MIfjI3beoFrSyXSPM93yW4thCt1NBc3TQ61fRl&#xA;GjEPKOHhB8MZPqAopUPQVpy+FsLRRA0nX+U7m3Be4lF26/pi+4rNHEhWGP8AcfDA0vJWAAHH4uJr&#xA;xDaa280yTROcbGaW4Sb66b0CO8uStVakabsv7ooAWhp6da7HrgtSEuuPKlwkf+hzSNIuoNqyia6u&#xA;ADcMT+7YryPoDltFTj7YATbIAcO/1fYhdL8tXunRxB4bm5mhvX1HmNRlKNNcuYnjAfiWhjhfmEYU&#xA;qKAdzIm2ACa2flHTbQ2JS4vXOn3FzdwmW7nk5Pd8+Yl5MfUVfUPANWn31FppUsvLNnZnT/Rur0rp&#xA;pnMSSXc8iym5JLfWA7N63Et+7514fs0xJWmrDytYWMVlFFcXkgsI5Y4WnuZZmYTEljI0jMZCK/CW&#xA;6beGJK00PKtmJYJBdXdbe2ls0HrGhSY1LOOjOv7LHcfSatrSZWFlHY2UNpEzvHAgRHlYu5A2+Jju&#xA;x9zgKVfFXYq7FXYq7FXYq7FXYq7FXYq7FXYq7FXYq7FXYq7FXYq7FWmNGUVArXY9T8sIYE7jcfju&#xA;Y/Pbpeatd+gbCZrW4spZlLSevH6YLMZQrUDcD+67da42yS278q38ulPZ6Za6V9TeyuEgWf606yT3&#xA;Vys9XZHVvTcAu7VLs5rUUPKXEghOTpBuZIpwLZomnecSD1XfhLaegHSQOvx705dOHSh3yNppIpvK&#xA;F1BHcRWmj6eyHSbZVCSTxJJqVhIZbSMoGFIUf4uf2+xJyXEilaDSfMqytK+l2ClNPkaCk01Rf38g&#xA;mv4yan900gqppXwp2FhaLeteWr25+s3kOk2M+pQS2eoac80868r+3T0izlacUijJCKNmqagVJKCp&#xA;CT635b1eKy1Wx0zy/aTWsNisOmoZpQQYppJ4Ui2rvKFZlDLxovxH9iQKCE4gsdZ/S9vdXOmxQGJo&#xA;J/XgdrgrPclo7unMxbGNVDfD8AoyhixCQkdtkhWtrjzbc+nCsz2sjN/fz2aEBQgY841n+EEiisHJ&#xA;JJHEBa5CJLJlVRWld+tMkrqitK79aYq7FXYq7FXYq0zKoqxCioFTtuTQD6TiqV6l5r8uaZc/Vb/U&#xA;Ire4ChjG53oehyuWaMTRLm4Ozs+WPFCBlFFaXq+marbtc6dcJcwKxjaSM1AYAEj7iMlCYkLDTqNN&#xA;kwy4cgMSi8k0OxV2KuxV2KuxV2KuxV2KuxV2KvKvzQ86+YdI1mO1sWZIaxBUHJQejF+UdGNalaE8&#xA;fh+eTA2YSkWfeUtSu9S8v2l5dilxIGDkilSrFa0Hy7beG2CQ3ZROybHlyFFBHc13HX2wIN3yQ8k2&#xA;mWcxaR4baa6YFmYojSsoCitaFiAAMaTao95aRu0bzxq605IzKCKgsKgnwUn6MCVwmhKowdSstPTN&#xA;RRqio4+O2+Nq2JIy7IGBdKF1BFRXpUe+Ku9WP1PS5j1QORSo5ca0rTwxVsyIHWMsA7AlVruQtKkD&#xA;2qMVbxVpUALEdWNT91P4YSUU0I1ErSD7TBVPyUkj/iWN7Utb22EX1C9PiICk+wqf443tS1vbuC8w&#xA;9PiAK19jQ/wxvalrdAS2F6+sxXi3TC0SMK1rVgCw51NAeLcua9enH32qMDxg3t3MlS6sbmbUbG6j&#xA;uTFDa+r61sASJvUTitTyFOB36HJkboQutaXql5faZPZ37WcNpN6l1GpakyVUlCAQDUKV36VrkgUE&#xA;K2saZdXzWDW969n9Tu47qXgK+tGisrQtuvwvy9+nTEFSEwwJeMfmp5f16+82PPZadc3MBgiAlhhe&#xA;RagGoqoIzVavHIzsAve+z2tw49MIznGJ4jzIDMPyh03UNP8ALNxDfW0trM147rHMjRsVMcYBowBp&#xA;UHMrRxMYbit3R+0ueGXUAwkJDgHI31kzfMt552KuxV2KuxV2KuxV2KuxV2KuxV8+3dz+dV/qcem3&#xA;x06bVV+FbOSTSWuACnqFRHz504fERTpvhBHn9jWbe8aSl0ml2aXaJHdLBGs8cYARZAgDKoXbiD0p&#xA;gDYisVeK/mfonmqXzZNPFZ3F5aTiMWjwRvKqgIAU+EHieQJp365fCQppnE29N8s6K0Xl+wi1e3il&#xA;1FYVW4aRVdtgQqsxrXih45TKrbYjZOhBCFjQRqFip6S0FFoKDiO1BgSuEaB2cKA7U5MBuadKnFWv&#xA;Tj9T1OI9SnHnQVpWtK+GKtmNC6uVBdahWI3APWh96YqgYtC0qLWZtajgA1O4iEE1zyYkxrSi8SeI&#xA;+yOgwVvatS6BpEuuQ65JBy1SCE28NwXf4YySSAnLh+0d+NcK0qaTo2m6TbPbafD6EDyy3DpyZ6yT&#xA;uZJGq5Y/E7E06YSbQAq21lbWzzyQpxa5k9WY1Y8n4ha7k02UdMCVtvpljb313fQxcbq+9P61JyY8&#xA;/SXimxNBRfAY2tLV0jT11V9WWKmoPD9Xafk28QYNx4149R1pXDa06XSdOl1SDVZIQ2oW0TwQT1aq&#xA;xykF1pXjuVHbG1pUuLC1uJ7aeZOUto5kt25MOLMhQmgIB+Fj1wWqzUNLsdQ+rfW4/U+qTpdW/wAT&#xA;Lxmirwb4SK0r0O2EFaW6to+navZNZahD69q5DNHyZKlTUboVPX3xBpBDer6Tp+saZc6XqMXr2N5G&#xA;YrmHkyckbqOSFWH0HEGkkKwtbdbQWgX/AEcR+kEqfsU40rWvTArVlZ21lZwWdsnC2t0WKFKlqIg4&#xA;qOTEsdh3OKq2KuxV2KuxV2KuxV2KuxV2KuxVjLfl9ojedk84+rcDVEHH0w6egR6Jg3Xhy+wf5uuK&#xA;K3tPtStZLvTrq0jma3kuIZIkuEryjZ1KhxQruta9cUsT/Lf8uZPJg1EPqjal9fMJHKIxen6PP/iy&#xA;WvL1PbpixApkraXYLriawVk+vvb/AFFWDSGP0uRm3QfApqPtke1e2G00oXuk6Vcava63Ms5vNL9S&#xA;KDh63H98vFv3SikmzfaoafRjfRaTGSN5WkikUfV2QAMrsHLEtzBAA4gDjQht9+lNwloLcNFEjqo5&#xA;LS44yNVfh/YagZvi77eOKrUuYo4AQkvBJBAAUkZq8xGG3BYrvUv0pvWmNKugMUbm0QSfukV+Th2U&#xA;hywAEjV5EcDUVqNvEY0q5I2RyF/um5MxLMW5E12rXbFVK4s0nSW3kQSWl0ki3SuzVPNQtF8FK1rQ&#xA;jFUg/wCVc+U44LO1g08fVreeSbi9xcllMoDOwPMly0kUezGmS4ix4Qr3Xkjym0N2s1kzJqFxHPdB&#xA;JLglpvWaRW+B6qPUmYtxotCeXw48RTQVofKflqwvjq0Nmy3aW623NXnkPooixhVjDMK8EUVC8jQY&#xA;LK0FT/DPl+C2slFp+60lmnsVBkdo3JLMVALMxNem+NlaUpfJnla5sdStJbBXtdamF1qUTmT99LVW&#xA;DNVqrui7Cg9seIrQRcOlafLqsfmAJKt9JaC1HN5FAhZ/V4tATwD8up48u2N9FpTs9E0r9G3drDHN&#xA;HbX000lwjvKjl3ajkEkMAxXtsRvvXG1pcdM0+91O11RlnW600yww8zJGp5AoxKNQOCPstvja0meB&#xA;Kg12nrCJPicmh9ssGM1ZYGYunG7RJzFJ8P8AKe2+PhkiwvGAaKvlbN2Kref7zhTtXllfievhromt&#xA;mwSWIoRTv2OWsAd6pvAydirsVdirsVdirsVdirsVdirsVdirsVdirsVdirsVdirsVdirsVdirsVd&#xA;irsVSPU9doTDa1I6NKAf+F/rmdh03WTh5tR0i7y+HllkmcEKg4rXxP8AZjqqAAXTbm1XzArpHHOg&#xA;JoeDU99xkNKbJDLUigChtN11oyIrkMYuivQkr8/bLc2mvePNrxaitjyZACGAINQdwRmvc5D0T67y&#xA;4/Hx48q9uvTMHhj+YuvVVW2fwqwH7wsVA2oG7kZn9GgD1E18Vlvd2lzyNvNHNwPF/TYNQ+BoTTAz&#xA;VcVdiqHOo6et4ti11EL1hyW1Lr6pFCahK8qUHhgtURhVT+sW/reh6qetSvpchyp/q9cVVMVdirsV&#xA;dirsVdirsVdirsVdirsVdirsVdirsVdirsVdiqB1WwvL2MRQ3Qt4iP3i+nzLfSWG2X4MsYGyLPva&#xA;c2OUxQND3JR/g+b/AJbl/wCRA/5qzL/lAfzft/Y4v5E/zvsTvS7AWNotvz9RgSzyBePIk+Ar22zC&#xA;zZeOVuXix8EaX31ot3aS27Hj6goGpWh6g070ODFPgkCyyQ4okJD/AIPm/wCW5f8AkQP+aszv5QH8&#xA;37f2OF+RP877Ez0nTLywBR7wT2+9I/SCUPiCGOY2fNGe/DR97kYcMobXY9y0SL+lvUJHDpzqKfZz&#xA;lBkH53i24e+9vpdjXopF6he29jay3dxJHDHGv97K4ReXRVLNQbnbOjcSt7eTfkDeLC2tWdyqWs1z&#xA;LFPbxPKjPIxWQyBFFCQgUH6csyMcb2LKmx29fbvijd5ncebNKTzjIya1CYE1GGeK1EDtFIsllHbS&#xA;TG/B9BQiO54nutO+QJ6rb0pShrItOLAHmD1H+1lloEaJNPNf0lB/ytD69SH6r/d/XvWX0+HoUr14&#xA;9dsnWzG93pmVtjsVdiqC1LWtN01Fe9lMSvKkCEI71kkrwUBAx3pkuEo4ghJvN/l6GQRyXRVjeppg&#xA;/dSkfW5K8YqhKb8evT33GDhK2E4wJdirsVdirsVdirsVdirsVdirsVdirsVdirsVdirsVdiriKin&#xA;jgItUD+h7Txf7x/TNR/ImD+l8/2N3jyQ/mfyzpvmTR5tJ1H1BbTlC7RMFf8AdsHWhIbuPDNyJU45&#xA;iCxzy1+TnlLy7rVvrFg9013a8/SEsqsn7yNo2qAi/sue+SMyUCADOcgzdQVr3HQ4orqk1r5durS0&#xA;htLfWr5III1iiXjZmiIAqiptjWgHfBSUytrG3trKKziUiCGJYEBNTwReIFflhRQYr/yqjyj/AL7n&#xA;/wCRp/pk+Mo4AzHIMnYq7FVo9PkeNOX7VKV+nDujZdgS7FXYq7FXYq7FXYq7FXYq7FXYq7FXYq7F&#xA;XYq7FXYq7FXYq7FXYq7FXYq7FXYq7FXYq7FX/9k=</xmpGImg:image>
               </rdf:li>
            </rdf:Alt>
         </xmp:Thumbnails>
         <xmpMM:OriginalDocumentID>uuid:9E3E5C9A8C81DB118734DB58FDDE4BA7</xmpMM:OriginalDocumentID>
         <xmpMM:DocumentID>xmp.did:49b801fb-a8da-024f-b9bc-b2e7935c736a</xmpMM:DocumentID>
         <xmpMM:InstanceID>xmp.iid:49b801fb-a8da-024f-b9bc-b2e7935c736a</xmpMM:InstanceID>
         <xmpMM:RenditionClass>proof:pdf</xmpMM:RenditionClass>
         <xmpMM:DerivedFrom rdf:parseType="Resource">
            <stRef:instanceID>xmp.iid:34adf266-3dfd-444e-b8cb-581e1f93a80e</stRef:instanceID>
            <stRef:documentID>xmp.did:34adf266-3dfd-444e-b8cb-581e1f93a80e</stRef:documentID>
            <stRef:originalDocumentID>uuid:9E3E5C9A8C81DB118734DB58FDDE4BA7</stRef:originalDocumentID>
            <stRef:renditionClass>proof:pdf</stRef:renditionClass>
         </xmpMM:DerivedFrom>
         <xmpMM:History>
            <rdf:Seq>
               <rdf:li rdf:parseType="Resource">
                  <stEvt:action>saved</stEvt:action>
                  <stEvt:instanceID>xmp.iid:b4c9dad8-1ff0-5745-bc3b-35a339d98d4b</stEvt:instanceID>
                  <stEvt:when>2018-09-26T16:18:49+03:00</stEvt:when>
                  <stEvt:softwareAgent>Adobe Illustrator CC 22.1 (Windows)</stEvt:softwareAgent>
                  <stEvt:changed>/</stEvt:changed>
               </rdf:li>
               <rdf:li rdf:parseType="Resource">
                  <stEvt:action>saved</stEvt:action>
                  <stEvt:instanceID>xmp.iid:49b801fb-a8da-024f-b9bc-b2e7935c736a</stEvt:instanceID>
                  <stEvt:when>2019-01-16T09:09:35+02:00</stEvt:when>
                  <stEvt:softwareAgent>Adobe Illustrator CC 23.0 (Windows)</stEvt:softwareAgent>
                  <stEvt:changed>/</stEvt:changed>
               </rdf:li>
            </rdf:Seq>
         </xmpMM:History>
         <illustrator:StartupProfile>Basic RGB</illustrator:StartupProfile>
         <pdf:Producer>Adobe PDF library 15.00</pdf:Producer>
         <xmpTPg:MaxPageSize rdf:parseType="Resource">
            <stDim:w>1461.999756</stDim:w>
            <stDim:h>556.000000</stDim:h>
            <stDim:unit>Pixels</stDim:unit>
         </xmpTPg:MaxPageSize>
         <xmpTPg:NPages>1</xmpTPg:NPages>
         <xmpTPg:HasVisibleTransparency>True</xmpTPg:HasVisibleTransparency>
         <xmpTPg:HasVisibleOverprint>False</xmpTPg:HasVisibleOverprint>
         <xmpTPg:Fonts>
            <rdf:Bag>
               <rdf:li rdf:parseType="Resource">
                  <stFnt:fontName>ArialMT</stFnt:fontName>
                  <stFnt:fontFamily>Arial</stFnt:fontFamily>
                  <stFnt:fontFace>Regular</stFnt:fontFace>
                  <stFnt:fontType>Open Type</stFnt:fontType>
                  <stFnt:versionString>Version 6.98</stFnt:versionString>
                  <stFnt:composite>False</stFnt:composite>
                  <stFnt:fontFileName>arial.ttf</stFnt:fontFileName>
               </rdf:li>
            </rdf:Bag>
         </xmpTPg:Fonts>
         <xmpTPg:PlateNames>
            <rdf:Seq>
               <rdf:li>Cyan</rdf:li>
               <rdf:li>Magenta</rdf:li>
               <rdf:li>Yellow</rdf:li>
               <rdf:li>Black</rdf:li>
            </rdf:Seq>
         </xmpTPg:PlateNames>
         <xmpTPg:SwatchGroups>
            <rdf:Seq>
               <rdf:li rdf:parseType="Resource">
                  <xmpG:groupName>Default Swatch Group</xmpG:groupName>
                  <xmpG:groupType>0</xmpG:groupType>
                  <xmpG:Colorants>
                     <rdf:Seq>
                        <rdf:li rdf:parseType="Resource">
                           <xmpG:swatchName>White</xmpG:swatchName>
                           <xmpG:mode>RGB</xmpG:mode>
                           <xmpG:type>PROCESS</xmpG:type>
                           <xmpG:red>255</xmpG:red>
                           <xmpG:green>255</xmpG:green>
                           <xmpG:blue>255</xmpG:blue>
                        </rdf:li>
                        <rdf:li rdf:parseType="Resource">
                           <xmpG:swatchName>Black</xmpG:swatchName>
                           <xmpG:mode>RGB</xmpG:mode>
                           <xmpG:type>PROCESS</xmpG:type>
                           <xmpG:red>0</xmpG:red>
                           <xmpG:green>0</xmpG:green>
                           <xmpG:blue>0</xmpG:blue>
                        </rdf:li>
                        <rdf:li rdf:parseType="Resource">
                           <xmpG:swatchName>RGB Red</xmpG:swatchName>
                           <xmpG:mode>RGB</xmpG:mode>
                           <xmpG:type>PROCESS</xmpG:type>
                           <xmpG:red>255</xmpG:red>
                           <xmpG:green>0</xmpG:green>
                           <xmpG:blue>0</xmpG:blue>
                        </rdf:li>
                        <rdf:li rdf:parseType="Resource">
                           <xmpG:swatchName>RGB Yellow</xmpG:swatchName>
                           <xmpG:mode>RGB</xmpG:mode>
                           <xmpG:type>PROCESS</xmpG:type>
                           <xmpG:red>255</xmpG:red>
                           <xmpG:green>255</xmpG:green>
                           <xmpG:blue>0</xmpG:blue>
                        </rdf:li>
                        <rdf:li rdf:parseType="Resource">
                           <xmpG:swatchName>RGB Green</xmpG:swatchName>
                           <xmpG:mode>RGB</xmpG:mode>
                           <xmpG:type>PROCESS</xmpG:type>
                           <xmpG:red>0</xmpG:red>
                           <xmpG:green>255</xmpG:green>
                           <xmpG:blue>0</xmpG:blue>
                        </rdf:li>
                        <rdf:li rdf:parseType="Resource">
                           <xmpG:swatchName>RGB Cyan</xmpG:swatchName>
                           <xmpG:mode>RGB</xmpG:mode>
                           <xmpG:type>PROCESS</xmpG:type>
                           <xmpG:red>0</xmpG:red>
                           <xmpG:green>255</xmpG:green>
                           <xmpG:blue>255</xmpG:blue>
                        </rdf:li>
                        <rdf:li rdf:parseType="Resource">
                           <xmpG:swatchName>RGB Blue</xmpG:swatchName>
                           <xmpG:mode>RGB</xmpG:mode>
                           <xmpG:type>PROCESS</xmpG:type>
                           <xmpG:red>0</xmpG:red>
                           <xmpG:green>0</xmpG:green>
                           <xmpG:blue>255</xmpG:blue>
                        </rdf:li>
                        <rdf:li rdf:parseType="Resource">
                           <xmpG:swatchName>RGB Magenta</xmpG:swatchName>
                           <xmpG:mode>RGB</xmpG:mode>
                           <xmpG:type>PROCESS</xmpG:type>
                           <xmpG:red>255</xmpG:red>
                           <xmpG:green>0</xmpG:green>
                           <xmpG:blue>255</xmpG:blue>
                        </rdf:li>
                        <rdf:li rdf:parseType="Resource">
                           <xmpG:swatchName>R=193 G=39 B=45</xmpG:swatchName>
                           <xmpG:mode>RGB</xmpG:mode>
                           <xmpG:type>PROCESS</xmpG:type>
                           <xmpG:red>193</xmpG:red>
                           <xmpG:green>39</xmpG:green>
                           <xmpG:blue>45</xmpG:blue>
                        </rdf:li>
                        <rdf:li rdf:parseType="Resource">
                           <xmpG:swatchName>R=237 G=28 B=36</xmpG:swatchName>
                           <xmpG:mode>RGB</xmpG:mode>
                           <xmpG:type>PROCESS</xmpG:type>
                           <xmpG:red>237</xmpG:red>
                           <xmpG:green>28</xmpG:green>
                           <xmpG:blue>36</xmpG:blue>
                        </rdf:li>
                        <rdf:li rdf:parseType="Resource">
                           <xmpG:swatchName>R=241 G=90 B=36</xmpG:swatchName>
                           <xmpG:mode>RGB</xmpG:mode>
                           <xmpG:type>PROCESS</xmpG:type>
                           <xmpG:red>241</xmpG:red>
                           <xmpG:green>90</xmpG:green>
                           <xmpG:blue>36</xmpG:blue>
                        </rdf:li>
                        <rdf:li rdf:parseType="Resource">
                           <xmpG:swatchName>R=247 G=147 B=30</xmpG:swatchName>
                           <xmpG:mode>RGB</xmpG:mode>
                           <xmpG:type>PROCESS</xmpG:type>
                           <xmpG:red>247</xmpG:red>
                           <xmpG:green>147</xmpG:green>
                           <xmpG:blue>30</xmpG:blue>
                        </rdf:li>
                        <rdf:li rdf:parseType="Resource">
                           <xmpG:swatchName>R=251 G=176 B=59</xmpG:swatchName>
                           <xmpG:mode>RGB</xmpG:mode>
                           <xmpG:type>PROCESS</xmpG:type>
                           <xmpG:red>251</xmpG:red>
                           <xmpG:green>176</xmpG:green>
                           <xmpG:blue>59</xmpG:blue>
                        </rdf:li>
                        <rdf:li rdf:parseType="Resource">
                           <xmpG:swatchName>R=252 G=238 B=33</xmpG:swatchName>
                           <xmpG:mode>RGB</xmpG:mode>
                           <xmpG:type>PROCESS</xmpG:type>
                           <xmpG:red>252</xmpG:red>
                           <xmpG:green>238</xmpG:green>
                           <xmpG:blue>33</xmpG:blue>
                        </rdf:li>
                        <rdf:li rdf:parseType="Resource">
                           <xmpG:swatchName>R=217 G=224 B=33</xmpG:swatchName>
                           <xmpG:mode>RGB</xmpG:mode>
                           <xmpG:type>PROCESS</xmpG:type>
                           <xmpG:red>217</xmpG:red>
                           <xmpG:green>224</xmpG:green>
                           <xmpG:blue>33</xmpG:blue>
                        </rdf:li>
                        <rdf:li rdf:parseType="Resource">
                           <xmpG:swatchName>R=140 G=198 B=63</xmpG:swatchName>
                           <xmpG:mode>RGB</xmpG:mode>
                           <xmpG:type>PROCESS</xmpG:type>
                           <xmpG:red>140</xmpG:red>
                           <xmpG:green>198</xmpG:green>
                           <xmpG:blue>63</xmpG:blue>
                        </rdf:li>
                        <rdf:li rdf:parseType="Resource">
                           <xmpG:swatchName>R=57 G=181 B=74</xmpG:swatchName>
                           <xmpG:mode>RGB</xmpG:mode>
                           <xmpG:type>PROCESS</xmpG:type>
                           <xmpG:red>57</xmpG:red>
                           <xmpG:green>181</xmpG:green>
                           <xmpG:blue>74</xmpG:blue>
                        </rdf:li>
                        <rdf:li rdf:parseType="Resource">
                           <xmpG:swatchName>R=0 G=146 B=69</xmpG:swatchName>
                           <xmpG:mode>RGB</xmpG:mode>
                           <xmpG:type>PROCESS</xmpG:type>
                           <xmpG:red>0</xmpG:red>
                           <xmpG:green>146</xmpG:green>
                           <xmpG:blue>69</xmpG:blue>
                        </rdf:li>
                        <rdf:li rdf:parseType="Resource">
                           <xmpG:swatchName>R=0 G=104 B=55</xmpG:swatchName>
                           <xmpG:mode>RGB</xmpG:mode>
                           <xmpG:type>PROCESS</xmpG:type>
                           <xmpG:red>0</xmpG:red>
                           <xmpG:green>104</xmpG:green>
                           <xmpG:blue>55</xmpG:blue>
                        </rdf:li>
                        <rdf:li rdf:parseType="Resource">
                           <xmpG:swatchName>R=34 G=181 B=115</xmpG:swatchName>
                           <xmpG:mode>RGB</xmpG:mode>
                           <xmpG:type>PROCESS</xmpG:type>
                           <xmpG:red>34</xmpG:red>
                           <xmpG:green>181</xmpG:green>
                           <xmpG:blue>115</xmpG:blue>
                        </rdf:li>
                        <rdf:li rdf:parseType="Resource">
                           <xmpG:swatchName>R=0 G=169 B=157</xmpG:swatchName>
                           <xmpG:mode>RGB</xmpG:mode>
                           <xmpG:type>PROCESS</xmpG:type>
                           <xmpG:red>0</xmpG:red>
                           <xmpG:green>169</xmpG:green>
                           <xmpG:blue>157</xmpG:blue>
                        </rdf:li>
                        <rdf:li rdf:parseType="Resource">
                           <xmpG:swatchName>R=41 G=171 B=226</xmpG:swatchName>
                           <xmpG:mode>RGB</xmpG:mode>
                           <xmpG:type>PROCESS</xmpG:type>
                           <xmpG:red>41</xmpG:red>
                           <xmpG:green>171</xmpG:green>
                           <xmpG:blue>226</xmpG:blue>
                        </rdf:li>
                        <rdf:li rdf:parseType="Resource">
                           <xmpG:swatchName>R=0 G=113 B=188</xmpG:swatchName>
                           <xmpG:mode>RGB</xmpG:mode>
                           <xmpG:type>PROCESS</xmpG:type>
                           <xmpG:red>0</xmpG:red>
                           <xmpG:green>113</xmpG:green>
                           <xmpG:blue>188</xmpG:blue>
                        </rdf:li>
                        <rdf:li rdf:parseType="Resource">
                           <xmpG:swatchName>R=46 G=49 B=146</xmpG:swatchName>
                           <xmpG:mode>RGB</xmpG:mode>
                           <xmpG:type>PROCESS</xmpG:type>
                           <xmpG:red>46</xmpG:red>
                           <xmpG:green>49</xmpG:green>
                           <xmpG:blue>146</xmpG:blue>
                        </rdf:li>
                        <rdf:li rdf:parseType="Resource">
                           <xmpG:swatchName>R=27 G=20 B=100</xmpG:swatchName>
                           <xmpG:mode>RGB</xmpG:mode>
                           <xmpG:type>PROCESS</xmpG:type>
                           <xmpG:red>27</xmpG:red>
                           <xmpG:green>20</xmpG:green>
                           <xmpG:blue>100</xmpG:blue>
                        </rdf:li>
                        <rdf:li rdf:parseType="Resource">
                           <xmpG:swatchName>R=102 G=45 B=145</xmpG:swatchName>
                           <xmpG:mode>RGB</xmpG:mode>
                           <xmpG:type>PROCESS</xmpG:type>
                           <xmpG:red>102</xmpG:red>
                           <xmpG:green>45</xmpG:green>
                           <xmpG:blue>145</xmpG:blue>
                        </rdf:li>
                        <rdf:li rdf:parseType="Resource">
                           <xmpG:swatchName>R=147 G=39 B=143</xmpG:swatchName>
                           <xmpG:mode>RGB</xmpG:mode>
                           <xmpG:type>PROCESS</xmpG:type>
                           <xmpG:red>147</xmpG:red>
                           <xmpG:green>39</xmpG:green>
                           <xmpG:blue>143</xmpG:blue>
                        </rdf:li>
                        <rdf:li rdf:parseType="Resource">
                           <xmpG:swatchName>R=158 G=0 B=93</xmpG:swatchName>
                           <xmpG:mode>RGB</xmpG:mode>
                           <xmpG:type>PROCESS</xmpG:type>
                           <xmpG:red>158</xmpG:red>
                           <xmpG:green>0</xmpG:green>
                           <xmpG:blue>93</xmpG:blue>
                        </rdf:li>
                        <rdf:li rdf:parseType="Resource">
                           <xmpG:swatchName>R=212 G=20 B=90</xmpG:swatchName>
                           <xmpG:mode>RGB</xmpG:mode>
                           <xmpG:type>PROCESS</xmpG:type>
                           <xmpG:red>212</xmpG:red>
                           <xmpG:green>20</xmpG:green>
                           <xmpG:blue>90</xmpG:blue>
                        </rdf:li>
                        <rdf:li rdf:parseType="Resource">
                           <xmpG:swatchName>R=237 G=30 B=121</xmpG:swatchName>
                           <xmpG:mode>RGB</xmpG:mode>
                           <xmpG:type>PROCESS</xmpG:type>
                           <xmpG:red>237</xmpG:red>
                           <xmpG:green>30</xmpG:green>
                           <xmpG:blue>121</xmpG:blue>
                        </rdf:li>
                        <rdf:li rdf:parseType="Resource">
                           <xmpG:swatchName>R=199 G=178 B=153</xmpG:swatchName>
                           <xmpG:mode>RGB</xmpG:mode>
                           <xmpG:type>PROCESS</xmpG:type>
                           <xmpG:red>199</xmpG:red>
                           <xmpG:green>178</xmpG:green>
                           <xmpG:blue>153</xmpG:blue>
                        </rdf:li>
                        <rdf:li rdf:parseType="Resource">
                           <xmpG:swatchName>R=153 G=134 B=117</xmpG:swatchName>
                           <xmpG:mode>RGB</xmpG:mode>
                           <xmpG:type>PROCESS</xmpG:type>
                           <xmpG:red>153</xmpG:red>
                           <xmpG:green>134</xmpG:green>
                           <xmpG:blue>117</xmpG:blue>
                        </rdf:li>
                        <rdf:li rdf:parseType="Resource">
                           <xmpG:swatchName>R=115 G=99 B=87</xmpG:swatchName>
                           <xmpG:mode>RGB</xmpG:mode>
                           <xmpG:type>PROCESS</xmpG:type>
                           <xmpG:red>115</xmpG:red>
                           <xmpG:green>99</xmpG:green>
                           <xmpG:blue>87</xmpG:blue>
                        </rdf:li>
                        <rdf:li rdf:parseType="Resource">
                           <xmpG:swatchName>R=83 G=71 B=65</xmpG:swatchName>
                           <xmpG:mode>RGB</xmpG:mode>
                           <xmpG:type>PROCESS</xmpG:type>
                           <xmpG:red>83</xmpG:red>
                           <xmpG:green>71</xmpG:green>
                           <xmpG:blue>65</xmpG:blue>
                        </rdf:li>
                        <rdf:li rdf:parseType="Resource">
                           <xmpG:swatchName>R=198 G=156 B=109</xmpG:swatchName>
                           <xmpG:mode>RGB</xmpG:mode>
                           <xmpG:type>PROCESS</xmpG:type>
                           <xmpG:red>198</xmpG:red>
                           <xmpG:green>156</xmpG:green>
                           <xmpG:blue>109</xmpG:blue>
                        </rdf:li>
                        <rdf:li rdf:parseType="Resource">
                           <xmpG:swatchName>R=166 G=124 B=82</xmpG:swatchName>
                           <xmpG:mode>RGB</xmpG:mode>
                           <xmpG:type>PROCESS</xmpG:type>
                           <xmpG:red>166</xmpG:red>
                           <xmpG:green>124</xmpG:green>
                           <xmpG:blue>82</xmpG:blue>
                        </rdf:li>
                        <rdf:li rdf:parseType="Resource">
                           <xmpG:swatchName>R=140 G=98 B=57</xmpG:swatchName>
                           <xmpG:mode>RGB</xmpG:mode>
                           <xmpG:type>PROCESS</xmpG:type>
                           <xmpG:red>140</xmpG:red>
                           <xmpG:green>98</xmpG:green>
                           <xmpG:blue>57</xmpG:blue>
                        </rdf:li>
                        <rdf:li rdf:parseType="Resource">
                           <xmpG:swatchName>R=117 G=76 B=36</xmpG:swatchName>
                           <xmpG:mode>RGB</xmpG:mode>
                           <xmpG:type>PROCESS</xmpG:type>
                           <xmpG:red>117</xmpG:red>
                           <xmpG:green>76</xmpG:green>
                           <xmpG:blue>36</xmpG:blue>
                        </rdf:li>
                        <rdf:li rdf:parseType="Resource">
                           <xmpG:swatchName>R=96 G=56 B=19</xmpG:swatchName>
                           <xmpG:mode>RGB</xmpG:mode>
                           <xmpG:type>PROCESS</xmpG:type>
                           <xmpG:red>96</xmpG:red>
                           <xmpG:green>56</xmpG:green>
                           <xmpG:blue>19</xmpG:blue>
                        </rdf:li>
                        <rdf:li rdf:parseType="Resource">
                           <xmpG:swatchName>R=66 G=33 B=11</xmpG:swatchName>
                           <xmpG:mode>RGB</xmpG:mode>
                           <xmpG:type>PROCESS</xmpG:type>
                           <xmpG:red>66</xmpG:red>
                           <xmpG:green>33</xmpG:green>
                           <xmpG:blue>11</xmpG:blue>
                        </rdf:li>
                     </rdf:Seq>
                  </xmpG:Colorants>
               </rdf:li>
               <rdf:li rdf:parseType="Resource">
                  <xmpG:groupName>Grays</xmpG:groupName>
                  <xmpG:groupType>0</xmpG:groupType>
                  <xmpG:Colorants>
                     <rdf:Seq>
                        <rdf:li rdf:parseType="Resource">
                           <xmpG:swatchName>R=0 G=0 B=0</xmpG:swatchName>
                           <xmpG:mode>RGB</xmpG:mode>
                           <xmpG:type>PROCESS</xmpG:type>
                           <xmpG:red>0</xmpG:red>
                           <xmpG:green>0</xmpG:green>
                           <xmpG:blue>0</xmpG:blue>
                        </rdf:li>
                        <rdf:li rdf:parseType="Resource">
                           <xmpG:swatchName>R=26 G=26 B=26</xmpG:swatchName>
                           <xmpG:mode>RGB</xmpG:mode>
                           <xmpG:type>PROCESS</xmpG:type>
                           <xmpG:red>26</xmpG:red>
                           <xmpG:green>26</xmpG:green>
                           <xmpG:blue>26</xmpG:blue>
                        </rdf:li>
                        <rdf:li rdf:parseType="Resource">
                           <xmpG:swatchName>R=51 G=51 B=51</xmpG:swatchName>
                           <xmpG:mode>RGB</xmpG:mode>
                           <xmpG:type>PROCESS</xmpG:type>
                           <xmpG:red>51</xmpG:red>
                           <xmpG:green>51</xmpG:green>
                           <xmpG:blue>51</xmpG:blue>
                        </rdf:li>
                        <rdf:li rdf:parseType="Resource">
                           <xmpG:swatchName>R=77 G=77 B=77</xmpG:swatchName>
                           <xmpG:mode>RGB</xmpG:mode>
                           <xmpG:type>PROCESS</xmpG:type>
                           <xmpG:red>77</xmpG:red>
                           <xmpG:green>77</xmpG:green>
                           <xmpG:blue>77</xmpG:blue>
                        </rdf:li>
                        <rdf:li rdf:parseType="Resource">
                           <xmpG:swatchName>R=102 G=102 B=102</xmpG:swatchName>
                           <xmpG:mode>RGB</xmpG:mode>
                           <xmpG:type>PROCESS</xmpG:type>
                           <xmpG:red>102</xmpG:red>
                           <xmpG:green>102</xmpG:green>
                           <xmpG:blue>102</xmpG:blue>
                        </rdf:li>
                        <rdf:li rdf:parseType="Resource">
                           <xmpG:swatchName>R=128 G=128 B=128</xmpG:swatchName>
                           <xmpG:mode>RGB</xmpG:mode>
                           <xmpG:type>PROCESS</xmpG:type>
                           <xmpG:red>128</xmpG:red>
                           <xmpG:green>128</xmpG:green>
                           <xmpG:blue>128</xmpG:blue>
                        </rdf:li>
                        <rdf:li rdf:parseType="Resource">
                           <xmpG:swatchName>R=153 G=153 B=153</xmpG:swatchName>
                           <xmpG:mode>RGB</xmpG:mode>
                           <xmpG:type>PROCESS</xmpG:type>
                           <xmpG:red>153</xmpG:red>
                           <xmpG:green>153</xmpG:green>
                           <xmpG:blue>153</xmpG:blue>
                        </rdf:li>
                        <rdf:li rdf:parseType="Resource">
                           <xmpG:swatchName>R=179 G=179 B=179</xmpG:swatchName>
                           <xmpG:mode>RGB</xmpG:mode>
                           <xmpG:type>PROCESS</xmpG:type>
                           <xmpG:red>179</xmpG:red>
                           <xmpG:green>179</xmpG:green>
                           <xmpG:blue>179</xmpG:blue>
                        </rdf:li>
                        <rdf:li rdf:parseType="Resource">
                           <xmpG:swatchName>R=204 G=204 B=204</xmpG:swatchName>
                           <xmpG:mode>RGB</xmpG:mode>
                           <xmpG:type>PROCESS</xmpG:type>
                           <xmpG:red>204</xmpG:red>
                           <xmpG:green>204</xmpG:green>
                           <xmpG:blue>204</xmpG:blue>
                        </rdf:li>
                        <rdf:li rdf:parseType="Resource">
                           <xmpG:swatchName>R=230 G=230 B=230</xmpG:swatchName>
                           <xmpG:mode>RGB</xmpG:mode>
                           <xmpG:type>PROCESS</xmpG:type>
                           <xmpG:red>230</xmpG:red>
                           <xmpG:green>230</xmpG:green>
                           <xmpG:blue>230</xmpG:blue>
                        </rdf:li>
                        <rdf:li rdf:parseType="Resource">
                           <xmpG:swatchName>R=242 G=242 B=242</xmpG:swatchName>
                           <xmpG:mode>RGB</xmpG:mode>
                           <xmpG:type>PROCESS</xmpG:type>
                           <xmpG:red>242</xmpG:red>
                           <xmpG:green>242</xmpG:green>
                           <xmpG:blue>242</xmpG:blue>
                        </rdf:li>
                     </rdf:Seq>
                  </xmpG:Colorants>
               </rdf:li>
               <rdf:li rdf:parseType="Resource">
                  <xmpG:groupName>Carmel</xmpG:groupName>
                  <xmpG:groupType>1</xmpG:groupType>
                  <xmpG:Colorants>
                     <rdf:Seq>
                        <rdf:li rdf:parseType="Resource">
                           <xmpG:swatchName>R=141 G=198 B=255</xmpG:swatchName>
                           <xmpG:mode>RGB</xmpG:mode>
                           <xmpG:type>PROCESS</xmpG:type>
                           <xmpG:red>141</xmpG:red>
                           <xmpG:green>198</xmpG:green>
                           <xmpG:blue>255</xmpG:blue>
                        </rdf:li>
                        <rdf:li rdf:parseType="Resource">
                           <xmpG:swatchName>R=246 G=234 B=117</xmpG:swatchName>
                           <xmpG:mode>RGB</xmpG:mode>
                           <xmpG:type>PROCESS</xmpG:type>
                           <xmpG:red>246</xmpG:red>
                           <xmpG:green>234</xmpG:green>
                           <xmpG:blue>117</xmpG:blue>
                        </rdf:li>
                        <rdf:li rdf:parseType="Resource">
                           <xmpG:swatchName>R=18 G=36 B=56</xmpG:swatchName>
                           <xmpG:mode>RGB</xmpG:mode>
                           <xmpG:type>PROCESS</xmpG:type>
                           <xmpG:red>18</xmpG:red>
                           <xmpG:green>36</xmpG:green>
                           <xmpG:blue>56</xmpG:blue>
                        </rdf:li>
                        <rdf:li rdf:parseType="Resource">
                           <xmpG:swatchName>R=149 G=158 B=167</xmpG:swatchName>
                           <xmpG:mode>RGB</xmpG:mode>
                           <xmpG:type>PROCESS</xmpG:type>
                           <xmpG:red>149</xmpG:red>
                           <xmpG:green>158</xmpG:green>
                           <xmpG:blue>167</xmpG:blue>
                        </rdf:li>
                     </rdf:Seq>
                  </xmpG:Colorants>
               </rdf:li>
            </rdf:Seq>
         </xmpTPg:SwatchGroups>
      </rdf:Description>
   </rdf:RDF>
</x:xmpmeta>
                                                                                                    
                                                                                                    
                                                                                                    
                                                                                                    
                                                                                                    
                                                                                                    
                                                                                                    
                                                                                                    
                                                                                                    
                                                                                                    
                                                                                                    
                                                                                                    
                                                                                                    
                                                                                                    
                                                                                                    
                                                                                                    
                                                                                                    
                                                                                                    
                                                                                                    
                                                                                                    
                           
<?xpacket end="w"?>
	</metadata>
<g>
	<g id="more-vert_3_">
		<g>
			<path class="st1" d="M40,65.5c-4.1,0-7.5-3.4-7.5-7.5s3.4-7.5,7.5-7.5s7.5,3.4,7.5,7.5S44.1,65.5,40,65.5z M40,47.5
				c-4.1,0-7.5-3.4-7.5-7.5s3.4-7.5,7.5-7.5s7.5,3.4,7.5,7.5S44.1,47.5,40,47.5z M40,29.5c-4.1,0-7.5-3.4-7.5-7.5s3.4-7.5,7.5-7.5
				s7.5,3.4,7.5,7.5S44.1,29.5,40,29.5z"/>
			<path class="st2" d="M40,16c3.3,0,6,2.7,6,6s-2.7,6-6,6s-6-2.7-6-6S36.7,16,40,16 M40,34c3.3,0,6,2.7,6,6s-2.7,6-6,6s-6-2.7-6-6
				S36.7,34,40,34 M40,52c3.3,0,6,2.7,6,6s-2.7,6-6,6s-6-2.7-6-6S36.7,52,40,52 M40,13c-5,0-9,4-9,9s4,9,9,9c-5,0-9,4-9,9s4,9,9,9
				c-5,0-9,4-9,9s4,9,9,9s9-4,9-9s-4-9-9-9c5,0,9-4,9-9s-4-9-9-9c5,0,9-4,9-9S45,13,40,13L40,13z"/>
		</g>
	</g>
</g>
</svg>
