<?xml version="1.0" encoding="utf-8"?>
<!-- Generator: Adobe Illustrator 23.0.6, SVG Export Plug-In . SVG Version: 6.00 Build 0)  -->
<svg version="1.1" id="Layer_1" xmlns="http://www.w3.org/2000/svg" xmlns:xlink="http://www.w3.org/1999/xlink" x="0px" y="0px"
	 viewBox="0 0 108 108" style="enable-background:new 0 0 108 108;" xml:space="preserve">
<style type="text/css">
	.st0{fill:#FFFFFF;}
	.st1{fill:#122438;}
	.st2{fill:#959EA7;}
	.st3{fill:#1C2733;}
	.st4{fill:#122438;stroke:#122438;stroke-miterlimit:10;}
	.st5{fill:#122438;stroke:#1C2733;stroke-miterlimit:10;}
	.st6{opacity:0.6;fill:#2B3D4F;}
	.st7{opacity:0.85;fill:#2B3D4F;}
	.st8{fill:#F6EA75;}
	.st9{fill:#FFFFFF;stroke:#122438;stroke-width:3.0211;stroke-miterlimit:10;}
	.st10{fill:#959EA7;stroke:#122438;stroke-width:3;stroke-miterlimit:10;}
	.st11{fill:#FFFFFF;stroke:#122438;stroke-width:3;stroke-miterlimit:10;}
	.st12{fill:none;}
	.st13{opacity:0.65;fill:none;}
	.st14{fill:#85EFA8;}
	.st15{display:none;fill:#1E1E1E;}
	.st16{fill:#F6EA75;stroke:#122438;stroke-width:2;stroke-miterlimit:10;}
	.st17{fill:none;stroke:#122438;stroke-width:6;stroke-miterlimit:10;}
	.st18{fill:none;stroke:#FFFFFF;stroke-width:6;stroke-miterlimit:10;}
	.st19{fill-rule:evenodd;clip-rule:evenodd;}
	.st20{fill-rule:evenodd;clip-rule:evenodd;fill:#FFFFFF;}
	.st21{fill:#122438;stroke:#122438;stroke-width:2;stroke-miterlimit:10;}
	.st22{fill:#959EA7;stroke:#122438;stroke-width:2;stroke-miterlimit:10;}
</style>
<metadata><?xpacket begin="﻿" id="W5M0MpCehiHzreSzNTczkc9d"?>
<x:xmpmeta xmlns:x="adobe:ns:meta/" x:xmptk="Adobe XMP Core 5.6-c145 79.163499, 2018/08/13-16:40:22        ">
   <rdf:RDF xmlns:rdf="http://www.w3.org/1999/02/22-rdf-syntax-ns#">
      <rdf:Description rdf:about=""
            xmlns:dc="http://purl.org/dc/elements/1.1/"
            xmlns:xmp="http://ns.adobe.com/xap/1.0/"
            xmlns:xmpGImg="http://ns.adobe.com/xap/1.0/g/img/"
            xmlns:xmpMM="http://ns.adobe.com/xap/1.0/mm/"
            xmlns:stRef="http://ns.adobe.com/xap/1.0/sType/ResourceRef#"
            xmlns:stEvt="http://ns.adobe.com/xap/1.0/sType/ResourceEvent#"
            xmlns:illustrator="http://ns.adobe.com/illustrator/1.0/"
            xmlns:pdf="http://ns.adobe.com/pdf/1.3/"
            xmlns:xmpTPg="http://ns.adobe.com/xap/1.0/t/pg/"
            xmlns:stDim="http://ns.adobe.com/xap/1.0/sType/Dimensions#"
            xmlns:xmpG="http://ns.adobe.com/xap/1.0/g/">
         <dc:format>image/svg+xml</dc:format>
         <dc:title>
            <rdf:Alt>
               <rdf:li xml:lang="x-default">Icons 15_expand</rdf:li>
            </rdf:Alt>
         </dc:title>
         <xmp:CreatorTool>Adobe Illustrator CC 23.0 (Windows)</xmp:CreatorTool>
         <xmp:CreateDate>2019-09-05T15:46:39+03:00</xmp:CreateDate>
         <xmp:ModifyDate>2019-09-05T15:46:39+03:00</xmp:ModifyDate>
         <xmp:MetadataDate>2019-09-05T15:46:39+03:00</xmp:MetadataDate>
         <xmp:Thumbnails>
            <rdf:Alt>
               <rdf:li rdf:parseType="Resource">
                  <xmpGImg:width>256</xmpGImg:width>
                  <xmpGImg:height>132</xmpGImg:height>
                  <xmpGImg:format>JPEG</xmpGImg:format>
                  <xmpGImg:image>/9j/4AAQSkZJRgABAgEASABIAAD/7QAsUGhvdG9zaG9wIDMuMAA4QklNA+0AAAAAABAASAAAAAEA&#xA;AQBIAAAAAQAB/+4ADkFkb2JlAGTAAAAAAf/bAIQABgQEBAUEBgUFBgkGBQYJCwgGBggLDAoKCwoK&#xA;DBAMDAwMDAwQDA4PEA8ODBMTFBQTExwbGxscHx8fHx8fHx8fHwEHBwcNDA0YEBAYGhURFRofHx8f&#xA;Hx8fHx8fHx8fHx8fHx8fHx8fHx8fHx8fHx8fHx8fHx8fHx8fHx8fHx8fHx8f/8AAEQgAhAEAAwER&#xA;AAIRAQMRAf/EAaIAAAAHAQEBAQEAAAAAAAAAAAQFAwIGAQAHCAkKCwEAAgIDAQEBAQEAAAAAAAAA&#xA;AQACAwQFBgcICQoLEAACAQMDAgQCBgcDBAIGAnMBAgMRBAAFIRIxQVEGE2EicYEUMpGhBxWxQiPB&#xA;UtHhMxZi8CRygvElQzRTkqKyY3PCNUQnk6OzNhdUZHTD0uIIJoMJChgZhJRFRqS0VtNVKBry4/PE&#xA;1OT0ZXWFlaW1xdXl9WZ2hpamtsbW5vY3R1dnd4eXp7fH1+f3OEhYaHiImKi4yNjo+Ck5SVlpeYmZ&#xA;qbnJ2en5KjpKWmp6ipqqusra6voRAAICAQIDBQUEBQYECAMDbQEAAhEDBCESMUEFURNhIgZxgZEy&#xA;obHwFMHR4SNCFVJicvEzJDRDghaSUyWiY7LCB3PSNeJEgxdUkwgJChgZJjZFGidkdFU38qOzwygp&#xA;0+PzhJSktMTU5PRldYWVpbXF1eX1RlZmdoaWprbG1ub2R1dnd4eXp7fH1+f3OEhYaHiImKi4yNjo&#xA;+DlJWWl5iZmpucnZ6fkqOkpaanqKmqq6ytrq+v/aAAwDAQACEQMRAD8A9U4q7FXYq7FXYq7FXYq7&#xA;FXYq7FXYq7FXYq7FXYq7FXYq7FXYq7FXYq7FXYq7FXYq7FXYq7FXnmrWrWWsedtU0v6pbaxPZ2yr&#xA;dwSvNeBkiCxme3Z2RFX9nii8h1rkx0YHqyzyvLqsuh2D6jJLNctAr3E1zAtrMztv8dujMsRWtCKn&#xA;InmyCb4EuxV2KuxV2KuxV2KuxV2KuxV2KuxV2KuxV2KuxV2KuxV2KuxV2KuxV2KuxV2KuxV2KuxV&#xA;2KuxVDQ6Zp8F7cX8NvHHe3YQXVwqgSSCMcUDN1PEdMbVE4q7FXYq7FXYq7FXYq7FXYq7FXYq7FXY&#xA;q7FXYq7FXYq7FXYq7FXYq7FXYq7FXYq7FXYq7FXYq7FXYq7FXYq7FXYq7FXYq7FXYq7FXYq7FXYq&#xA;7FXYq7FXYq7FXYq7FXYq7FXYq7FXYq7FXYq7FXYq7FXYq7FXYq7FXYq7FXYq7FXYq7FXYq7FXYq7&#xA;FUt+u65/iD6n+jE/QotxL+ljcLzM/Ij0RbcOX2d+fOmHakKWjal5hur/AFSHU9GGnWdrKE0y6F1H&#xA;ObyOrVkMaqph2C/CxJ39sSAoVPLl9rt9pcdxrelro9+zMHsEuFu+Kg0UmVFRSSN6AbYmuihM8CXY&#xA;q7FXYq7FXYq7FXYq7FXYq7FXYq7FXYq7FXYq7FXYq7FXYq7FXYq7FXYq7FXYqpXkdxLaTxW031a5&#xA;eNlguCok9NypCvwJAbid6d8VSXUtG81z+Wl0+y8xfU9bDKW1s2cMtQH5EfVmIj3X4fxyQItFGkVq&#xA;ena7cXemyWGrmytrV+WoQG3ima7Sq/AXbj6Wytug7+2AEKVQ2Wrfp8Xv6Q/3E/VvS/RfpL/f8+Xr&#xA;er9r7Pw8emPRUPoml+YbTVdYuNT1j9I2N5OkmlWXoJF9UiC0ZOa7ycjTr4V7nEkKAq+WtP1qw0mO&#xA;21nU/wBL36s5e99JYOSsxKjgnwjiNsSVCaYEuxV2KuxV2KuxV2KuxV2KuxV2KuxV2KuxV2KtMyop&#xA;ZiFVRVmOwAHc4qpWt9ZXiF7S4juEU8WaJ1cA9aEqTiq6e4t7eP1J5UijrTm7BRU+5xVdHJHIiyRs&#xA;HjYVV1IIIPcEYquxV2KuxV2KuxV2KuxVC6tFbS6VeRXVw1pbSQSLPdK4iaKMoQ0gkP2Co35dsIUs&#xA;N1jSvJK/lpDpl55knt/Lo4JFrsd8olcrKWUfWVDI3xKVpSlNu2SBN8mJApMfMGn+Vr2/8sXF9rr2&#xA;U1rMJdGhW8SIXrkIArK9WnrVR8O/xU/awAndSArSXXlxPPscD6vOuuy2lItH9RhA0a1Yyenx4lqH&#xA;+b3pjvS7WiPL9po9vq2tNZazPqV3NMsl7ZTXpuls2JfjHHCWP1dSeXw0Fae2ApCX6Zpflyx8l3Vm&#xA;vmO4udKYv6utz36vLGXI6XIoicTSg6eNa4STfJAApB+a/M3knSNK0S31PWLxLaQRXWn3lpNO7XCQ&#xA;BaNJNBX1UkDgmpo3XwwgEoJAQXmL8wPy/tfMenXt9rN/b3NpAJY7OD1xbSx3UYdDNGq8XPFgR+PT&#xA;CImlMhaJtbvyTp/n681galePq+sxW8JtJC7WsavHF6ZiTgOBdUQsSe+CjSbFqNld+S4rPVfKK6zq&#xA;M02tTT201xKzvcRy3SC2YQymPinEiq1Bod8d+aLHJUt/L+gy+SbPypFPrP6JZovQ1YMUncPOJUYz&#xA;Iq/C7MB9gfD4ZX4lm2XDtSZanp+la7rGg3csmp2p0a4e4sWjaSK3uG9IikvUuCgJHKlRUdGII8QA&#xA;FNWjI9K0mTzZ/iNbu6N2LM2f1X1ZPqvAP6hf0fs8+38K75hY+1MM9gfPkejM4ZDdrRdB0y0u9bvI&#xA;NQvpm1dvVuFuLh2jt/t/7zA0EI+M9PAeGXafXY8+0Dy8kSxmPNLNB8t+V9T/AC4GlaNrd/caDeh3&#xA;h1ZLtzdACXk/CdxVaOhUiniMyySC1gAhELo+ga75T0ZrTW7w6VpqxSwalBccZJltUMZ+sSMp514n&#xA;1KgHljZBWrC+W98sXy6f58TWpl0m2hb02jelnIspaLlLGUL8lZ6dqEb9Md+S7c1DSL3yMt3rnnOz&#xA;1FZ1lnWz1C7WpjiaBYofSAVdwGCty3+1144m+SiuaVaB5K8g675Ei8vaPqNzf6FYXjrPO7l5ZJkB&#xA;WVHeRB/vytUAoaFaUyRkQbQACKZ3e6pZ2Txxzeo0koZo44YZZ2KpxDHjErkAcxufHIUztVlBubJx&#xA;bymMzxn0Z1FSvNfhcA+Fa4FSPT/Kt9H5Ik8tarq82qXU9tcWtxq8q0lcXHMBipZ90Vwo37ZIne0V&#xA;tTF/I35Mf4N8uX+j6Xr1wJL65juWvPTCOvprx4AI6mh/1slKdljGFBmPmry3F5g01bGSX0Qsqyhi&#xA;gkFVDCnElf5sgDTIi2rLyxBbabp1kLqZRpxqrQt6Qf4uRDKKinbxpUV3ONrSOXS4Vvri8E0/O5Tg&#xA;0RlcxrsFqiVopoo6bA1IoWYs2tN6Vpqada/V1nmuByLepcPzffoKgAUA9t+pqxJKSkIvArsVdirs&#xA;VdiqC1yWzh0TUJb2BrqzjtpnubZFDtLEsZLxqpIDFlqKVwhBYfdt5A1LyJfRS6PdP5b0as4skgng&#xA;dvTBmDwIDHIa867096ZLe2O1Kl3d+RdQ0ZfME+l3E9r5Pdm09jDKsi+ksbiSBCV5rRUI5eG+NG67&#xA;07I/TR5S1a9m84xabKNR08TWyXk0MsczRolWMUbUJV1bY8anpgNjZdua7y5ceXRpWpeZrPSpdO+u&#xA;mWbUAyo8831cvV6QSTq9atx4t38cTfJR3ofTU8m6h+XUkkWkyReWnhmlk0toWWUpbu3ICJCWLM0V&#xA;VAPxbeOJu12pJNR0DyV558m6d5ivLLUtN03TbWf6rYlBFcpBCShBhAm6iCqUPQjJAkGkEAi0Ov5b&#xA;+Q/Nuk23me6i1KwiNqiehO0aSpFaL6Kl0QTCvGKvwsa48RGyOEHdOtD8t+S/Mq2fmfTpLiSP90Ii&#xA;W4gm1CxqGUj/AIrFaHASRskAHdR8u+XvI+tavc6tpst09zY3vqSBzxT1Vk5ggFa8Cw23riSQoAT/&#xA;AE+wtvrH6Nt9Uu2h00xf6Gy2/phYiGjTn6IkIHED7dffK+FkoW99osXmOPQW1e5mv4QWh014kESK&#xA;YiQBKkCV4xNtWQnxqcBx2PJQd08i0u2jbkvKpBG57EU8M12LsnDjNi+RHzbjmJVLayhtixjr8VK1&#xA;NemXaTQ48F8N7sZ5DLmutrO0tIzHawRwRszOyRKEUu55M1FA3YmpOZrBYsUNlbhLO0HAyL+5txGg&#xA;HqOA8lCUWi8i7dyK0BOxVUZ9N01NONgumxTWErcZLFI4hFSWTlI7RuVQjkxdu532Jw2hptK0qCza&#xA;0h0yFrS4lBntoooVjLMw5SOjcValAT1O3fG1pRl8r6C6wIllDAlvcLdxpDGiL6yusnOgX7XKNasN&#xA;/emNlaRtxYW088c8gb1oldI3R3QhZCpYfAVrUxr18MCVaKNIokijFEjUKg60AFB1xVdirsVdirsV&#xA;dirsVdirsVdirsVdiqE1O8e0tklRQxae3hIbpSedImO3gH2whS8Y82/nR5v0nzre6Nax2hs7e5EM&#xA;fOJy/HbqQ433y0YwQ1GZt7ZFeWktxPbRTI9xbcfrEKsC8fqDknNRuOQ3FcpbVbFXYq7FXYq7FVkM&#xA;MMMaxQoscS7KiAKo+QGKuiggh5+lGsfqMZJOAC8nbqxp1J8cVXBVDFgAGb7RpuaeOKrfq8Hret6a&#xA;+tSnq8Ryp4cuuKunt4biFoZkEkTijoehHvirp4IZ4zFMgeMkEqelVIYfcRiq25tbe6i9G4jEsXJX&#xA;4NuOUbB1P0MoOKquKuxV2KqVxaWtz6X1iJZfRkWaHmAeEi/Zda9CK9cVaurGzujCbmFJjbSCe3Lq&#xA;G4SqCA616MAxFcVdc2VpcvA9xCkr2snr2zOATHKFZOa16NxdhXwOKq2KuxV2KuxV2KuxV2KuxV2K&#xA;uxV2KuIB2Ir339t8VfKH5if+TQ1X/mOH/GuZMeTjy5voXy7/AMp35u/7d3/UO2YzkMqxV2KuxV2K&#xA;uxV2KuxV2KuxV2KuxV2KuxV2KuxV2KuxV2KuxV2KuxV2KuxV2KuxV2KuxV2KuxV2KvlD8xP/ACaG&#xA;q/8AMcP+NcyY8nHlzfQvl3/lO/N3/bu/6h2zGchlWKuxV2KuxV2KuxV2KuxV2KuxV2KuxV2KuxV2&#xA;KuxV2KuxV2KuxV2KuxV2KuxV2KuxV2KuxV2KuxV5nr35G6TrHmO51yTU7iKW5mE7QqiFQRTYE/LL&#xA;BkoUwMLL0G20qxttQvNQhj43d/6f1qTkx5eivBNiaCintlbNF4q7FXYq7FXYq7FXYq7FXYq7FXYq&#xA;7FXYq7FXYq7FXYq7FXYq7FXYq7FXYq7FXYq7FXYq7FXYq7FXYq7FXYq7FXYq7FXYq7FXYq7FXYq7&#xA;FXYq7FXYq7FXYq7FXYq7FXYq7FXYq7FXYq7FXYq7FXYq7FXYq7FXYq7FXYq7FXYq7FXYq7FXYq7F&#xA;XYq7FXYq7FXYq7FXYq7FXYq7FXYq7FXYq7FXYq7FXYq7FXYq7FXYq7FXYq7FXYq7FXYq7FXYq7FX&#xA;Yq7FXYq7FXYq7FXYq7FXYq7FXYq7FXYq7FXYq7FXYq7FXYq7FXYq7FXYq7FXYq7FXYq7FXYq7FXY&#xA;q7FXYq7FXYq7FXYq7FXYq7FXYq7FXYq7FXYq7FXYq7FXYq7FXYq7FXYq7FXYq7FXYq7FXYq7FXYq&#xA;7FXYq7FXYq7FXYq7FXYq7FXYq7FXYq7FXYq7FXYq7FXYq7FXYq7FXYq//9k=</xmpGImg:image>
               </rdf:li>
            </rdf:Alt>
         </xmp:Thumbnails>
         <xmpMM:OriginalDocumentID>uuid:9E3E5C9A8C81DB118734DB58FDDE4BA7</xmpMM:OriginalDocumentID>
         <xmpMM:DocumentID>xmp.did:81990709-16c0-a540-8aa7-d7d2764c8b80</xmpMM:DocumentID>
         <xmpMM:InstanceID>xmp.iid:81990709-16c0-a540-8aa7-d7d2764c8b80</xmpMM:InstanceID>
         <xmpMM:RenditionClass>proof:pdf</xmpMM:RenditionClass>
         <xmpMM:DerivedFrom rdf:parseType="Resource">
            <stRef:instanceID>xmp.iid:70017cfd-67d7-be4f-9f68-975506db94ab</stRef:instanceID>
            <stRef:documentID>xmp.did:70017cfd-67d7-be4f-9f68-975506db94ab</stRef:documentID>
            <stRef:originalDocumentID>uuid:9E3E5C9A8C81DB118734DB58FDDE4BA7</stRef:originalDocumentID>
            <stRef:renditionClass>proof:pdf</stRef:renditionClass>
         </xmpMM:DerivedFrom>
         <xmpMM:History>
            <rdf:Seq>
               <rdf:li rdf:parseType="Resource">
                  <stEvt:action>saved</stEvt:action>
                  <stEvt:instanceID>xmp.iid:b4c9dad8-1ff0-5745-bc3b-35a339d98d4b</stEvt:instanceID>
                  <stEvt:when>2018-09-26T16:18:49+03:00</stEvt:when>
                  <stEvt:softwareAgent>Adobe Illustrator CC 22.1 (Windows)</stEvt:softwareAgent>
                  <stEvt:changed>/</stEvt:changed>
               </rdf:li>
               <rdf:li rdf:parseType="Resource">
                  <stEvt:action>saved</stEvt:action>
                  <stEvt:instanceID>xmp.iid:81990709-16c0-a540-8aa7-d7d2764c8b80</stEvt:instanceID>
                  <stEvt:when>2019-09-05T15:46:39+03:00</stEvt:when>
                  <stEvt:softwareAgent>Adobe Illustrator CC 23.0 (Windows)</stEvt:softwareAgent>
                  <stEvt:changed>/</stEvt:changed>
               </rdf:li>
            </rdf:Seq>
         </xmpMM:History>
         <illustrator:StartupProfile>Basic RGB</illustrator:StartupProfile>
         <pdf:Producer>Adobe PDF library 15.00</pdf:Producer>
         <xmpTPg:MaxPageSize rdf:parseType="Resource">
            <stDim:w>108.000000</stDim:w>
            <stDim:h>108.000000</stDim:h>
            <stDim:unit>Pixels</stDim:unit>
         </xmpTPg:MaxPageSize>
         <xmpTPg:NPages>1</xmpTPg:NPages>
         <xmpTPg:HasVisibleTransparency>True</xmpTPg:HasVisibleTransparency>
         <xmpTPg:HasVisibleOverprint>False</xmpTPg:HasVisibleOverprint>
         <xmpTPg:PlateNames>
            <rdf:Seq>
               <rdf:li>Cyan</rdf:li>
               <rdf:li>Magenta</rdf:li>
               <rdf:li>Yellow</rdf:li>
               <rdf:li>Black</rdf:li>
            </rdf:Seq>
         </xmpTPg:PlateNames>
         <xmpTPg:SwatchGroups>
            <rdf:Seq>
               <rdf:li rdf:parseType="Resource">
                  <xmpG:groupName>Default Swatch Group</xmpG:groupName>
                  <xmpG:groupType>0</xmpG:groupType>
                  <xmpG:Colorants>
                     <rdf:Seq>
                        <rdf:li rdf:parseType="Resource">
                           <xmpG:swatchName>White</xmpG:swatchName>
                           <xmpG:mode>RGB</xmpG:mode>
                           <xmpG:type>PROCESS</xmpG:type>
                           <xmpG:red>255</xmpG:red>
                           <xmpG:green>255</xmpG:green>
                           <xmpG:blue>255</xmpG:blue>
                        </rdf:li>
                        <rdf:li rdf:parseType="Resource">
                           <xmpG:swatchName>Black</xmpG:swatchName>
                           <xmpG:mode>RGB</xmpG:mode>
                           <xmpG:type>PROCESS</xmpG:type>
                           <xmpG:red>0</xmpG:red>
                           <xmpG:green>0</xmpG:green>
                           <xmpG:blue>0</xmpG:blue>
                        </rdf:li>
                        <rdf:li rdf:parseType="Resource">
                           <xmpG:swatchName>RGB Red</xmpG:swatchName>
                           <xmpG:mode>RGB</xmpG:mode>
                           <xmpG:type>PROCESS</xmpG:type>
                           <xmpG:red>255</xmpG:red>
                           <xmpG:green>0</xmpG:green>
                           <xmpG:blue>0</xmpG:blue>
                        </rdf:li>
                        <rdf:li rdf:parseType="Resource">
                           <xmpG:swatchName>RGB Yellow</xmpG:swatchName>
                           <xmpG:mode>RGB</xmpG:mode>
                           <xmpG:type>PROCESS</xmpG:type>
                           <xmpG:red>255</xmpG:red>
                           <xmpG:green>255</xmpG:green>
                           <xmpG:blue>0</xmpG:blue>
                        </rdf:li>
                        <rdf:li rdf:parseType="Resource">
                           <xmpG:swatchName>RGB Green</xmpG:swatchName>
                           <xmpG:mode>RGB</xmpG:mode>
                           <xmpG:type>PROCESS</xmpG:type>
                           <xmpG:red>0</xmpG:red>
                           <xmpG:green>255</xmpG:green>
                           <xmpG:blue>0</xmpG:blue>
                        </rdf:li>
                        <rdf:li rdf:parseType="Resource">
                           <xmpG:swatchName>RGB Cyan</xmpG:swatchName>
                           <xmpG:mode>RGB</xmpG:mode>
                           <xmpG:type>PROCESS</xmpG:type>
                           <xmpG:red>0</xmpG:red>
                           <xmpG:green>255</xmpG:green>
                           <xmpG:blue>255</xmpG:blue>
                        </rdf:li>
                        <rdf:li rdf:parseType="Resource">
                           <xmpG:swatchName>RGB Blue</xmpG:swatchName>
                           <xmpG:mode>RGB</xmpG:mode>
                           <xmpG:type>PROCESS</xmpG:type>
                           <xmpG:red>0</xmpG:red>
                           <xmpG:green>0</xmpG:green>
                           <xmpG:blue>255</xmpG:blue>
                        </rdf:li>
                        <rdf:li rdf:parseType="Resource">
                           <xmpG:swatchName>RGB Magenta</xmpG:swatchName>
                           <xmpG:mode>RGB</xmpG:mode>
                           <xmpG:type>PROCESS</xmpG:type>
                           <xmpG:red>255</xmpG:red>
                           <xmpG:green>0</xmpG:green>
                           <xmpG:blue>255</xmpG:blue>
                        </rdf:li>
                        <rdf:li rdf:parseType="Resource">
                           <xmpG:swatchName>R=193 G=39 B=45</xmpG:swatchName>
                           <xmpG:mode>RGB</xmpG:mode>
                           <xmpG:type>PROCESS</xmpG:type>
                           <xmpG:red>193</xmpG:red>
                           <xmpG:green>39</xmpG:green>
                           <xmpG:blue>45</xmpG:blue>
                        </rdf:li>
                        <rdf:li rdf:parseType="Resource">
                           <xmpG:swatchName>R=237 G=28 B=36</xmpG:swatchName>
                           <xmpG:mode>RGB</xmpG:mode>
                           <xmpG:type>PROCESS</xmpG:type>
                           <xmpG:red>237</xmpG:red>
                           <xmpG:green>28</xmpG:green>
                           <xmpG:blue>36</xmpG:blue>
                        </rdf:li>
                        <rdf:li rdf:parseType="Resource">
                           <xmpG:swatchName>R=241 G=90 B=36</xmpG:swatchName>
                           <xmpG:mode>RGB</xmpG:mode>
                           <xmpG:type>PROCESS</xmpG:type>
                           <xmpG:red>241</xmpG:red>
                           <xmpG:green>90</xmpG:green>
                           <xmpG:blue>36</xmpG:blue>
                        </rdf:li>
                        <rdf:li rdf:parseType="Resource">
                           <xmpG:swatchName>R=247 G=147 B=30</xmpG:swatchName>
                           <xmpG:mode>RGB</xmpG:mode>
                           <xmpG:type>PROCESS</xmpG:type>
                           <xmpG:red>247</xmpG:red>
                           <xmpG:green>147</xmpG:green>
                           <xmpG:blue>30</xmpG:blue>
                        </rdf:li>
                        <rdf:li rdf:parseType="Resource">
                           <xmpG:swatchName>R=251 G=176 B=59</xmpG:swatchName>
                           <xmpG:mode>RGB</xmpG:mode>
                           <xmpG:type>PROCESS</xmpG:type>
                           <xmpG:red>251</xmpG:red>
                           <xmpG:green>176</xmpG:green>
                           <xmpG:blue>59</xmpG:blue>
                        </rdf:li>
                        <rdf:li rdf:parseType="Resource">
                           <xmpG:swatchName>R=252 G=238 B=33</xmpG:swatchName>
                           <xmpG:mode>RGB</xmpG:mode>
                           <xmpG:type>PROCESS</xmpG:type>
                           <xmpG:red>252</xmpG:red>
                           <xmpG:green>238</xmpG:green>
                           <xmpG:blue>33</xmpG:blue>
                        </rdf:li>
                        <rdf:li rdf:parseType="Resource">
                           <xmpG:swatchName>R=217 G=224 B=33</xmpG:swatchName>
                           <xmpG:mode>RGB</xmpG:mode>
                           <xmpG:type>PROCESS</xmpG:type>
                           <xmpG:red>217</xmpG:red>
                           <xmpG:green>224</xmpG:green>
                           <xmpG:blue>33</xmpG:blue>
                        </rdf:li>
                        <rdf:li rdf:parseType="Resource">
                           <xmpG:swatchName>R=140 G=198 B=63</xmpG:swatchName>
                           <xmpG:mode>RGB</xmpG:mode>
                           <xmpG:type>PROCESS</xmpG:type>
                           <xmpG:red>140</xmpG:red>
                           <xmpG:green>198</xmpG:green>
                           <xmpG:blue>63</xmpG:blue>
                        </rdf:li>
                        <rdf:li rdf:parseType="Resource">
                           <xmpG:swatchName>R=57 G=181 B=74</xmpG:swatchName>
                           <xmpG:mode>RGB</xmpG:mode>
                           <xmpG:type>PROCESS</xmpG:type>
                           <xmpG:red>57</xmpG:red>
                           <xmpG:green>181</xmpG:green>
                           <xmpG:blue>74</xmpG:blue>
                        </rdf:li>
                        <rdf:li rdf:parseType="Resource">
                           <xmpG:swatchName>R=0 G=146 B=69</xmpG:swatchName>
                           <xmpG:mode>RGB</xmpG:mode>
                           <xmpG:type>PROCESS</xmpG:type>
                           <xmpG:red>0</xmpG:red>
                           <xmpG:green>146</xmpG:green>
                           <xmpG:blue>69</xmpG:blue>
                        </rdf:li>
                        <rdf:li rdf:parseType="Resource">
                           <xmpG:swatchName>R=0 G=104 B=55</xmpG:swatchName>
                           <xmpG:mode>RGB</xmpG:mode>
                           <xmpG:type>PROCESS</xmpG:type>
                           <xmpG:red>0</xmpG:red>
                           <xmpG:green>104</xmpG:green>
                           <xmpG:blue>55</xmpG:blue>
                        </rdf:li>
                        <rdf:li rdf:parseType="Resource">
                           <xmpG:swatchName>R=34 G=181 B=115</xmpG:swatchName>
                           <xmpG:mode>RGB</xmpG:mode>
                           <xmpG:type>PROCESS</xmpG:type>
                           <xmpG:red>34</xmpG:red>
                           <xmpG:green>181</xmpG:green>
                           <xmpG:blue>115</xmpG:blue>
                        </rdf:li>
                        <rdf:li rdf:parseType="Resource">
                           <xmpG:swatchName>R=0 G=169 B=157</xmpG:swatchName>
                           <xmpG:mode>RGB</xmpG:mode>
                           <xmpG:type>PROCESS</xmpG:type>
                           <xmpG:red>0</xmpG:red>
                           <xmpG:green>169</xmpG:green>
                           <xmpG:blue>157</xmpG:blue>
                        </rdf:li>
                        <rdf:li rdf:parseType="Resource">
                           <xmpG:swatchName>R=41 G=171 B=226</xmpG:swatchName>
                           <xmpG:mode>RGB</xmpG:mode>
                           <xmpG:type>PROCESS</xmpG:type>
                           <xmpG:red>41</xmpG:red>
                           <xmpG:green>171</xmpG:green>
                           <xmpG:blue>226</xmpG:blue>
                        </rdf:li>
                        <rdf:li rdf:parseType="Resource">
                           <xmpG:swatchName>R=0 G=113 B=188</xmpG:swatchName>
                           <xmpG:mode>RGB</xmpG:mode>
                           <xmpG:type>PROCESS</xmpG:type>
                           <xmpG:red>0</xmpG:red>
                           <xmpG:green>113</xmpG:green>
                           <xmpG:blue>188</xmpG:blue>
                        </rdf:li>
                        <rdf:li rdf:parseType="Resource">
                           <xmpG:swatchName>R=46 G=49 B=146</xmpG:swatchName>
                           <xmpG:mode>RGB</xmpG:mode>
                           <xmpG:type>PROCESS</xmpG:type>
                           <xmpG:red>46</xmpG:red>
                           <xmpG:green>49</xmpG:green>
                           <xmpG:blue>146</xmpG:blue>
                        </rdf:li>
                        <rdf:li rdf:parseType="Resource">
                           <xmpG:swatchName>R=27 G=20 B=100</xmpG:swatchName>
                           <xmpG:mode>RGB</xmpG:mode>
                           <xmpG:type>PROCESS</xmpG:type>
                           <xmpG:red>27</xmpG:red>
                           <xmpG:green>20</xmpG:green>
                           <xmpG:blue>100</xmpG:blue>
                        </rdf:li>
                        <rdf:li rdf:parseType="Resource">
                           <xmpG:swatchName>R=102 G=45 B=145</xmpG:swatchName>
                           <xmpG:mode>RGB</xmpG:mode>
                           <xmpG:type>PROCESS</xmpG:type>
                           <xmpG:red>102</xmpG:red>
                           <xmpG:green>45</xmpG:green>
                           <xmpG:blue>145</xmpG:blue>
                        </rdf:li>
                        <rdf:li rdf:parseType="Resource">
                           <xmpG:swatchName>R=147 G=39 B=143</xmpG:swatchName>
                           <xmpG:mode>RGB</xmpG:mode>
                           <xmpG:type>PROCESS</xmpG:type>
                           <xmpG:red>147</xmpG:red>
                           <xmpG:green>39</xmpG:green>
                           <xmpG:blue>143</xmpG:blue>
                        </rdf:li>
                        <rdf:li rdf:parseType="Resource">
                           <xmpG:swatchName>R=158 G=0 B=93</xmpG:swatchName>
                           <xmpG:mode>RGB</xmpG:mode>
                           <xmpG:type>PROCESS</xmpG:type>
                           <xmpG:red>158</xmpG:red>
                           <xmpG:green>0</xmpG:green>
                           <xmpG:blue>93</xmpG:blue>
                        </rdf:li>
                        <rdf:li rdf:parseType="Resource">
                           <xmpG:swatchName>R=212 G=20 B=90</xmpG:swatchName>
                           <xmpG:mode>RGB</xmpG:mode>
                           <xmpG:type>PROCESS</xmpG:type>
                           <xmpG:red>212</xmpG:red>
                           <xmpG:green>20</xmpG:green>
                           <xmpG:blue>90</xmpG:blue>
                        </rdf:li>
                        <rdf:li rdf:parseType="Resource">
                           <xmpG:swatchName>R=237 G=30 B=121</xmpG:swatchName>
                           <xmpG:mode>RGB</xmpG:mode>
                           <xmpG:type>PROCESS</xmpG:type>
                           <xmpG:red>237</xmpG:red>
                           <xmpG:green>30</xmpG:green>
                           <xmpG:blue>121</xmpG:blue>
                        </rdf:li>
                        <rdf:li rdf:parseType="Resource">
                           <xmpG:swatchName>R=199 G=178 B=153</xmpG:swatchName>
                           <xmpG:mode>RGB</xmpG:mode>
                           <xmpG:type>PROCESS</xmpG:type>
                           <xmpG:red>199</xmpG:red>
                           <xmpG:green>178</xmpG:green>
                           <xmpG:blue>153</xmpG:blue>
                        </rdf:li>
                        <rdf:li rdf:parseType="Resource">
                           <xmpG:swatchName>R=153 G=134 B=117</xmpG:swatchName>
                           <xmpG:mode>RGB</xmpG:mode>
                           <xmpG:type>PROCESS</xmpG:type>
                           <xmpG:red>153</xmpG:red>
                           <xmpG:green>134</xmpG:green>
                           <xmpG:blue>117</xmpG:blue>
                        </rdf:li>
                        <rdf:li rdf:parseType="Resource">
                           <xmpG:swatchName>R=115 G=99 B=87</xmpG:swatchName>
                           <xmpG:mode>RGB</xmpG:mode>
                           <xmpG:type>PROCESS</xmpG:type>
                           <xmpG:red>115</xmpG:red>
                           <xmpG:green>99</xmpG:green>
                           <xmpG:blue>87</xmpG:blue>
                        </rdf:li>
                        <rdf:li rdf:parseType="Resource">
                           <xmpG:swatchName>R=83 G=71 B=65</xmpG:swatchName>
                           <xmpG:mode>RGB</xmpG:mode>
                           <xmpG:type>PROCESS</xmpG:type>
                           <xmpG:red>83</xmpG:red>
                           <xmpG:green>71</xmpG:green>
                           <xmpG:blue>65</xmpG:blue>
                        </rdf:li>
                        <rdf:li rdf:parseType="Resource">
                           <xmpG:swatchName>R=198 G=156 B=109</xmpG:swatchName>
                           <xmpG:mode>RGB</xmpG:mode>
                           <xmpG:type>PROCESS</xmpG:type>
                           <xmpG:red>198</xmpG:red>
                           <xmpG:green>156</xmpG:green>
                           <xmpG:blue>109</xmpG:blue>
                        </rdf:li>
                        <rdf:li rdf:parseType="Resource">
                           <xmpG:swatchName>R=166 G=124 B=82</xmpG:swatchName>
                           <xmpG:mode>RGB</xmpG:mode>
                           <xmpG:type>PROCESS</xmpG:type>
                           <xmpG:red>166</xmpG:red>
                           <xmpG:green>124</xmpG:green>
                           <xmpG:blue>82</xmpG:blue>
                        </rdf:li>
                        <rdf:li rdf:parseType="Resource">
                           <xmpG:swatchName>R=140 G=98 B=57</xmpG:swatchName>
                           <xmpG:mode>RGB</xmpG:mode>
                           <xmpG:type>PROCESS</xmpG:type>
                           <xmpG:red>140</xmpG:red>
                           <xmpG:green>98</xmpG:green>
                           <xmpG:blue>57</xmpG:blue>
                        </rdf:li>
                        <rdf:li rdf:parseType="Resource">
                           <xmpG:swatchName>R=117 G=76 B=36</xmpG:swatchName>
                           <xmpG:mode>RGB</xmpG:mode>
                           <xmpG:type>PROCESS</xmpG:type>
                           <xmpG:red>117</xmpG:red>
                           <xmpG:green>76</xmpG:green>
                           <xmpG:blue>36</xmpG:blue>
                        </rdf:li>
                        <rdf:li rdf:parseType="Resource">
                           <xmpG:swatchName>R=96 G=56 B=19</xmpG:swatchName>
                           <xmpG:mode>RGB</xmpG:mode>
                           <xmpG:type>PROCESS</xmpG:type>
                           <xmpG:red>96</xmpG:red>
                           <xmpG:green>56</xmpG:green>
                           <xmpG:blue>19</xmpG:blue>
                        </rdf:li>
                        <rdf:li rdf:parseType="Resource">
                           <xmpG:swatchName>R=66 G=33 B=11</xmpG:swatchName>
                           <xmpG:mode>RGB</xmpG:mode>
                           <xmpG:type>PROCESS</xmpG:type>
                           <xmpG:red>66</xmpG:red>
                           <xmpG:green>33</xmpG:green>
                           <xmpG:blue>11</xmpG:blue>
                        </rdf:li>
                        <rdf:li rdf:parseType="Resource">
                           <xmpG:swatchName>R=148 G=193 B=199</xmpG:swatchName>
                           <xmpG:type>PROCESS</xmpG:type>
                           <xmpG:tint>100.000000</xmpG:tint>
                           <xmpG:mode>RGB</xmpG:mode>
                           <xmpG:red>148</xmpG:red>
                           <xmpG:green>193</xmpG:green>
                           <xmpG:blue>199</xmpG:blue>
                        </rdf:li>
                     </rdf:Seq>
                  </xmpG:Colorants>
               </rdf:li>
               <rdf:li rdf:parseType="Resource">
                  <xmpG:groupName>Grays</xmpG:groupName>
                  <xmpG:groupType>0</xmpG:groupType>
                  <xmpG:Colorants>
                     <rdf:Seq>
                        <rdf:li rdf:parseType="Resource">
                           <xmpG:swatchName>R=0 G=0 B=0</xmpG:swatchName>
                           <xmpG:mode>RGB</xmpG:mode>
                           <xmpG:type>PROCESS</xmpG:type>
                           <xmpG:red>0</xmpG:red>
                           <xmpG:green>0</xmpG:green>
                           <xmpG:blue>0</xmpG:blue>
                        </rdf:li>
                        <rdf:li rdf:parseType="Resource">
                           <xmpG:swatchName>R=26 G=26 B=26</xmpG:swatchName>
                           <xmpG:mode>RGB</xmpG:mode>
                           <xmpG:type>PROCESS</xmpG:type>
                           <xmpG:red>26</xmpG:red>
                           <xmpG:green>26</xmpG:green>
                           <xmpG:blue>26</xmpG:blue>
                        </rdf:li>
                        <rdf:li rdf:parseType="Resource">
                           <xmpG:swatchName>R=51 G=51 B=51</xmpG:swatchName>
                           <xmpG:mode>RGB</xmpG:mode>
                           <xmpG:type>PROCESS</xmpG:type>
                           <xmpG:red>51</xmpG:red>
                           <xmpG:green>51</xmpG:green>
                           <xmpG:blue>51</xmpG:blue>
                        </rdf:li>
                        <rdf:li rdf:parseType="Resource">
                           <xmpG:swatchName>R=77 G=77 B=77</xmpG:swatchName>
                           <xmpG:mode>RGB</xmpG:mode>
                           <xmpG:type>PROCESS</xmpG:type>
                           <xmpG:red>77</xmpG:red>
                           <xmpG:green>77</xmpG:green>
                           <xmpG:blue>77</xmpG:blue>
                        </rdf:li>
                        <rdf:li rdf:parseType="Resource">
                           <xmpG:swatchName>R=102 G=102 B=102</xmpG:swatchName>
                           <xmpG:mode>RGB</xmpG:mode>
                           <xmpG:type>PROCESS</xmpG:type>
                           <xmpG:red>102</xmpG:red>
                           <xmpG:green>102</xmpG:green>
                           <xmpG:blue>102</xmpG:blue>
                        </rdf:li>
                        <rdf:li rdf:parseType="Resource">
                           <xmpG:swatchName>R=128 G=128 B=128</xmpG:swatchName>
                           <xmpG:mode>RGB</xmpG:mode>
                           <xmpG:type>PROCESS</xmpG:type>
                           <xmpG:red>128</xmpG:red>
                           <xmpG:green>128</xmpG:green>
                           <xmpG:blue>128</xmpG:blue>
                        </rdf:li>
                        <rdf:li rdf:parseType="Resource">
                           <xmpG:swatchName>R=153 G=153 B=153</xmpG:swatchName>
                           <xmpG:mode>RGB</xmpG:mode>
                           <xmpG:type>PROCESS</xmpG:type>
                           <xmpG:red>153</xmpG:red>
                           <xmpG:green>153</xmpG:green>
                           <xmpG:blue>153</xmpG:blue>
                        </rdf:li>
                        <rdf:li rdf:parseType="Resource">
                           <xmpG:swatchName>R=179 G=179 B=179</xmpG:swatchName>
                           <xmpG:mode>RGB</xmpG:mode>
                           <xmpG:type>PROCESS</xmpG:type>
                           <xmpG:red>179</xmpG:red>
                           <xmpG:green>179</xmpG:green>
                           <xmpG:blue>179</xmpG:blue>
                        </rdf:li>
                        <rdf:li rdf:parseType="Resource">
                           <xmpG:swatchName>R=204 G=204 B=204</xmpG:swatchName>
                           <xmpG:mode>RGB</xmpG:mode>
                           <xmpG:type>PROCESS</xmpG:type>
                           <xmpG:red>204</xmpG:red>
                           <xmpG:green>204</xmpG:green>
                           <xmpG:blue>204</xmpG:blue>
                        </rdf:li>
                        <rdf:li rdf:parseType="Resource">
                           <xmpG:swatchName>R=230 G=230 B=230</xmpG:swatchName>
                           <xmpG:mode>RGB</xmpG:mode>
                           <xmpG:type>PROCESS</xmpG:type>
                           <xmpG:red>230</xmpG:red>
                           <xmpG:green>230</xmpG:green>
                           <xmpG:blue>230</xmpG:blue>
                        </rdf:li>
                        <rdf:li rdf:parseType="Resource">
                           <xmpG:swatchName>R=242 G=242 B=242</xmpG:swatchName>
                           <xmpG:mode>RGB</xmpG:mode>
                           <xmpG:type>PROCESS</xmpG:type>
                           <xmpG:red>242</xmpG:red>
                           <xmpG:green>242</xmpG:green>
                           <xmpG:blue>242</xmpG:blue>
                        </rdf:li>
                     </rdf:Seq>
                  </xmpG:Colorants>
               </rdf:li>
               <rdf:li rdf:parseType="Resource">
                  <xmpG:groupName>Carmel</xmpG:groupName>
                  <xmpG:groupType>1</xmpG:groupType>
                  <xmpG:Colorants>
                     <rdf:Seq>
                        <rdf:li rdf:parseType="Resource">
                           <xmpG:swatchName>R=141 G=198 B=255</xmpG:swatchName>
                           <xmpG:mode>RGB</xmpG:mode>
                           <xmpG:type>PROCESS</xmpG:type>
                           <xmpG:red>141</xmpG:red>
                           <xmpG:green>198</xmpG:green>
                           <xmpG:blue>255</xmpG:blue>
                        </rdf:li>
                        <rdf:li rdf:parseType="Resource">
                           <xmpG:swatchName>R=246 G=234 B=117</xmpG:swatchName>
                           <xmpG:mode>RGB</xmpG:mode>
                           <xmpG:type>PROCESS</xmpG:type>
                           <xmpG:red>246</xmpG:red>
                           <xmpG:green>234</xmpG:green>
                           <xmpG:blue>117</xmpG:blue>
                        </rdf:li>
                        <rdf:li rdf:parseType="Resource">
                           <xmpG:swatchName>R=18 G=36 B=56</xmpG:swatchName>
                           <xmpG:mode>RGB</xmpG:mode>
                           <xmpG:type>PROCESS</xmpG:type>
                           <xmpG:red>18</xmpG:red>
                           <xmpG:green>36</xmpG:green>
                           <xmpG:blue>56</xmpG:blue>
                        </rdf:li>
                        <rdf:li rdf:parseType="Resource">
                           <xmpG:swatchName>R=149 G=158 B=167</xmpG:swatchName>
                           <xmpG:mode>RGB</xmpG:mode>
                           <xmpG:type>PROCESS</xmpG:type>
                           <xmpG:red>149</xmpG:red>
                           <xmpG:green>158</xmpG:green>
                           <xmpG:blue>167</xmpG:blue>
                        </rdf:li>
                     </rdf:Seq>
                  </xmpG:Colorants>
               </rdf:li>
            </rdf:Seq>
         </xmpTPg:SwatchGroups>
      </rdf:Description>
   </rdf:RDF>
</x:xmpmeta>
                                                                                                    
                                                                                                    
                                                                                                    
                                                                                                    
                                                                                                    
                                                                                                    
                                                                                                    
                                                                                                    
                                                                                                    
                                                                                                    
                                                                                                    
                                                                                                    
                                                                                                    
                                                                                                    
                                                                                                    
                                                                                                    
                                                                                                    
                                                                                                    
                                                                                                    
                                                                                                    
                           
<?xpacket end="w"?>
	</metadata>
<g>
	<g>
		<g>
			<path class="st1" d="M52,78c-1.9,0-3.5-1.3-3.8-3.2l-0.4-2.6c-0.7-0.3-1.4-0.5-2.1-0.8l-2.2,1.6c-0.6,0.5-1.4,0.7-2.2,0.7
				c-1,0-2-0.4-2.7-1.1l-2.9-2.9c-1.3-1.3-1.5-3.4-0.4-4.9l1.5-2.1c-0.3-0.7-0.6-1.4-0.9-2.2l-2.7-0.5C31.3,59.6,30,58,30,56.1v-4.1
				c0-1.9,1.3-3.5,3.2-3.8l2.6-0.4c0.3-0.8,0.5-1.5,0.9-2.2l-1.6-2.2c-1.1-1.5-0.9-3.6,0.4-4.9l2.9-2.9c0.7-0.7,1.7-1.1,2.7-1.1
				c0.8,0,1.6,0.3,2.2,0.7l2.1,1.6c0.7-0.3,1.4-0.6,2.2-0.9l0.4-2.7c0.3-1.9,1.9-3.2,3.8-3.2h4c1.9,0,3.5,1.3,3.8,3.2l0.4,2.6
				c0.8,0.3,1.5,0.6,2.3,0.9l2.2-1.5c0.6-0.5,1.4-0.7,2.2-0.7c1,0,2,0.4,2.7,1.1l2.9,2.9c1.3,1.3,1.5,3.4,0.4,4.9l-1.5,2.2
				c0.3,0.7,0.6,1.4,0.9,2.2l2.6,0.4c1.9,0.3,3.2,1.9,3.2,3.8v4c0,1.9-1.3,3.5-3.2,3.8l-2.6,0.4c-0.3,0.7-0.6,1.4-0.9,2.2l1.5,2.2
				c1.1,1.5,0.9,3.6-0.4,4.9l-2.9,2.9c-0.7,0.7-1.7,1.1-2.7,1.1c-0.8,0-1.6-0.3-2.2-0.7l-2.2-1.5c-0.7,0.3-1.4,0.6-2.2,0.9l-0.4,2.6
				C59.5,76.7,57.9,78,56,78H52z M54,45.1c-4.9,0-8.9,4-8.9,8.9c0,4.9,4,8.9,8.9,8.9c4.9,0,8.9-4,8.9-8.9
				C62.9,49.1,58.9,45.1,54,45.1z"/>
			<path class="st1" d="M55.9,31c1.4,0,2.6,1,2.8,2.4l0.5,3.2c1.1,0.3,2.2,0.8,3.3,1.3l2.7-1.9c0.5-0.3,1-0.5,1.6-0.5
				c0.8,0,1.5,0.3,2,0.8l2.9,2.9c1,1,1.1,2.5,0.3,3.7l-1.9,2.7c0.5,1,1,2,1.3,3.1l3.2,0.5C76,49.4,77,50.6,77,52v4
				c0,1.4-1,2.6-2.4,2.8l-3.2,0.5c-0.3,1.1-0.8,2.1-1.3,3.1l1.9,2.7c0.8,1.1,0.7,2.7-0.3,3.7l-2.9,2.9c-0.5,0.5-1.3,0.8-2,0.8
				c-0.6,0-1.2-0.2-1.6-0.5l-2.7-1.9c-1,0.5-2,1-3.1,1.3l-0.5,3.2C58.6,76,57.4,77,56,77h-4c-1.4,0-2.6-1-2.8-2.4l-0.5-3.2
				c-1-0.3-2.1-0.7-3-1.3l-2.7,1.9c-0.5,0.3-1,0.5-1.7,0.5c-0.8,0-1.5-0.3-2-0.8l-2.9-2.9c-1-1-1.1-2.5-0.3-3.7l1.9-2.6
				c-0.5-1-1-2-1.3-3.1l-3.3-0.6C32,58.7,31,57.5,31,56.1v-4c0-1.4,1-2.6,2.4-2.8l3.2-0.5c0.3-1.1,0.8-2.1,1.3-3.1l-1.9-2.7
				c-0.8-1.1-0.7-2.7,0.3-3.7l2.9-2.9c0.5-0.5,1.3-0.8,2-0.8c0.6,0,1.2,0.2,1.7,0.5l2.6,1.9c1-0.5,2-1,3.1-1.3l0.5-3.3
				c0.2-1.4,1.4-2.4,2.8-2.4H55.9 M54,63.9c5.5,0,9.9-4.5,9.9-9.9c0-5.5-4.4-9.9-9.9-9.9c-5.5,0-9.9,4.5-9.9,9.9
				C44.1,59.5,48.5,63.9,54,63.9 M55.9,29h-4c-2.4,0-4.4,1.7-4.8,4l-0.4,2.1c-0.4,0.2-0.8,0.3-1.2,0.5l-1.7-1.2
				c-0.8-0.6-1.8-0.9-2.8-0.9c-1.3,0-2.5,0.5-3.4,1.4l-2.9,2.9c-1.7,1.7-1.9,4.3-0.5,6.2l1.2,1.7c-0.2,0.4-0.3,0.8-0.5,1.2l-2,0.3
				c-2.3,0.4-4,2.4-4,4.8v4c0,2.4,1.7,4.4,4,4.8l2.1,0.4c0.2,0.4,0.3,0.8,0.5,1.2l-1.2,1.7c-1.4,2-1.2,4.6,0.5,6.3l2.9,2.9
				c0.9,0.9,2.1,1.4,3.4,1.4c1,0,2-0.3,2.8-0.9l1.7-1.2c0.3,0.2,0.7,0.3,1.1,0.4l0.3,2.1c0.4,2.3,2.4,4,4.8,4h4c2.4,0,4.4-1.7,4.8-4
				l0.4-2.1c0.4-0.2,0.8-0.3,1.2-0.5l1.7,1.2c0.8,0.6,1.8,0.9,2.8,0.9c1.3,0,2.5-0.5,3.4-1.4l2.9-2.9c1.7-1.7,1.9-4.3,0.5-6.2
				l-1.2-1.7c0.2-0.4,0.3-0.8,0.5-1.2l2.1-0.3c2.3-0.4,4-2.4,4-4.8v-4c0-2.4-1.7-4.4-4-4.8l-2.1-0.4c-0.2-0.4-0.3-0.8-0.5-1.2
				l1.2-1.7c1.4-1.9,1.2-4.6-0.5-6.2l-2.9-2.9c-0.9-0.9-2.1-1.4-3.4-1.4c-1,0-2,0.3-2.8,0.9l-1.7,1.2c-0.4-0.2-0.9-0.4-1.3-0.5
				l-0.3-2C60.3,30.7,58.3,29,55.9,29L55.9,29z M54,61.9c-4.4,0-7.9-3.6-7.9-7.9c0-4.4,3.6-7.9,7.9-7.9c4.4,0,7.9,3.6,7.9,7.9
				C61.9,58.4,58.4,61.9,54,61.9L54,61.9z"/>
		</g>
		<g>
			<path class="st1" d="M54,44.1c-5.5,0-9.9,4.5-9.9,9.9c0,5.5,4.5,9.9,9.9,9.9c5.5,0,9.9-4.5,9.9-9.9C63.9,48.5,59.5,44.1,54,44.1z
				 M54,61.3c-4,0-7.3-3.3-7.3-7.3c0-4,3.3-7.3,7.3-7.3c4,0,7.3,3.3,7.3,7.3C61.3,58,58,61.3,54,61.3z"/>
		</g>
	</g>
</g>
</svg>
