<?xml version="1.0" encoding="utf-8"?>
<!-- Generator: Adobe Illustrator 23.0.1, SVG Export Plug-In . SVG Version: 6.00 Build 0)  -->
<svg version="1.1" id="Layer_1" xmlns="http://www.w3.org/2000/svg" xmlns:xlink="http://www.w3.org/1999/xlink" x="0px" y="0px"
	 viewBox="0 0 145 114" style="enable-background:new 0 0 145 114;" xml:space="preserve">
<style type="text/css">
	.st0{opacity:0.85;fill:#2B3D4F;}
	.st1{fill:#FFFFFF;}
	.st2{fill:#122438;}
	.st3{fill:#959EA7;}
	.st4{fill:#1C2733;}
	.st5{fill:#122438;stroke:#122438;stroke-miterlimit:10;}
	.st6{fill:#122438;stroke:#1C2733;stroke-miterlimit:10;}
	.st7{fill:#122438;stroke:#FFFFFF;stroke-width:1.3626;stroke-miterlimit:10;}
	.st8{fill:#F6EA75;}
	.st9{fill:#FA4545;}
	.st10{fill:none;}
	.st11{fill:#85EFA8;}
	.st12{opacity:0.6;fill:#2B3D4F;}
	.st13{opacity:0.5;}
	.st14{enable-background:new    ;}
	.st15{fill:none;stroke:#FFFFFF;stroke-width:3;stroke-miterlimit:10;}
	.st16{fill:#8DC6FF;}
	.st17{fill:#122438;stroke:#FFFFFF;stroke-miterlimit:10;}
	.st18{fill:#FFFFFF;stroke:#122438;stroke-width:3;stroke-miterlimit:10;}
	.st19{opacity:0.65;fill:url(#Compass_x5F_Circle_13_);}
	.st20{fill:url(#SVGID_1_);}
	.st21{opacity:0.65;fill:none;}
	.st22{fill:#F27E80;}
	.st23{fill:#FA4545;stroke:#122438;stroke-width:1.1465;stroke-miterlimit:10;}
	.st24{opacity:0.65;fill:url(#Compass_x5F_Circle_14_);}
	.st25{fill:none;stroke:#1C2733;stroke-width:6;stroke-linecap:round;stroke-linejoin:round;stroke-miterlimit:10;}
	.st26{fill:none;stroke:#FFFFFF;stroke-width:4;stroke-linecap:round;stroke-linejoin:round;}
	.st27{fill:none;stroke:#FFFFFF;stroke-width:4;stroke-linecap:round;stroke-linejoin:round;stroke-dasharray:6.6913,6.6913;}
	.st28{opacity:0.85;fill:#122438;}
	.st29{opacity:0.65;fill:#8DC6FF;fill-opacity:0.3;stroke:#8DC6FF;stroke-width:2;stroke-miterlimit:10;}
</style>
<metadata><?xpacket begin="﻿" id="W5M0MpCehiHzreSzNTczkc9d"?>
<x:xmpmeta xmlns:x="adobe:ns:meta/" x:xmptk="Adobe XMP Core 5.6-c145 79.163499, 2018/08/13-16:40:22        ">
   <rdf:RDF xmlns:rdf="http://www.w3.org/1999/02/22-rdf-syntax-ns#">
      <rdf:Description rdf:about=""
            xmlns:dc="http://purl.org/dc/elements/1.1/"
            xmlns:xmp="http://ns.adobe.com/xap/1.0/"
            xmlns:xmpGImg="http://ns.adobe.com/xap/1.0/g/img/"
            xmlns:xmpMM="http://ns.adobe.com/xap/1.0/mm/"
            xmlns:stRef="http://ns.adobe.com/xap/1.0/sType/ResourceRef#"
            xmlns:stEvt="http://ns.adobe.com/xap/1.0/sType/ResourceEvent#"
            xmlns:illustrator="http://ns.adobe.com/illustrator/1.0/"
            xmlns:pdf="http://ns.adobe.com/pdf/1.3/"
            xmlns:xmpTPg="http://ns.adobe.com/xap/1.0/t/pg/"
            xmlns:stDim="http://ns.adobe.com/xap/1.0/sType/Dimensions#"
            xmlns:stFnt="http://ns.adobe.com/xap/1.0/sType/Font#"
            xmlns:xmpG="http://ns.adobe.com/xap/1.0/g/">
         <dc:format>image/svg+xml</dc:format>
         <dc:title>
            <rdf:Alt>
               <rdf:li xml:lang="x-default">Icons 11_expand</rdf:li>
            </rdf:Alt>
         </dc:title>
         <xmp:CreatorTool>Adobe Illustrator CC 23.0 (Windows)</xmp:CreatorTool>
         <xmp:CreateDate>2019-01-22T12:08:04+02:00</xmp:CreateDate>
         <xmp:ModifyDate>2019-01-22T12:08:04+02:00</xmp:ModifyDate>
         <xmp:MetadataDate>2019-01-22T12:08:04+02:00</xmp:MetadataDate>
         <xmp:Thumbnails>
            <rdf:Alt>
               <rdf:li rdf:parseType="Resource">
                  <xmpGImg:width>256</xmpGImg:width>
                  <xmpGImg:height>72</xmpGImg:height>
                  <xmpGImg:format>JPEG</xmpGImg:format>
                  <xmpGImg:image>/9j/4AAQSkZJRgABAgEASABIAAD/7QAsUGhvdG9zaG9wIDMuMAA4QklNA+0AAAAAABAASAAAAAEA&#xA;AQBIAAAAAQAB/+4ADkFkb2JlAGTAAAAAAf/bAIQABgQEBAUEBgUFBgkGBQYJCwgGBggLDAoKCwoK&#xA;DBAMDAwMDAwQDA4PEA8ODBMTFBQTExwbGxscHx8fHx8fHx8fHwEHBwcNDA0YEBAYGhURFRofHx8f&#xA;Hx8fHx8fHx8fHx8fHx8fHx8fHx8fHx8fHx8fHx8fHx8fHx8fHx8fHx8fHx8f/8AAEQgASAEAAwER&#xA;AAIRAQMRAf/EAaIAAAAHAQEBAQEAAAAAAAAAAAQFAwIGAQAHCAkKCwEAAgIDAQEBAQEAAAAAAAAA&#xA;AQACAwQFBgcICQoLEAACAQMDAgQCBgcDBAIGAnMBAgMRBAAFIRIxQVEGE2EicYEUMpGhBxWxQiPB&#xA;UtHhMxZi8CRygvElQzRTkqKyY3PCNUQnk6OzNhdUZHTD0uIIJoMJChgZhJRFRqS0VtNVKBry4/PE&#xA;1OT0ZXWFlaW1xdXl9WZ2hpamtsbW5vY3R1dnd4eXp7fH1+f3OEhYaHiImKi4yNjo+Ck5SVlpeYmZ&#xA;qbnJ2en5KjpKWmp6ipqqusra6voRAAICAQIDBQUEBQYECAMDbQEAAhEDBCESMUEFURNhIgZxgZEy&#xA;obHwFMHR4SNCFVJicvEzJDRDghaSUyWiY7LCB3PSNeJEgxdUkwgJChgZJjZFGidkdFU38qOzwygp&#xA;0+PzhJSktMTU5PRldYWVpbXF1eX1RlZmdoaWprbG1ub2R1dnd4eXp7fH1+f3OEhYaHiImKi4yNjo&#xA;+DlJWWl5iZmpucnZ6fkqOkpaanqKmqq6ytrq+v/aAAwDAQACEQMRAD8A9U4q7FXYqxrVNA8tT+dd&#xA;J1a60u4n1yKKSOz1OP1jBAkYZuMpVhEpb1W48l3yQJpiQLSeOXSk07y2TD5hRYdVMdqkpnScySO6&#xA;8r0OwZ7YeoSOVfh9tsPfyQuvLq1t9H8yOtj5mlFrqazyR2/q/Wp3d4wRpx5qWtRTdQQvHliPglNN&#xA;Qis2vfMEddY9WSzWSaS3ln4KojIC2CB+KzHjX92tS3euAK3BdQRX2mRRW+rS3MmmExJM8giCqqkL&#xA;dF34C6J+Hk1W61OKtrYXkEGmiGz1GRtOWSREbUS3qOYOQjuHklYz1kbgpetGFfs4qgpNEvYbGe0t&#xA;rPU3Vr2TUQ/6RRXeRRHMsXMuSIJHLR+n0HE9iDjar7/Qrhm1+dLPUZZNdhVJ44r9YvTNtGkcQtfj&#xA;X0TKHckg7lfi6jG2URvumK6TJJrrag0V5GZbRNPkX64RAsRV5jKsasT6yyUj5/a3qDSuBFbq1p5Y&#xA;tbUaMI72+ZdFieGFXupWWcPGIy12teM7ClV5j4TuKY2tLF8qW62lpbDUdS42l6L9ZDeztJIwYt6M&#xA;rlizwfFQxH4aUxtaR1jpaWd1eXC3FzMb2QSNHPM8scVBTjCjGka96Lja0jcCXYq7FXYq7FXYq7FX&#xA;Yq7FXYq7FXYq7FXYq7FXYq7FXYq7FVkiqaV41JX7Qr0Nfv8ADCC15Ig93Mc/I/ikJc6qIL8WZtLq&#xA;QNbyXAuYoi8P7sgGLkDUStyqqkb+ONM0DdanFxlDafqbCCx/SA9ISAvXl/oylZF5XHwf3Z8Rvg4G&#xA;WOfBy+3f77WTWsEM+p+hHqglZoTJKJ55UcTSVb6qssxROG/Lgq8R08MkxXrfTtdXahdTjH6QhijJ&#xA;hi9NgETn6RKsRbfCxd3oa8uDbqMCtJb3Zubak+pCM6hPJIH9DhxCPxRyAGFtVf3dPiJpy2xVByXt&#xA;xZ3FhMYtam4JqE7wJFHIkgJaRYp+tGHELbhSD0BO5woSvUPNstppEl1JBrsCQ6JJc+vcwW8Sh3lW&#xA;IeqxX4bxKcwlOPEkkYRFBLFLj809Pf8AR0EcusQxa/p8NvbiOeAvbGO7mtvXWSRJHaZjGeTEmop3&#xA;6S4GPGt1L89tLg1DUIPq+pK31iMKY5YOMYtnAZYw6PRZeB51rsTSnXEY1ORk0v5hW908RRr2FIoo&#xA;NYdEMA5wyW6TLaE8K8Kygk15EileO2R4WXEiJPza05NOgvvqExWeaWEJyWoMKxsTX39YY8C8aaeU&#xA;/Ptn5jvJrWG1kgeGP1SzlSCOQWm3zwGNJErZRkWTsVdirsVdirsVdirsVdirsVdirsVdirsVdirs&#xA;VdirGZvzE8sRap+jnuCJQWBf4QvwkAniWEhG/ULSm/TJcBYmQZMCCKjcHIsmmBIFKVqOort3whjI&#xA;Hox3XND1O+1Y3CcpLMQRxxRpqd9p5WVXkMjFLVSr8lZNya7YEkJe/lTXSaI8iW3qwyNa/prU2Zgk&#xA;dwr/AOklfVUFpYjwHwnjviSVpu08teaoZIgbwlVuhMszaheSGO2Br9W9N04zbbeo55GvtlU4yMSB&#xA;zKRzT/8AR+pf8tR/4Js0n8nav/Vf9lJyPEh3Kps70yysJyFflwXk21TtmRLRajjkfE2N1udu5jxx&#xA;obIq2jkjgVJG5uK1apNd/fNhpcc4YxGZ4pd/xa5kE7L2VWUqwDKdiDuDmQxQ0ljE0kbKiKIxRaKN&#xA;t67Zj5cc5SBBoMgRSHn0YPaSxwyLHdPHIsd00SyFZHB4yFW2biTWh65HBp5Qq5mVd/VZSB6MUtvJ&#xA;vnRLTRI21ZUezuGe+T1ppv3JgeNU9Z1El1SRg/GYAdv2RmbxBqopwfL2qtdSNNKtxbG/S5iiE01v&#xA;xhFsIz/dg/7sH919hqcj8RORJ7mVIWy8o6oCkdxNJDC6xJO9vqV4ZAFshA5Usq1b1d6nr/efbJGR&#xA;3taZFpulmxaUi8ublJFiVY7mT1RH6UYjqjEc6vx5PyY1bfucKUXFGsUaxqWKqKAszO30sxJP0nFX&#xA;LGqs7Amrnk1WJFaBdgT8I26D59cVXYq7FXYq7FXYq7FXYq7FXYq7FXYq7FXYq7FXhN95R0SXzPHf&#xA;w+Z9LEEbKYZTdwVCrQDkOXLkAPsjY+I7T8Qc2rhe4WX1f6nB9WkEtv6aejKrBgycRxYMNjUd8g2q&#xA;rIjfaAPz+/8AhhBpjKAlzDeBk7FXYq7FXYqtLP6qqB8BVix8CCKD8ThoUjq5y9U40oW+KvhQ4ilN&#xA;ukLiNigBcD4QemIq91PLZca0264ErIWkaFGkHGQqCyjsSNxhkBeyI3W6D0fWbbVY7iS3R0FtMYH9&#xA;TjuQiuGHFm2KyDrv4gZVjyCYsd9fJkQ601iK51fUNNWN1fTlgaSU/ZYzqzAL/qhd/nk73pCnceYb&#xA;ODX7bRHjkN1dRmWOQBPTAAc0JLBq/uz0XJVtaLVNV1iDTZNPSZGcahdLZoyU+B3R3Vm9qx0+nEBS&#xA;Uea0NNj2J3wJYD+avmvXPL66Z+i5xAbkz+sSiPX0/T4/bDU+0cw9XmlCqel9nuzsOp4/EF8PDW5H&#xA;O+5L/wAr/O3mPXddubTU7lZoI7VpUURxoQ4kRa1RV7MchpM85yono5Pb/ZWDT4RLHGiZVzJ6HvZP&#xA;+YHm2by3pEdxbxq9zcSelEXBKL8JYsademwzZQjZePnKgkvkHz5qvmSW706cxxXkcXrwXSR1XiHC&#xA;sGTkAftCm4w5IVyYwlbPYEnQP60olLOzJRePFCfhXqa08crbFTFXYq7FXYq7FXYq7FXYq7FXzZqf&#xA;k7yJpn5gQ+UBbapOWuLW3N8LuABfrKowZo/qv7PqD9rJCR72oxF0+idJ0230vSrLTLYsbaxgitoS&#xA;5BbhCgReRAG9F32yJbQisVU+Vx9Z48F+rcK+ry+LnX7PGnSneuKtoZuT8woWv7sqSSRT9qoFDXFX&#xA;QmYxqZlVZf2lRiy/QSF/ViraGUl+aqAD8HEkkrTvUChxV1ZfVpxX0eO7VPLlXpxpSlO9cVQEeqXT&#xA;69LphsZUto4BMNQNfSZiVHpr8PGu5/art06HBe9K3qWqXFpe2FvFYy3Ud5IUluIwSkAFPikoDQGv&#xA;enTDuqgdU14Xc8I0VjBHdwww3IuIaS20iAyXIUnkvouSpjO5Aqta0w0EWtfWdais5ppdDmMyXv1W&#xA;K3hmhkMluZQi3QJZAqlDyKtuO+3xY0tptPI8UEkiRtK6KzLEtOTkCoUVIFT03wJW2lDAsnofV2l/&#xA;ePEQvIM255caivjiqjpt7cXcczT2clmYpniRJSpLqhoJF4k/C3+e1CSVUobuWXWp7Z9Okjjt4wYd&#xA;SbgUk50LIm/Me/y+WKFS6v7mHUrG0jsZZ4Lv1fXvUKCK39NQy+oGYOfUPwrxB364qr3M0kUfOOF5&#xA;25KvpoVBoxAJ+IqNuvXAlIfOnk/TfMVtFJefWWewWV4IbVo0aQuASv7xStTwAG4ynLgjkq3Zdndq&#xA;5dJxcAieKuflfmO9B+R/IulaIU1W2W7gu7q2CS2t28bGMOVcqfTRfiBXxwYtNHGbDbr+2s2rgITE&#xA;QAb2v9Z7011HSbHzNptzY6vZSRQxzukXJgHPpmiTxsvQMDt+OZANOnItLPKPlzTfL2sX+nWGl3Mc&#xA;XowynWZ3jdJizODClCGHClfs/P8AZLGRtAFMiur24hvbO3js5Z4rlnE1yhQJAEXkDIGYN8R2HEHA&#xA;yReBXYq7FXYq7FXYq7FXYq7FWCX+ofmQv5kW9ra2/LykfT9ST04yvEx1kYyH4gQ1aCvht4hG9s7w&#xA;pdiqXanpaXV5p969/dWi6dK0phgl9KGfmvDhcLQ81FagVG+EFBC7XNOXVNOl00X1xp0lwAy3NlII&#xA;rlRG6sTGxD0rsrbdDiCpCKe5X0ZJIFNy0ZKmOIpyLKaFasyqCPcjAlpEZLpzWR1mHIklTHGUAXiB&#xA;s3x1r3Gx6d1VkkiI0l3O7W8FsrhzIyLEUoGMp3NAvHqxFN8VbuWgaa3ha49GZn9SKNXVWkEYqy0O&#xA;7Lv8VMVXM8NwlxBHN8aVimMTDnG7IGAPXi3F1YV8QcSFXoXVliKswC1Mx40JG1DQg1PX7NMVQt1Y&#xA;iXT5NOkeeWO7WWGW4V1SVFlVqtzBQileK8RUGnucQqR33kWxbR0tBe6rL9VkmuUZLxjcSvKeZjLy&#xA;niRX7NSAPHrkuJjwpnJ5atJL+9vWubznfRPDJELmVYkDxpGWiQECNqRAhl3rU4LTSCHkrTpNGtdN&#xA;Gpak8NtMZ1uhey+u7GJ4SrzA8ilJCeI25b4eJaTdbGA6q+oLM7TLF9WaHnWNakSV4dn6fRgSlx8q&#xA;ab+iJNF+uXgjuJTcmT61J9YqsiuQsleXAGi08PnjaKRk+nWQ1y31WW5ljuPSazgtzMVgcufUP7mv&#xA;FpKKd+tMbVZbaZDpdvqk0+pXMkF1LLdyzXc4K2qMvxLCxCiKKMCoHbG1pfFo3p6Rb6b9eu3+r+n/&#xA;AKa8tbmT0mDfvJKfFz40bbcY2tLjbwahdWGp21/KYLb1eMVtKptp/UHD96AG5+mRVaEUOKo/AlTl&#xA;njjoCfiPRR1yUYksTIBxnRZPTbYnpXoceE1a8QulTIsnYqpGQPQq7KFfiaAGp8Oh2ydU1TN1uRuq&#xA;5BtdirsVdirsVdirsVdirTKrCjAEeB3xV3FeQag5AEA96Hr+rFXBVWtABU1NPE4q3irTKrKVYAqR&#xA;Qg7gg4q3QEg03HQ4q4ACpApXc+/bFXYq7FXYq7FXAACgFB4DFWgqgkgAFjViO5pTf7sVboK1puNg&#xA;fnirRVTSoBoaivY4q2QCCCKg7EHFXYq0qqoooAHgNsVQWoamlsCiDnMe3Zfnl+LDxbnk05cvDsOa&#xA;B0xprm95SbhfjY7de2X5gIx2acRMpbovWkcQrMnVDRvkf7cp053ptzja1DT9XIIiufs/syeHzyzL&#xA;g6xYY8/QpxmG5Sm6hSvFigLbhQDU++xyQLVMctyN+7n9ipkW12KuxV2KuJAFT0GKCadil2KuxVxI&#xA;FATSuw9++KuJA64q7FXYq7FXYq7FXYq7FXYq7FXYq7FXYq7FXYq7FUBq02qrH6dhbGV2G83NFC/I&#xA;MdzmRgjjJuZr5tGaU6qIY22j6+xLNZkk7kmSGpzY/mMX877C4HgZe77Qn/l+wntbVzcR+nPI261U&#xA;0UdN12zA1WUSlsdnN02MxG/NH3UC3FtJCejqQD4HsfoOUQlwyBb5x4gQxD9Da7/yx/8AJSHNt+Yx&#xA;fzvsLq/Ayd33Jto51+1YQ3FmzWx2B9SIlPkARUZi6jwpbiW/uLk4PFjsRt7wnrdOtNxv9PTMAOZJ&#xA;vFLsVdirS/ZG9dup2wljHkG2NATWnuemBJOzsUuxV2KoObR9Om1O31SWHlf2iPHbz8mBVZBRxQHi&#xA;a+4w2tIJfJ/ltbWztRZj0LC7GoWil5DwulJIkqWqSOR2O3bHiKKDeo+UfLuo6ff6de2nq2epyLNf&#xA;RepIvqSI6urclYMtGRfskdMRIrSNh0jTodTuNTih4312iR3E3JjySKvAcSeO1ewxtNIvArsVdirs&#xA;VdirsVdirsVdirsVdirsVdirsVdirsVdirsVdirsVdirsVdirsVdir//2Q==</xmpGImg:image>
               </rdf:li>
            </rdf:Alt>
         </xmp:Thumbnails>
         <xmpMM:OriginalDocumentID>uuid:9E3E5C9A8C81DB118734DB58FDDE4BA7</xmpMM:OriginalDocumentID>
         <xmpMM:DocumentID>xmp.did:a707606e-a61f-3a4a-9e44-d59374810310</xmpMM:DocumentID>
         <xmpMM:InstanceID>xmp.iid:a707606e-a61f-3a4a-9e44-d59374810310</xmpMM:InstanceID>
         <xmpMM:RenditionClass>proof:pdf</xmpMM:RenditionClass>
         <xmpMM:DerivedFrom rdf:parseType="Resource">
            <stRef:instanceID>xmp.iid:23f3f642-54fe-5340-85f0-20739b500b0f</stRef:instanceID>
            <stRef:documentID>xmp.did:23f3f642-54fe-5340-85f0-20739b500b0f</stRef:documentID>
            <stRef:originalDocumentID>uuid:9E3E5C9A8C81DB118734DB58FDDE4BA7</stRef:originalDocumentID>
            <stRef:renditionClass>proof:pdf</stRef:renditionClass>
         </xmpMM:DerivedFrom>
         <xmpMM:History>
            <rdf:Seq>
               <rdf:li rdf:parseType="Resource">
                  <stEvt:action>saved</stEvt:action>
                  <stEvt:instanceID>xmp.iid:b4c9dad8-1ff0-5745-bc3b-35a339d98d4b</stEvt:instanceID>
                  <stEvt:when>2018-09-26T16:18:49+03:00</stEvt:when>
                  <stEvt:softwareAgent>Adobe Illustrator CC 22.1 (Windows)</stEvt:softwareAgent>
                  <stEvt:changed>/</stEvt:changed>
               </rdf:li>
               <rdf:li rdf:parseType="Resource">
                  <stEvt:action>saved</stEvt:action>
                  <stEvt:instanceID>xmp.iid:a707606e-a61f-3a4a-9e44-d59374810310</stEvt:instanceID>
                  <stEvt:when>2019-01-22T12:08:04+02:00</stEvt:when>
                  <stEvt:softwareAgent>Adobe Illustrator CC 23.0 (Windows)</stEvt:softwareAgent>
                  <stEvt:changed>/</stEvt:changed>
               </rdf:li>
            </rdf:Seq>
         </xmpMM:History>
         <illustrator:StartupProfile>Basic RGB</illustrator:StartupProfile>
         <pdf:Producer>Adobe PDF library 15.00</pdf:Producer>
         <xmpTPg:MaxPageSize rdf:parseType="Resource">
            <stDim:w>80.000000</stDim:w>
            <stDim:h>80.000000</stDim:h>
            <stDim:unit>Pixels</stDim:unit>
         </xmpTPg:MaxPageSize>
         <xmpTPg:NPages>1</xmpTPg:NPages>
         <xmpTPg:HasVisibleTransparency>True</xmpTPg:HasVisibleTransparency>
         <xmpTPg:HasVisibleOverprint>False</xmpTPg:HasVisibleOverprint>
         <xmpTPg:Fonts>
            <rdf:Bag>
               <rdf:li rdf:parseType="Resource">
                  <stFnt:fontName>ArialMT</stFnt:fontName>
                  <stFnt:fontFamily>Arial</stFnt:fontFamily>
                  <stFnt:fontFace>Regular</stFnt:fontFace>
                  <stFnt:fontType>Open Type</stFnt:fontType>
                  <stFnt:versionString>Version 6.98</stFnt:versionString>
                  <stFnt:composite>False</stFnt:composite>
                  <stFnt:fontFileName>arial.ttf</stFnt:fontFileName>
               </rdf:li>
            </rdf:Bag>
         </xmpTPg:Fonts>
         <xmpTPg:PlateNames>
            <rdf:Seq>
               <rdf:li>Cyan</rdf:li>
               <rdf:li>Magenta</rdf:li>
               <rdf:li>Yellow</rdf:li>
               <rdf:li>Black</rdf:li>
            </rdf:Seq>
         </xmpTPg:PlateNames>
         <xmpTPg:SwatchGroups>
            <rdf:Seq>
               <rdf:li rdf:parseType="Resource">
                  <xmpG:groupName>Default Swatch Group</xmpG:groupName>
                  <xmpG:groupType>0</xmpG:groupType>
                  <xmpG:Colorants>
                     <rdf:Seq>
                        <rdf:li rdf:parseType="Resource">
                           <xmpG:swatchName>White</xmpG:swatchName>
                           <xmpG:mode>RGB</xmpG:mode>
                           <xmpG:type>PROCESS</xmpG:type>
                           <xmpG:red>255</xmpG:red>
                           <xmpG:green>255</xmpG:green>
                           <xmpG:blue>255</xmpG:blue>
                        </rdf:li>
                        <rdf:li rdf:parseType="Resource">
                           <xmpG:swatchName>Black</xmpG:swatchName>
                           <xmpG:mode>RGB</xmpG:mode>
                           <xmpG:type>PROCESS</xmpG:type>
                           <xmpG:red>0</xmpG:red>
                           <xmpG:green>0</xmpG:green>
                           <xmpG:blue>0</xmpG:blue>
                        </rdf:li>
                        <rdf:li rdf:parseType="Resource">
                           <xmpG:swatchName>RGB Red</xmpG:swatchName>
                           <xmpG:mode>RGB</xmpG:mode>
                           <xmpG:type>PROCESS</xmpG:type>
                           <xmpG:red>255</xmpG:red>
                           <xmpG:green>0</xmpG:green>
                           <xmpG:blue>0</xmpG:blue>
                        </rdf:li>
                        <rdf:li rdf:parseType="Resource">
                           <xmpG:swatchName>RGB Yellow</xmpG:swatchName>
                           <xmpG:mode>RGB</xmpG:mode>
                           <xmpG:type>PROCESS</xmpG:type>
                           <xmpG:red>255</xmpG:red>
                           <xmpG:green>255</xmpG:green>
                           <xmpG:blue>0</xmpG:blue>
                        </rdf:li>
                        <rdf:li rdf:parseType="Resource">
                           <xmpG:swatchName>RGB Green</xmpG:swatchName>
                           <xmpG:mode>RGB</xmpG:mode>
                           <xmpG:type>PROCESS</xmpG:type>
                           <xmpG:red>0</xmpG:red>
                           <xmpG:green>255</xmpG:green>
                           <xmpG:blue>0</xmpG:blue>
                        </rdf:li>
                        <rdf:li rdf:parseType="Resource">
                           <xmpG:swatchName>RGB Cyan</xmpG:swatchName>
                           <xmpG:mode>RGB</xmpG:mode>
                           <xmpG:type>PROCESS</xmpG:type>
                           <xmpG:red>0</xmpG:red>
                           <xmpG:green>255</xmpG:green>
                           <xmpG:blue>255</xmpG:blue>
                        </rdf:li>
                        <rdf:li rdf:parseType="Resource">
                           <xmpG:swatchName>RGB Blue</xmpG:swatchName>
                           <xmpG:mode>RGB</xmpG:mode>
                           <xmpG:type>PROCESS</xmpG:type>
                           <xmpG:red>0</xmpG:red>
                           <xmpG:green>0</xmpG:green>
                           <xmpG:blue>255</xmpG:blue>
                        </rdf:li>
                        <rdf:li rdf:parseType="Resource">
                           <xmpG:swatchName>RGB Magenta</xmpG:swatchName>
                           <xmpG:mode>RGB</xmpG:mode>
                           <xmpG:type>PROCESS</xmpG:type>
                           <xmpG:red>255</xmpG:red>
                           <xmpG:green>0</xmpG:green>
                           <xmpG:blue>255</xmpG:blue>
                        </rdf:li>
                        <rdf:li rdf:parseType="Resource">
                           <xmpG:swatchName>R=193 G=39 B=45</xmpG:swatchName>
                           <xmpG:mode>RGB</xmpG:mode>
                           <xmpG:type>PROCESS</xmpG:type>
                           <xmpG:red>193</xmpG:red>
                           <xmpG:green>39</xmpG:green>
                           <xmpG:blue>45</xmpG:blue>
                        </rdf:li>
                        <rdf:li rdf:parseType="Resource">
                           <xmpG:swatchName>R=237 G=28 B=36</xmpG:swatchName>
                           <xmpG:mode>RGB</xmpG:mode>
                           <xmpG:type>PROCESS</xmpG:type>
                           <xmpG:red>237</xmpG:red>
                           <xmpG:green>28</xmpG:green>
                           <xmpG:blue>36</xmpG:blue>
                        </rdf:li>
                        <rdf:li rdf:parseType="Resource">
                           <xmpG:swatchName>R=241 G=90 B=36</xmpG:swatchName>
                           <xmpG:mode>RGB</xmpG:mode>
                           <xmpG:type>PROCESS</xmpG:type>
                           <xmpG:red>241</xmpG:red>
                           <xmpG:green>90</xmpG:green>
                           <xmpG:blue>36</xmpG:blue>
                        </rdf:li>
                        <rdf:li rdf:parseType="Resource">
                           <xmpG:swatchName>R=247 G=147 B=30</xmpG:swatchName>
                           <xmpG:mode>RGB</xmpG:mode>
                           <xmpG:type>PROCESS</xmpG:type>
                           <xmpG:red>247</xmpG:red>
                           <xmpG:green>147</xmpG:green>
                           <xmpG:blue>30</xmpG:blue>
                        </rdf:li>
                        <rdf:li rdf:parseType="Resource">
                           <xmpG:swatchName>R=251 G=176 B=59</xmpG:swatchName>
                           <xmpG:mode>RGB</xmpG:mode>
                           <xmpG:type>PROCESS</xmpG:type>
                           <xmpG:red>251</xmpG:red>
                           <xmpG:green>176</xmpG:green>
                           <xmpG:blue>59</xmpG:blue>
                        </rdf:li>
                        <rdf:li rdf:parseType="Resource">
                           <xmpG:swatchName>R=252 G=238 B=33</xmpG:swatchName>
                           <xmpG:mode>RGB</xmpG:mode>
                           <xmpG:type>PROCESS</xmpG:type>
                           <xmpG:red>252</xmpG:red>
                           <xmpG:green>238</xmpG:green>
                           <xmpG:blue>33</xmpG:blue>
                        </rdf:li>
                        <rdf:li rdf:parseType="Resource">
                           <xmpG:swatchName>R=217 G=224 B=33</xmpG:swatchName>
                           <xmpG:mode>RGB</xmpG:mode>
                           <xmpG:type>PROCESS</xmpG:type>
                           <xmpG:red>217</xmpG:red>
                           <xmpG:green>224</xmpG:green>
                           <xmpG:blue>33</xmpG:blue>
                        </rdf:li>
                        <rdf:li rdf:parseType="Resource">
                           <xmpG:swatchName>R=140 G=198 B=63</xmpG:swatchName>
                           <xmpG:mode>RGB</xmpG:mode>
                           <xmpG:type>PROCESS</xmpG:type>
                           <xmpG:red>140</xmpG:red>
                           <xmpG:green>198</xmpG:green>
                           <xmpG:blue>63</xmpG:blue>
                        </rdf:li>
                        <rdf:li rdf:parseType="Resource">
                           <xmpG:swatchName>R=57 G=181 B=74</xmpG:swatchName>
                           <xmpG:mode>RGB</xmpG:mode>
                           <xmpG:type>PROCESS</xmpG:type>
                           <xmpG:red>57</xmpG:red>
                           <xmpG:green>181</xmpG:green>
                           <xmpG:blue>74</xmpG:blue>
                        </rdf:li>
                        <rdf:li rdf:parseType="Resource">
                           <xmpG:swatchName>R=0 G=146 B=69</xmpG:swatchName>
                           <xmpG:mode>RGB</xmpG:mode>
                           <xmpG:type>PROCESS</xmpG:type>
                           <xmpG:red>0</xmpG:red>
                           <xmpG:green>146</xmpG:green>
                           <xmpG:blue>69</xmpG:blue>
                        </rdf:li>
                        <rdf:li rdf:parseType="Resource">
                           <xmpG:swatchName>R=0 G=104 B=55</xmpG:swatchName>
                           <xmpG:mode>RGB</xmpG:mode>
                           <xmpG:type>PROCESS</xmpG:type>
                           <xmpG:red>0</xmpG:red>
                           <xmpG:green>104</xmpG:green>
                           <xmpG:blue>55</xmpG:blue>
                        </rdf:li>
                        <rdf:li rdf:parseType="Resource">
                           <xmpG:swatchName>R=34 G=181 B=115</xmpG:swatchName>
                           <xmpG:mode>RGB</xmpG:mode>
                           <xmpG:type>PROCESS</xmpG:type>
                           <xmpG:red>34</xmpG:red>
                           <xmpG:green>181</xmpG:green>
                           <xmpG:blue>115</xmpG:blue>
                        </rdf:li>
                        <rdf:li rdf:parseType="Resource">
                           <xmpG:swatchName>R=0 G=169 B=157</xmpG:swatchName>
                           <xmpG:mode>RGB</xmpG:mode>
                           <xmpG:type>PROCESS</xmpG:type>
                           <xmpG:red>0</xmpG:red>
                           <xmpG:green>169</xmpG:green>
                           <xmpG:blue>157</xmpG:blue>
                        </rdf:li>
                        <rdf:li rdf:parseType="Resource">
                           <xmpG:swatchName>R=41 G=171 B=226</xmpG:swatchName>
                           <xmpG:mode>RGB</xmpG:mode>
                           <xmpG:type>PROCESS</xmpG:type>
                           <xmpG:red>41</xmpG:red>
                           <xmpG:green>171</xmpG:green>
                           <xmpG:blue>226</xmpG:blue>
                        </rdf:li>
                        <rdf:li rdf:parseType="Resource">
                           <xmpG:swatchName>R=0 G=113 B=188</xmpG:swatchName>
                           <xmpG:mode>RGB</xmpG:mode>
                           <xmpG:type>PROCESS</xmpG:type>
                           <xmpG:red>0</xmpG:red>
                           <xmpG:green>113</xmpG:green>
                           <xmpG:blue>188</xmpG:blue>
                        </rdf:li>
                        <rdf:li rdf:parseType="Resource">
                           <xmpG:swatchName>R=46 G=49 B=146</xmpG:swatchName>
                           <xmpG:mode>RGB</xmpG:mode>
                           <xmpG:type>PROCESS</xmpG:type>
                           <xmpG:red>46</xmpG:red>
                           <xmpG:green>49</xmpG:green>
                           <xmpG:blue>146</xmpG:blue>
                        </rdf:li>
                        <rdf:li rdf:parseType="Resource">
                           <xmpG:swatchName>R=27 G=20 B=100</xmpG:swatchName>
                           <xmpG:mode>RGB</xmpG:mode>
                           <xmpG:type>PROCESS</xmpG:type>
                           <xmpG:red>27</xmpG:red>
                           <xmpG:green>20</xmpG:green>
                           <xmpG:blue>100</xmpG:blue>
                        </rdf:li>
                        <rdf:li rdf:parseType="Resource">
                           <xmpG:swatchName>R=102 G=45 B=145</xmpG:swatchName>
                           <xmpG:mode>RGB</xmpG:mode>
                           <xmpG:type>PROCESS</xmpG:type>
                           <xmpG:red>102</xmpG:red>
                           <xmpG:green>45</xmpG:green>
                           <xmpG:blue>145</xmpG:blue>
                        </rdf:li>
                        <rdf:li rdf:parseType="Resource">
                           <xmpG:swatchName>R=147 G=39 B=143</xmpG:swatchName>
                           <xmpG:mode>RGB</xmpG:mode>
                           <xmpG:type>PROCESS</xmpG:type>
                           <xmpG:red>147</xmpG:red>
                           <xmpG:green>39</xmpG:green>
                           <xmpG:blue>143</xmpG:blue>
                        </rdf:li>
                        <rdf:li rdf:parseType="Resource">
                           <xmpG:swatchName>R=158 G=0 B=93</xmpG:swatchName>
                           <xmpG:mode>RGB</xmpG:mode>
                           <xmpG:type>PROCESS</xmpG:type>
                           <xmpG:red>158</xmpG:red>
                           <xmpG:green>0</xmpG:green>
                           <xmpG:blue>93</xmpG:blue>
                        </rdf:li>
                        <rdf:li rdf:parseType="Resource">
                           <xmpG:swatchName>R=212 G=20 B=90</xmpG:swatchName>
                           <xmpG:mode>RGB</xmpG:mode>
                           <xmpG:type>PROCESS</xmpG:type>
                           <xmpG:red>212</xmpG:red>
                           <xmpG:green>20</xmpG:green>
                           <xmpG:blue>90</xmpG:blue>
                        </rdf:li>
                        <rdf:li rdf:parseType="Resource">
                           <xmpG:swatchName>R=237 G=30 B=121</xmpG:swatchName>
                           <xmpG:mode>RGB</xmpG:mode>
                           <xmpG:type>PROCESS</xmpG:type>
                           <xmpG:red>237</xmpG:red>
                           <xmpG:green>30</xmpG:green>
                           <xmpG:blue>121</xmpG:blue>
                        </rdf:li>
                        <rdf:li rdf:parseType="Resource">
                           <xmpG:swatchName>R=199 G=178 B=153</xmpG:swatchName>
                           <xmpG:mode>RGB</xmpG:mode>
                           <xmpG:type>PROCESS</xmpG:type>
                           <xmpG:red>199</xmpG:red>
                           <xmpG:green>178</xmpG:green>
                           <xmpG:blue>153</xmpG:blue>
                        </rdf:li>
                        <rdf:li rdf:parseType="Resource">
                           <xmpG:swatchName>R=153 G=134 B=117</xmpG:swatchName>
                           <xmpG:mode>RGB</xmpG:mode>
                           <xmpG:type>PROCESS</xmpG:type>
                           <xmpG:red>153</xmpG:red>
                           <xmpG:green>134</xmpG:green>
                           <xmpG:blue>117</xmpG:blue>
                        </rdf:li>
                        <rdf:li rdf:parseType="Resource">
                           <xmpG:swatchName>R=115 G=99 B=87</xmpG:swatchName>
                           <xmpG:mode>RGB</xmpG:mode>
                           <xmpG:type>PROCESS</xmpG:type>
                           <xmpG:red>115</xmpG:red>
                           <xmpG:green>99</xmpG:green>
                           <xmpG:blue>87</xmpG:blue>
                        </rdf:li>
                        <rdf:li rdf:parseType="Resource">
                           <xmpG:swatchName>R=83 G=71 B=65</xmpG:swatchName>
                           <xmpG:mode>RGB</xmpG:mode>
                           <xmpG:type>PROCESS</xmpG:type>
                           <xmpG:red>83</xmpG:red>
                           <xmpG:green>71</xmpG:green>
                           <xmpG:blue>65</xmpG:blue>
                        </rdf:li>
                        <rdf:li rdf:parseType="Resource">
                           <xmpG:swatchName>R=198 G=156 B=109</xmpG:swatchName>
                           <xmpG:mode>RGB</xmpG:mode>
                           <xmpG:type>PROCESS</xmpG:type>
                           <xmpG:red>198</xmpG:red>
                           <xmpG:green>156</xmpG:green>
                           <xmpG:blue>109</xmpG:blue>
                        </rdf:li>
                        <rdf:li rdf:parseType="Resource">
                           <xmpG:swatchName>R=166 G=124 B=82</xmpG:swatchName>
                           <xmpG:mode>RGB</xmpG:mode>
                           <xmpG:type>PROCESS</xmpG:type>
                           <xmpG:red>166</xmpG:red>
                           <xmpG:green>124</xmpG:green>
                           <xmpG:blue>82</xmpG:blue>
                        </rdf:li>
                        <rdf:li rdf:parseType="Resource">
                           <xmpG:swatchName>R=140 G=98 B=57</xmpG:swatchName>
                           <xmpG:mode>RGB</xmpG:mode>
                           <xmpG:type>PROCESS</xmpG:type>
                           <xmpG:red>140</xmpG:red>
                           <xmpG:green>98</xmpG:green>
                           <xmpG:blue>57</xmpG:blue>
                        </rdf:li>
                        <rdf:li rdf:parseType="Resource">
                           <xmpG:swatchName>R=117 G=76 B=36</xmpG:swatchName>
                           <xmpG:mode>RGB</xmpG:mode>
                           <xmpG:type>PROCESS</xmpG:type>
                           <xmpG:red>117</xmpG:red>
                           <xmpG:green>76</xmpG:green>
                           <xmpG:blue>36</xmpG:blue>
                        </rdf:li>
                        <rdf:li rdf:parseType="Resource">
                           <xmpG:swatchName>R=96 G=56 B=19</xmpG:swatchName>
                           <xmpG:mode>RGB</xmpG:mode>
                           <xmpG:type>PROCESS</xmpG:type>
                           <xmpG:red>96</xmpG:red>
                           <xmpG:green>56</xmpG:green>
                           <xmpG:blue>19</xmpG:blue>
                        </rdf:li>
                        <rdf:li rdf:parseType="Resource">
                           <xmpG:swatchName>R=66 G=33 B=11</xmpG:swatchName>
                           <xmpG:mode>RGB</xmpG:mode>
                           <xmpG:type>PROCESS</xmpG:type>
                           <xmpG:red>66</xmpG:red>
                           <xmpG:green>33</xmpG:green>
                           <xmpG:blue>11</xmpG:blue>
                        </rdf:li>
                     </rdf:Seq>
                  </xmpG:Colorants>
               </rdf:li>
               <rdf:li rdf:parseType="Resource">
                  <xmpG:groupName>Grays</xmpG:groupName>
                  <xmpG:groupType>0</xmpG:groupType>
                  <xmpG:Colorants>
                     <rdf:Seq>
                        <rdf:li rdf:parseType="Resource">
                           <xmpG:swatchName>R=0 G=0 B=0</xmpG:swatchName>
                           <xmpG:mode>RGB</xmpG:mode>
                           <xmpG:type>PROCESS</xmpG:type>
                           <xmpG:red>0</xmpG:red>
                           <xmpG:green>0</xmpG:green>
                           <xmpG:blue>0</xmpG:blue>
                        </rdf:li>
                        <rdf:li rdf:parseType="Resource">
                           <xmpG:swatchName>R=26 G=26 B=26</xmpG:swatchName>
                           <xmpG:mode>RGB</xmpG:mode>
                           <xmpG:type>PROCESS</xmpG:type>
                           <xmpG:red>26</xmpG:red>
                           <xmpG:green>26</xmpG:green>
                           <xmpG:blue>26</xmpG:blue>
                        </rdf:li>
                        <rdf:li rdf:parseType="Resource">
                           <xmpG:swatchName>R=51 G=51 B=51</xmpG:swatchName>
                           <xmpG:mode>RGB</xmpG:mode>
                           <xmpG:type>PROCESS</xmpG:type>
                           <xmpG:red>51</xmpG:red>
                           <xmpG:green>51</xmpG:green>
                           <xmpG:blue>51</xmpG:blue>
                        </rdf:li>
                        <rdf:li rdf:parseType="Resource">
                           <xmpG:swatchName>R=77 G=77 B=77</xmpG:swatchName>
                           <xmpG:mode>RGB</xmpG:mode>
                           <xmpG:type>PROCESS</xmpG:type>
                           <xmpG:red>77</xmpG:red>
                           <xmpG:green>77</xmpG:green>
                           <xmpG:blue>77</xmpG:blue>
                        </rdf:li>
                        <rdf:li rdf:parseType="Resource">
                           <xmpG:swatchName>R=102 G=102 B=102</xmpG:swatchName>
                           <xmpG:mode>RGB</xmpG:mode>
                           <xmpG:type>PROCESS</xmpG:type>
                           <xmpG:red>102</xmpG:red>
                           <xmpG:green>102</xmpG:green>
                           <xmpG:blue>102</xmpG:blue>
                        </rdf:li>
                        <rdf:li rdf:parseType="Resource">
                           <xmpG:swatchName>R=128 G=128 B=128</xmpG:swatchName>
                           <xmpG:mode>RGB</xmpG:mode>
                           <xmpG:type>PROCESS</xmpG:type>
                           <xmpG:red>128</xmpG:red>
                           <xmpG:green>128</xmpG:green>
                           <xmpG:blue>128</xmpG:blue>
                        </rdf:li>
                        <rdf:li rdf:parseType="Resource">
                           <xmpG:swatchName>R=153 G=153 B=153</xmpG:swatchName>
                           <xmpG:mode>RGB</xmpG:mode>
                           <xmpG:type>PROCESS</xmpG:type>
                           <xmpG:red>153</xmpG:red>
                           <xmpG:green>153</xmpG:green>
                           <xmpG:blue>153</xmpG:blue>
                        </rdf:li>
                        <rdf:li rdf:parseType="Resource">
                           <xmpG:swatchName>R=179 G=179 B=179</xmpG:swatchName>
                           <xmpG:mode>RGB</xmpG:mode>
                           <xmpG:type>PROCESS</xmpG:type>
                           <xmpG:red>179</xmpG:red>
                           <xmpG:green>179</xmpG:green>
                           <xmpG:blue>179</xmpG:blue>
                        </rdf:li>
                        <rdf:li rdf:parseType="Resource">
                           <xmpG:swatchName>R=204 G=204 B=204</xmpG:swatchName>
                           <xmpG:mode>RGB</xmpG:mode>
                           <xmpG:type>PROCESS</xmpG:type>
                           <xmpG:red>204</xmpG:red>
                           <xmpG:green>204</xmpG:green>
                           <xmpG:blue>204</xmpG:blue>
                        </rdf:li>
                        <rdf:li rdf:parseType="Resource">
                           <xmpG:swatchName>R=230 G=230 B=230</xmpG:swatchName>
                           <xmpG:mode>RGB</xmpG:mode>
                           <xmpG:type>PROCESS</xmpG:type>
                           <xmpG:red>230</xmpG:red>
                           <xmpG:green>230</xmpG:green>
                           <xmpG:blue>230</xmpG:blue>
                        </rdf:li>
                        <rdf:li rdf:parseType="Resource">
                           <xmpG:swatchName>R=242 G=242 B=242</xmpG:swatchName>
                           <xmpG:mode>RGB</xmpG:mode>
                           <xmpG:type>PROCESS</xmpG:type>
                           <xmpG:red>242</xmpG:red>
                           <xmpG:green>242</xmpG:green>
                           <xmpG:blue>242</xmpG:blue>
                        </rdf:li>
                     </rdf:Seq>
                  </xmpG:Colorants>
               </rdf:li>
               <rdf:li rdf:parseType="Resource">
                  <xmpG:groupName>Carmel</xmpG:groupName>
                  <xmpG:groupType>1</xmpG:groupType>
                  <xmpG:Colorants>
                     <rdf:Seq>
                        <rdf:li rdf:parseType="Resource">
                           <xmpG:swatchName>R=141 G=198 B=255</xmpG:swatchName>
                           <xmpG:mode>RGB</xmpG:mode>
                           <xmpG:type>PROCESS</xmpG:type>
                           <xmpG:red>141</xmpG:red>
                           <xmpG:green>198</xmpG:green>
                           <xmpG:blue>255</xmpG:blue>
                        </rdf:li>
                        <rdf:li rdf:parseType="Resource">
                           <xmpG:swatchName>R=246 G=234 B=117</xmpG:swatchName>
                           <xmpG:mode>RGB</xmpG:mode>
                           <xmpG:type>PROCESS</xmpG:type>
                           <xmpG:red>246</xmpG:red>
                           <xmpG:green>234</xmpG:green>
                           <xmpG:blue>117</xmpG:blue>
                        </rdf:li>
                        <rdf:li rdf:parseType="Resource">
                           <xmpG:swatchName>R=18 G=36 B=56</xmpG:swatchName>
                           <xmpG:mode>RGB</xmpG:mode>
                           <xmpG:type>PROCESS</xmpG:type>
                           <xmpG:red>18</xmpG:red>
                           <xmpG:green>36</xmpG:green>
                           <xmpG:blue>56</xmpG:blue>
                        </rdf:li>
                        <rdf:li rdf:parseType="Resource">
                           <xmpG:swatchName>R=149 G=158 B=167</xmpG:swatchName>
                           <xmpG:mode>RGB</xmpG:mode>
                           <xmpG:type>PROCESS</xmpG:type>
                           <xmpG:red>149</xmpG:red>
                           <xmpG:green>158</xmpG:green>
                           <xmpG:blue>167</xmpG:blue>
                        </rdf:li>
                     </rdf:Seq>
                  </xmpG:Colorants>
               </rdf:li>
            </rdf:Seq>
         </xmpTPg:SwatchGroups>
      </rdf:Description>
   </rdf:RDF>
</x:xmpmeta>
                                                                                                    
                                                                                                    
                                                                                                    
                                                                                                    
                                                                                                    
                                                                                                    
                                                                                                    
                                                                                                    
                                                                                                    
                                                                                                    
                                                                                                    
                                                                                                    
                                                                                                    
                                                                                                    
                                                                                                    
                                                                                                    
                                                                                                    
                                                                                                    
                                                                                                    
                                                                                                    
                           
<?xpacket end="w"?>
	</metadata>
<g class="st14">
	<g>
		<path class="st8" d="M15,112.6c-7,0-12.8-5.7-12.8-12.7V14.2c0-7,5.7-12.7,12.8-12.7h115.5c7,0,12.8,5.7,12.8,12.7v85.6
			c0,7-5.7,12.7-12.8,12.7H15z M15,7.6c-3.8,0-6.8,3-6.8,6.8v85.5c0,3.7,3.1,6.8,6.8,6.8h115.4c3.8,0,6.8-3,6.8-6.8V14.3
			c0-3.7-3.1-6.8-6.8-6.8H15z"/>
		<path class="st2" d="M130.5,3.1c6.2,0,11.3,5,11.3,11.2v85.6c0,6.2-5,11.2-11.3,11.2H15c-6.2,0-11.3-5-11.3-11.2V14.2
			c0-6.2,5-11.2,11.3-11.2H130.5 M15,108.1h115.4c4.6,0,8.3-3.7,8.3-8.3V14.3c0-4.6-3.7-8.3-8.3-8.3H15c-4.6,0-8.3,3.7-8.3,8.3v85.5
			C6.7,104.3,10.4,108.1,15,108.1 M130.5,0.1H15C7.1,0.1,0.7,6.4,0.7,14.2v85.6c0,7.8,6.4,14.2,14.3,14.2h115.5
			c7.9,0,14.3-6.4,14.3-14.2V14.2C144.7,6.4,138.3,0.1,130.5,0.1L130.5,0.1z M15,105.1c-2.9,0-5.3-2.4-5.3-5.3V14.3
			c0-2.9,2.4-5.3,5.3-5.3h115.4c2.9,0,5.3,2.4,5.3,5.3v85.5c0,2.9-2.4,5.3-5.3,5.3H15L15,105.1z"/>
	</g>
</g>
</svg>
