<?xml version="1.0" encoding="utf-8"?>
<!-- Generator: Adobe Illustrator 23.0.1, SVG Export Plug-In . SVG Version: 6.00 Build 0)  -->
<svg version="1.1" id="Layer_1" xmlns="http://www.w3.org/2000/svg" xmlns:xlink="http://www.w3.org/1999/xlink" x="0px" y="0px"
	 viewBox="0 0 80 80" style="enable-background:new 0 0 80 80;" xml:space="preserve">
<style type="text/css">
	.st0{fill:#122438;}
	.st1{fill:#959EA7;}
	.st2{fill:#FFFFFF;}
	.st3{fill:#1C2733;}
	.st4{fill:#122438;stroke:#122438;stroke-miterlimit:10;}
	.st5{fill:#122438;stroke:#1C2733;stroke-miterlimit:10;}
	.st6{fill:#1C2733;stroke:#1C2733;stroke-width:3;stroke-miterlimit:10;}
	.st7{fill:#122438;stroke:#FFFFFF;stroke-width:1.3626;stroke-miterlimit:10;}
	.st8{fill:#F6EA75;}
	.st9{fill:#FA4545;}
	.st10{fill:none;}
	.st11{fill:#85EFA8;}
	.st12{opacity:0.6;fill:#2B3D4F;}
	.st13{opacity:0.85;fill:#2B3D4F;}
	.st14{opacity:0.5;}
	.st15{enable-background:new    ;}
	.st16{fill:none;stroke:#FFFFFF;stroke-width:3;stroke-miterlimit:10;}
	.st17{fill:#F6EA75;stroke:#122438;stroke-width:3;stroke-miterlimit:10;}
	.st18{fill:#8DC6FF;}
	.st19{fill:#122438;stroke:#FFFFFF;stroke-miterlimit:10;}
	.st20{fill:#FFFFFF;stroke:#122438;stroke-width:3;stroke-miterlimit:10;}
	.st21{opacity:0.65;fill:url(#Compass_x5F_Circle_4_);}
	.st22{fill:url(#SVGID_1_);}
	.st23{opacity:0.65;fill:none;}
	.st24{fill:#F27E80;}
	.st25{fill:#FA4545;stroke:#122438;stroke-miterlimit:10;}
</style>
<metadata><?xpacket begin="﻿" id="W5M0MpCehiHzreSzNTczkc9d"?>
<x:xmpmeta xmlns:x="adobe:ns:meta/" x:xmptk="Adobe XMP Core 5.6-c145 79.163499, 2018/08/13-16:40:22        ">
   <rdf:RDF xmlns:rdf="http://www.w3.org/1999/02/22-rdf-syntax-ns#">
      <rdf:Description rdf:about=""
            xmlns:dc="http://purl.org/dc/elements/1.1/"
            xmlns:xmp="http://ns.adobe.com/xap/1.0/"
            xmlns:xmpGImg="http://ns.adobe.com/xap/1.0/g/img/"
            xmlns:xmpMM="http://ns.adobe.com/xap/1.0/mm/"
            xmlns:stRef="http://ns.adobe.com/xap/1.0/sType/ResourceRef#"
            xmlns:stEvt="http://ns.adobe.com/xap/1.0/sType/ResourceEvent#"
            xmlns:illustrator="http://ns.adobe.com/illustrator/1.0/"
            xmlns:pdf="http://ns.adobe.com/pdf/1.3/"
            xmlns:xmpTPg="http://ns.adobe.com/xap/1.0/t/pg/"
            xmlns:stDim="http://ns.adobe.com/xap/1.0/sType/Dimensions#"
            xmlns:stFnt="http://ns.adobe.com/xap/1.0/sType/Font#"
            xmlns:xmpG="http://ns.adobe.com/xap/1.0/g/">
         <dc:format>image/svg+xml</dc:format>
         <dc:title>
            <rdf:Alt>
               <rdf:li xml:lang="x-default">Icons</rdf:li>
            </rdf:Alt>
         </dc:title>
         <xmp:CreatorTool>Adobe Illustrator CC 23.0 (Windows)</xmp:CreatorTool>
         <xmp:CreateDate>2019-01-07T10:16:25+02:00</xmp:CreateDate>
         <xmp:ModifyDate>2019-01-07T10:16:27+02:00</xmp:ModifyDate>
         <xmp:MetadataDate>2019-01-07T10:16:27+02:00</xmp:MetadataDate>
         <xmp:Thumbnails>
            <rdf:Alt>
               <rdf:li rdf:parseType="Resource">
                  <xmpGImg:width>256</xmpGImg:width>
                  <xmpGImg:height>72</xmpGImg:height>
                  <xmpGImg:format>JPEG</xmpGImg:format>
                  <xmpGImg:image>/9j/4AAQSkZJRgABAgEASABIAAD/7QAsUGhvdG9zaG9wIDMuMAA4QklNA+0AAAAAABAASAAAAAEA&#xA;AQBIAAAAAQAB/+4ADkFkb2JlAGTAAAAAAf/bAIQABgQEBAUEBgUFBgkGBQYJCwgGBggLDAoKCwoK&#xA;DBAMDAwMDAwQDA4PEA8ODBMTFBQTExwbGxscHx8fHx8fHx8fHwEHBwcNDA0YEBAYGhURFRofHx8f&#xA;Hx8fHx8fHx8fHx8fHx8fHx8fHx8fHx8fHx8fHx8fHx8fHx8fHx8fHx8fHx8f/8AAEQgASAEAAwER&#xA;AAIRAQMRAf/EAaIAAAAHAQEBAQEAAAAAAAAAAAQFAwIGAQAHCAkKCwEAAgIDAQEBAQEAAAAAAAAA&#xA;AQACAwQFBgcICQoLEAACAQMDAgQCBgcDBAIGAnMBAgMRBAAFIRIxQVEGE2EicYEUMpGhBxWxQiPB&#xA;UtHhMxZi8CRygvElQzRTkqKyY3PCNUQnk6OzNhdUZHTD0uIIJoMJChgZhJRFRqS0VtNVKBry4/PE&#xA;1OT0ZXWFlaW1xdXl9WZ2hpamtsbW5vY3R1dnd4eXp7fH1+f3OEhYaHiImKi4yNjo+Ck5SVlpeYmZ&#xA;qbnJ2en5KjpKWmp6ipqqusra6voRAAICAQIDBQUEBQYECAMDbQEAAhEDBCESMUEFURNhIgZxgZEy&#xA;obHwFMHR4SNCFVJicvEzJDRDghaSUyWiY7LCB3PSNeJEgxdUkwgJChgZJjZFGidkdFU38qOzwygp&#xA;0+PzhJSktMTU5PRldYWVpbXF1eX1RlZmdoaWprbG1ub2R1dnd4eXp7fH1+f3OEhYaHiImKi4yNjo&#xA;+DlJWWl5iZmpucnZ6fkqOkpaanqKmqq6ytrq+v/aAAwDAQACEQMRAD8A9U4qpRep6rhi5X9nkE4/&#xA;7Hjv9+TNU4+Pi4zfFXnw18K3+bDX8nQ30N1C3l+C1jXWZ9VRLi8lP1i6RQYL0GAtwEkn2om6AdMe&#xA;JupUk8lP9bv2TSrAwandpfXrfW7xJHnjdgsmykAiMJstAWr7Y8S0un8o3l7Hqpv9O095dcFsNVVL&#xA;m7VZfq6xKo5AAjj+84soWtFqOtBxLSMHl69n+sveWdkJb6BrK9Mc1ywe2R6QoKhKfunfkRQhqbkY&#xA;AWUgOiNu/Kmi3M0kz26mSWwbSpSzSkGzY1MVA6j/AGX2vfASWMgeiXp5EsbY2TWKW8Dadatp9jyS&#xA;5dY7RxRo+IuVBJ2+M74QT1bJiO3CCPjf6Ao6N5OsNH/RUNjo0UcOhO9vpb/WZgY4boVupQrNNy5N&#xA;9lXYn3Hck21gUmNp5T0Uppks+niGfSJ5p7BFmlkEUkvJC9ary5o3RgaVwWmnL5G8qrBbwCx/dWmo&#xA;DV7dfVlPG9FaTV51P2j8J+H2x4itBtfJPlhY7qNbOiXt62p3I9Wb4rtusn29v9UfD7Y8RXhCYWWk&#xA;afY3N3c2sXpzX8glun5M3NwKA0YkDbwxtNIzArsVdirsVdirsVdirsVdirsVdirsVdirsVdirsVd&#xA;irsVdirsVU0FJX+FxWnxMaqf9UVNPuyR5NMBUztL4nb4b7fIMZi0aOFYr+LTbOR7WTUpLdhfz8A9&#xA;054sOUbJzmpxcn+6qwTkCQW22lOw8u6nBUPplkpbTbK0LQ3d1GDJbOxaJvhc8EVv3b7sdw2xxtFJ&#xA;i2hxzXaXJsoJEXUPrqu11M4I+riMXHplOHqKwCrH9lR8YbltgtNMZ0/QL6LT7K1fyeqRyG50a5iG&#xA;pH/RtIupFeSQEtIXrTZFIZaUUqNskT5sQPJM9Oi8z+re3t3oUKX91qsULFbn4W063A9K6PxyAMtT&#xA;8CgE9xgNJ3Qt35blt45rqy8rxXF/ZahcTafzvmBnW+UxXNxI7E05RNx4PyoAOIHFcN+a0x/WbbXr&#xA;a017TLTykLvT9PsBbaajS3jMsVu7PbrHICXuDLwWQpAysnFUYk8SJCu9ifcmt9Lq80Ed5PphS/XU&#xA;obsWv1XUbkJItoAJRJHJGhpX+XiPsEcxXKTIg7MmtH1/zhazQ2MGkiOyaaJnBsb5OJuZy0/7x3cd&#xA;XPxdE+0fh2xs2kMt0y68zXcsUlzBb2VtHJMtzCweSWRQSsfptVAnFhuSrcxuONckaUJzgS7FXYq7&#xA;FXYq7FXYqo3V5Z2kXq3c8dvFXj6krqi1ParEDAZAc2zHilM1EGR8t1C313RLmZYbfULaaZ9kjjmj&#xA;ZjQV2AJJyIyRPIhsnpM0RcoSA8wUVLPDCAZZFjDGgLELU+G+TcdfirsVdirsVdirsVdirsVdirsV&#xA;diqlHHKszsXBRui/FUfeSPuGSJFNGPHITJJ9J9/66+QCnYaZp2n2SWNjbR21nHX07eNQqLyJY0Ub&#xA;dTXIt6JxVpVVVCqAFAoANgAMVbxV2KuxV2KrJohKgUmlGVv+BYN/DJRlSJC3TR+rDJHWnNStfCop&#xA;giaIKyFil4FBQdBgSp28IhhWMGoWu5r3Ne9clKVm2MY0KbjiCNIwNfUblTw+EL/xriZXSQKtBQJq&#xA;o1m4eSRjpxQCGM+nxDUTcUHqVryryNOlMoHHxm/orb3stqVLiLUzqdnLBIgsESZb2Jq8mLBTEyUH&#xA;VSprUjY9+0zd+SEN5gTXm/Rv6Hk4cb6E6j/d/FZjl6y/vAeu32fi8MmKQVbXotYm0e7i0aWODU5E&#xA;K2001eCMTQsaBzUCtNjviFKPwJYB+c6qnlC3VAFVbyIKo2AAjkoAMw9d9Hxek9lv8ZP9Q/eHmf5e&#xA;f8prpP8Axm/41Oa/Tf3geu7a/wAUye5OPzen1OHzbIbkOLNo4/qLGvDjwHML2r6nKudJjOz5PMbv&#xA;S/y0Gp/4Ps/0iHWQ8zCsteYh5fBWu9KdPbKp82yHJlGQZOxV2KuxV2KuxV2KuxV2KuxV2Ksd0m48&#xA;vajf39jYX11Ld6W6x36F7leLs7sBykAVviVvsE7fRiY8kAp3cyW8LxSzMyksIo6FqFpSAAVXY79z&#xA;0xSucQ24muWLBac5SWZgAg6hakDb+Ub4q3H6UpS5QsQ6fAasBxajfYO1foriq1Wt7pFdGYrHIaEF&#xA;k+JCVINONRXx2OKoDULWe/1G1+rahJajT5BJd26K1Jg3FlVmqopRT49cib6FXeYra6v7FtNsdSbS&#xA;9Qno8F0iGQgROrN8IZOvT7Q+kVyVKUk1DWZI/N1lax3Gq00uC5a8s4LJpLW8/wBHSRC1wVpy+L4A&#xA;rbuOJptykBsxvddcedrS90eO+gg1W0Q3YhQR2TPM/pKJW+Cj8Y3StGNN/uLwraN1LzLbSJrWnwpf&#xA;wXFhbTs97HaSsqskKPW3Zl4yyASgqq1qRiAkluy8x29vo+lNKl/dtczRaeJ3tJUlaX7Bnmj4r6Ub&#xA;FeRYgAY0tqXlvUGt9S1jRbu8vNQu7B0uZbu4tmihWKeMMkUUijhJx4kmnckdqYkICyPzTo0Wlyec&#xA;X1OZ/L97FALeFomCxkOyF1Xj6lZGYDcdsa6LfVOrmdI9Wso2nkUzpMqW6oWRyoVuTuAQvEA0qRWu&#xA;BKjc3EWpXM2n2d89teadNby3gRD9h/jEZLAKQ6j9kmnfwKqK1O3nutOube2ujZzyRskd0gDNExGz&#xA;AGnTEJK+xgmt7G3t55zczxRJHLcsArSOqgM5A6FiK4FQGi6Jc2mmtZ6rfvrbtPLMLi7jiBCyOXWP&#xA;iihaIDQbfKgoAyo9EwlKO4O6pZaFb2uo3V4pVlm9P6vB6USiDgpVuDKob461NTg4R3Nks+QijIke&#xA;9ZeaRfXGv2OorqUkVhaxypPpXBGimd6cJGY/EClP6U+LlK9mmk1wJdirsVdirsVdirsVdirsVdir&#xA;sVdiq0xqZFkqeSgqByPGjEE1WtCfh2NNvpOKtLAipwBenMvUuxNS3PqTWlf2elNum2KuBn9dgVT6&#xA;vwBV+R586nkCtKUpShr9GKqNs+pG1ja5ihS7LUmjjkZ4wvKlVdkRieO9Co32r3xVXlMgjcxKrShT&#xA;wViVUtTYFgGIFe9DiraFyilwFeg5KpqAe4BIFfuxVqONY1KqWILM3xMzGrMWO7EmlTsOgGw2xVsI&#xA;AxberUruSNvAdBirRjUyLJU8lBUDkeNGIJqtaE/DsabfScVamacKvoorsWUMHYoAhPxEEK9SBuB3&#xA;8R1xVc5YKSgBeh4gmgJ7VNDT7sVbHv1xVTgNwY/36oslW2jJZePI8TUhdytK++KujNwZJRIqCIMP&#xA;QZWJZl4ivMFRxPKvQnbFV5MnqAAD06GprvXam1OnXviqGK28lxcWzqjpKtZ4ioIeqhTzqKN8NBv2&#xA;zEjnvOYXyF18mZj6bViCbgV4kBSV+E8h0B+Lp9GZvRx+KXHXSu4/fy+CpkW12KuxV2KuxV2KuxV2&#xA;KtO6opZiFUdScIFoJpArf/WLlYotkrue5A65ccXDGy1DJxGguurtracV3jcVp+vBDHxBZz4SioZo&#xA;5kDxtVT+GVyiQaLbGQPJfkUuxV2KuxV2KuxV2KuxV2KuxV2KuxV2KuxV2KuxV2KuxVDrKDeMnJa0&#xA;+zty6Zgxyg5zGx7urYR6VQM3rlC6UpUR0+OnSvXp9GbCtnFEj4lXHly/i9/Pl8EDY+ZNCvtTudLs&#xA;72ObULOv1q2UnnHxbieW3YmmCi22mWBLsVUL6+trG2NxcsyxKyJ8KNIxaRwiAIgZiSzAbDFVtlqV&#xA;le2n1u3k5W/J0LMGjIaJzHIrK4VlKupUgjrhAtjKQAsmgrTTRQwyTytxiiUu7noFUVJ+7AyQ2laz&#xA;pmrWzXOnTi4gVzGzqGFGABI+IDswwkUgG1e5uYLaIyzOEQdz3PgMMIGRoInMRFljN/rTXT0DcIR9&#xA;lKr95+LNni0/CPN1+TPxe5MfLkfNZLgmo+wh2+Z6E+2Y+rNUG/Si7KJ12EvYmQfahPL6Oh65VppV&#xA;Ku9s1EbjfckFpqj20nOOSo/aUlaEf8FmfPAJCiHChm4Tsyew1G2vYucTDkPtpUEr86ZrcuKUDRdh&#xA;jyiY2ROVNjsVdirsVdirsVdirsVdirsVdirsVdirsVdirsVcSACSaAbknASALKpWkijUzKWjEZJB&#xA;k5jpTbvnO48sRqzO4cO+/EO73/ockj0Vujbq8t7SJ7m7lit7OJOUlzK4RV3/AGi1FA9650g3Dh2e&#xA;LltXP9n7XjPkDWLe2/M3WNQvJ9Lt7TUTcKl2l9Czylp1aIBPrD/aHggy2Q2YxO723KW1puXE8SA3&#xA;YncV/DEIldbc2NedL6zEFtYT3cluHnimu3tVL3EcUfKSKRFVZDvcRIPsnavgaQmQoa8k3diNOnsb&#xA;Wd7h47i5ni+tBo55EmmaVpXDKh3kkP7O223TDCVoldbCyj/NuoQWegXnqSxRyzQyRQLM4RXdkNEq&#xA;SvX55MDdJOzF/wAqr+3itLnTpGtoZpJjLBbwyrIzfAA7fbkPRRkphjBlmo6EL6b1JbuZVH2I0ICr&#xA;8hTL8Wp4BQiGnLp+M2SUJ/hC2/5a5/vX+mW/nz/NDX+SHeU4srSO0tUt0JZU/abqSTWpzDyZDOVl&#xA;yscBEUFZ0V0ZGFVYFWHsdsiDRtkRaQ/4Qtv+Wuf71/pmd+fP80OH+SHeVa18tLbTLNDezq6+6kEe&#xA;BBG+QnrOIUYhlDS8JsSKc5huW7FXYq7FXYq7FXYq7FXYq7FXYq7FXYq7FXYq7FWnUMpU9GBB+nIz&#xA;iJAg8ikGkH+iLPwb781f8i4O4/Nt8eS3WdE0/WNNudOvULW91H6MpU8X4VrQN8828SQKDjHHEnir&#xA;flbDbb8i/INtcxXEUVz6kLrIlZyRyU1Hb2yXiFeAPQcgzadFdSrAMp6g9MINMZREhR3CX3WjNLfN&#xA;eW9/cWUjxRwSLCIGVliZ2TaaKU1Hqt0yJCQKdb6Nwuhc3N7PfSLE8KCcQBVWRkZ6CGKKtTGvWuEW&#xA;ESgJCjuFmv8AlvTNetY7bUFdoon9RODcTyoV7exwg0khAaL5A8u6PqCX9kkouIwwUvIWFGHE7fI4&#xA;TIlAiAyPIsnYq7FXYq7FXYq7FXYq7FXYq7FXYq7FXYq7FXYq7FXYq7FXYq7FXYq7FXYq7FXYq7FX&#xA;Yq7FXYq7FXYq7FXYq7FXYq7FXYq//9k=</xmpGImg:image>
               </rdf:li>
            </rdf:Alt>
         </xmp:Thumbnails>
         <xmpMM:OriginalDocumentID>uuid:9E3E5C9A8C81DB118734DB58FDDE4BA7</xmpMM:OriginalDocumentID>
         <xmpMM:DocumentID>xmp.did:991d48fd-6c3c-d349-9c4d-64aa85441bf9</xmpMM:DocumentID>
         <xmpMM:InstanceID>xmp.iid:991d48fd-6c3c-d349-9c4d-64aa85441bf9</xmpMM:InstanceID>
         <xmpMM:RenditionClass>proof:pdf</xmpMM:RenditionClass>
         <xmpMM:DerivedFrom rdf:parseType="Resource">
            <stRef:instanceID>xmp.iid:39b3ab7c-c565-b24a-b2c5-aafb405a55fc</stRef:instanceID>
            <stRef:documentID>xmp.did:39b3ab7c-c565-b24a-b2c5-aafb405a55fc</stRef:documentID>
            <stRef:originalDocumentID>uuid:9E3E5C9A8C81DB118734DB58FDDE4BA7</stRef:originalDocumentID>
            <stRef:renditionClass>proof:pdf</stRef:renditionClass>
         </xmpMM:DerivedFrom>
         <xmpMM:History>
            <rdf:Seq>
               <rdf:li rdf:parseType="Resource">
                  <stEvt:action>saved</stEvt:action>
                  <stEvt:instanceID>xmp.iid:b4c9dad8-1ff0-5745-bc3b-35a339d98d4b</stEvt:instanceID>
                  <stEvt:when>2018-09-26T16:18:49+03:00</stEvt:when>
                  <stEvt:softwareAgent>Adobe Illustrator CC 22.1 (Windows)</stEvt:softwareAgent>
                  <stEvt:changed>/</stEvt:changed>
               </rdf:li>
               <rdf:li rdf:parseType="Resource">
                  <stEvt:action>saved</stEvt:action>
                  <stEvt:instanceID>xmp.iid:991d48fd-6c3c-d349-9c4d-64aa85441bf9</stEvt:instanceID>
                  <stEvt:when>2019-01-07T10:16:27+02:00</stEvt:when>
                  <stEvt:softwareAgent>Adobe Illustrator CC 23.0 (Windows)</stEvt:softwareAgent>
                  <stEvt:changed>/</stEvt:changed>
               </rdf:li>
            </rdf:Seq>
         </xmpMM:History>
         <illustrator:StartupProfile>Basic RGB</illustrator:StartupProfile>
         <pdf:Producer>Adobe PDF library 15.00</pdf:Producer>
         <xmpTPg:MaxPageSize rdf:parseType="Resource">
            <stDim:w>108.000000</stDim:w>
            <stDim:h>108.000000</stDim:h>
            <stDim:unit>Pixels</stDim:unit>
         </xmpTPg:MaxPageSize>
         <xmpTPg:NPages>1</xmpTPg:NPages>
         <xmpTPg:HasVisibleTransparency>True</xmpTPg:HasVisibleTransparency>
         <xmpTPg:HasVisibleOverprint>False</xmpTPg:HasVisibleOverprint>
         <xmpTPg:Fonts>
            <rdf:Bag>
               <rdf:li rdf:parseType="Resource">
                  <stFnt:fontName>ArialMT</stFnt:fontName>
                  <stFnt:fontFamily>Arial</stFnt:fontFamily>
                  <stFnt:fontFace>Regular</stFnt:fontFace>
                  <stFnt:fontType>Open Type</stFnt:fontType>
                  <stFnt:versionString>Version 6.98</stFnt:versionString>
                  <stFnt:composite>False</stFnt:composite>
                  <stFnt:fontFileName>arial.ttf</stFnt:fontFileName>
               </rdf:li>
            </rdf:Bag>
         </xmpTPg:Fonts>
         <xmpTPg:PlateNames>
            <rdf:Seq>
               <rdf:li>Cyan</rdf:li>
               <rdf:li>Magenta</rdf:li>
               <rdf:li>Yellow</rdf:li>
               <rdf:li>Black</rdf:li>
            </rdf:Seq>
         </xmpTPg:PlateNames>
         <xmpTPg:SwatchGroups>
            <rdf:Seq>
               <rdf:li rdf:parseType="Resource">
                  <xmpG:groupName>Default Swatch Group</xmpG:groupName>
                  <xmpG:groupType>0</xmpG:groupType>
                  <xmpG:Colorants>
                     <rdf:Seq>
                        <rdf:li rdf:parseType="Resource">
                           <xmpG:swatchName>White</xmpG:swatchName>
                           <xmpG:mode>RGB</xmpG:mode>
                           <xmpG:type>PROCESS</xmpG:type>
                           <xmpG:red>255</xmpG:red>
                           <xmpG:green>255</xmpG:green>
                           <xmpG:blue>255</xmpG:blue>
                        </rdf:li>
                        <rdf:li rdf:parseType="Resource">
                           <xmpG:swatchName>Black</xmpG:swatchName>
                           <xmpG:mode>RGB</xmpG:mode>
                           <xmpG:type>PROCESS</xmpG:type>
                           <xmpG:red>0</xmpG:red>
                           <xmpG:green>0</xmpG:green>
                           <xmpG:blue>0</xmpG:blue>
                        </rdf:li>
                        <rdf:li rdf:parseType="Resource">
                           <xmpG:swatchName>RGB Red</xmpG:swatchName>
                           <xmpG:mode>RGB</xmpG:mode>
                           <xmpG:type>PROCESS</xmpG:type>
                           <xmpG:red>255</xmpG:red>
                           <xmpG:green>0</xmpG:green>
                           <xmpG:blue>0</xmpG:blue>
                        </rdf:li>
                        <rdf:li rdf:parseType="Resource">
                           <xmpG:swatchName>RGB Yellow</xmpG:swatchName>
                           <xmpG:mode>RGB</xmpG:mode>
                           <xmpG:type>PROCESS</xmpG:type>
                           <xmpG:red>255</xmpG:red>
                           <xmpG:green>255</xmpG:green>
                           <xmpG:blue>0</xmpG:blue>
                        </rdf:li>
                        <rdf:li rdf:parseType="Resource">
                           <xmpG:swatchName>RGB Green</xmpG:swatchName>
                           <xmpG:mode>RGB</xmpG:mode>
                           <xmpG:type>PROCESS</xmpG:type>
                           <xmpG:red>0</xmpG:red>
                           <xmpG:green>255</xmpG:green>
                           <xmpG:blue>0</xmpG:blue>
                        </rdf:li>
                        <rdf:li rdf:parseType="Resource">
                           <xmpG:swatchName>RGB Cyan</xmpG:swatchName>
                           <xmpG:mode>RGB</xmpG:mode>
                           <xmpG:type>PROCESS</xmpG:type>
                           <xmpG:red>0</xmpG:red>
                           <xmpG:green>255</xmpG:green>
                           <xmpG:blue>255</xmpG:blue>
                        </rdf:li>
                        <rdf:li rdf:parseType="Resource">
                           <xmpG:swatchName>RGB Blue</xmpG:swatchName>
                           <xmpG:mode>RGB</xmpG:mode>
                           <xmpG:type>PROCESS</xmpG:type>
                           <xmpG:red>0</xmpG:red>
                           <xmpG:green>0</xmpG:green>
                           <xmpG:blue>255</xmpG:blue>
                        </rdf:li>
                        <rdf:li rdf:parseType="Resource">
                           <xmpG:swatchName>RGB Magenta</xmpG:swatchName>
                           <xmpG:mode>RGB</xmpG:mode>
                           <xmpG:type>PROCESS</xmpG:type>
                           <xmpG:red>255</xmpG:red>
                           <xmpG:green>0</xmpG:green>
                           <xmpG:blue>255</xmpG:blue>
                        </rdf:li>
                        <rdf:li rdf:parseType="Resource">
                           <xmpG:swatchName>R=193 G=39 B=45</xmpG:swatchName>
                           <xmpG:mode>RGB</xmpG:mode>
                           <xmpG:type>PROCESS</xmpG:type>
                           <xmpG:red>193</xmpG:red>
                           <xmpG:green>39</xmpG:green>
                           <xmpG:blue>45</xmpG:blue>
                        </rdf:li>
                        <rdf:li rdf:parseType="Resource">
                           <xmpG:swatchName>R=237 G=28 B=36</xmpG:swatchName>
                           <xmpG:mode>RGB</xmpG:mode>
                           <xmpG:type>PROCESS</xmpG:type>
                           <xmpG:red>237</xmpG:red>
                           <xmpG:green>28</xmpG:green>
                           <xmpG:blue>36</xmpG:blue>
                        </rdf:li>
                        <rdf:li rdf:parseType="Resource">
                           <xmpG:swatchName>R=241 G=90 B=36</xmpG:swatchName>
                           <xmpG:mode>RGB</xmpG:mode>
                           <xmpG:type>PROCESS</xmpG:type>
                           <xmpG:red>241</xmpG:red>
                           <xmpG:green>90</xmpG:green>
                           <xmpG:blue>36</xmpG:blue>
                        </rdf:li>
                        <rdf:li rdf:parseType="Resource">
                           <xmpG:swatchName>R=247 G=147 B=30</xmpG:swatchName>
                           <xmpG:mode>RGB</xmpG:mode>
                           <xmpG:type>PROCESS</xmpG:type>
                           <xmpG:red>247</xmpG:red>
                           <xmpG:green>147</xmpG:green>
                           <xmpG:blue>30</xmpG:blue>
                        </rdf:li>
                        <rdf:li rdf:parseType="Resource">
                           <xmpG:swatchName>R=251 G=176 B=59</xmpG:swatchName>
                           <xmpG:mode>RGB</xmpG:mode>
                           <xmpG:type>PROCESS</xmpG:type>
                           <xmpG:red>251</xmpG:red>
                           <xmpG:green>176</xmpG:green>
                           <xmpG:blue>59</xmpG:blue>
                        </rdf:li>
                        <rdf:li rdf:parseType="Resource">
                           <xmpG:swatchName>R=252 G=238 B=33</xmpG:swatchName>
                           <xmpG:mode>RGB</xmpG:mode>
                           <xmpG:type>PROCESS</xmpG:type>
                           <xmpG:red>252</xmpG:red>
                           <xmpG:green>238</xmpG:green>
                           <xmpG:blue>33</xmpG:blue>
                        </rdf:li>
                        <rdf:li rdf:parseType="Resource">
                           <xmpG:swatchName>R=217 G=224 B=33</xmpG:swatchName>
                           <xmpG:mode>RGB</xmpG:mode>
                           <xmpG:type>PROCESS</xmpG:type>
                           <xmpG:red>217</xmpG:red>
                           <xmpG:green>224</xmpG:green>
                           <xmpG:blue>33</xmpG:blue>
                        </rdf:li>
                        <rdf:li rdf:parseType="Resource">
                           <xmpG:swatchName>R=140 G=198 B=63</xmpG:swatchName>
                           <xmpG:mode>RGB</xmpG:mode>
                           <xmpG:type>PROCESS</xmpG:type>
                           <xmpG:red>140</xmpG:red>
                           <xmpG:green>198</xmpG:green>
                           <xmpG:blue>63</xmpG:blue>
                        </rdf:li>
                        <rdf:li rdf:parseType="Resource">
                           <xmpG:swatchName>R=57 G=181 B=74</xmpG:swatchName>
                           <xmpG:mode>RGB</xmpG:mode>
                           <xmpG:type>PROCESS</xmpG:type>
                           <xmpG:red>57</xmpG:red>
                           <xmpG:green>181</xmpG:green>
                           <xmpG:blue>74</xmpG:blue>
                        </rdf:li>
                        <rdf:li rdf:parseType="Resource">
                           <xmpG:swatchName>R=0 G=146 B=69</xmpG:swatchName>
                           <xmpG:mode>RGB</xmpG:mode>
                           <xmpG:type>PROCESS</xmpG:type>
                           <xmpG:red>0</xmpG:red>
                           <xmpG:green>146</xmpG:green>
                           <xmpG:blue>69</xmpG:blue>
                        </rdf:li>
                        <rdf:li rdf:parseType="Resource">
                           <xmpG:swatchName>R=0 G=104 B=55</xmpG:swatchName>
                           <xmpG:mode>RGB</xmpG:mode>
                           <xmpG:type>PROCESS</xmpG:type>
                           <xmpG:red>0</xmpG:red>
                           <xmpG:green>104</xmpG:green>
                           <xmpG:blue>55</xmpG:blue>
                        </rdf:li>
                        <rdf:li rdf:parseType="Resource">
                           <xmpG:swatchName>R=34 G=181 B=115</xmpG:swatchName>
                           <xmpG:mode>RGB</xmpG:mode>
                           <xmpG:type>PROCESS</xmpG:type>
                           <xmpG:red>34</xmpG:red>
                           <xmpG:green>181</xmpG:green>
                           <xmpG:blue>115</xmpG:blue>
                        </rdf:li>
                        <rdf:li rdf:parseType="Resource">
                           <xmpG:swatchName>R=0 G=169 B=157</xmpG:swatchName>
                           <xmpG:mode>RGB</xmpG:mode>
                           <xmpG:type>PROCESS</xmpG:type>
                           <xmpG:red>0</xmpG:red>
                           <xmpG:green>169</xmpG:green>
                           <xmpG:blue>157</xmpG:blue>
                        </rdf:li>
                        <rdf:li rdf:parseType="Resource">
                           <xmpG:swatchName>R=41 G=171 B=226</xmpG:swatchName>
                           <xmpG:mode>RGB</xmpG:mode>
                           <xmpG:type>PROCESS</xmpG:type>
                           <xmpG:red>41</xmpG:red>
                           <xmpG:green>171</xmpG:green>
                           <xmpG:blue>226</xmpG:blue>
                        </rdf:li>
                        <rdf:li rdf:parseType="Resource">
                           <xmpG:swatchName>R=0 G=113 B=188</xmpG:swatchName>
                           <xmpG:mode>RGB</xmpG:mode>
                           <xmpG:type>PROCESS</xmpG:type>
                           <xmpG:red>0</xmpG:red>
                           <xmpG:green>113</xmpG:green>
                           <xmpG:blue>188</xmpG:blue>
                        </rdf:li>
                        <rdf:li rdf:parseType="Resource">
                           <xmpG:swatchName>R=46 G=49 B=146</xmpG:swatchName>
                           <xmpG:mode>RGB</xmpG:mode>
                           <xmpG:type>PROCESS</xmpG:type>
                           <xmpG:red>46</xmpG:red>
                           <xmpG:green>49</xmpG:green>
                           <xmpG:blue>146</xmpG:blue>
                        </rdf:li>
                        <rdf:li rdf:parseType="Resource">
                           <xmpG:swatchName>R=27 G=20 B=100</xmpG:swatchName>
                           <xmpG:mode>RGB</xmpG:mode>
                           <xmpG:type>PROCESS</xmpG:type>
                           <xmpG:red>27</xmpG:red>
                           <xmpG:green>20</xmpG:green>
                           <xmpG:blue>100</xmpG:blue>
                        </rdf:li>
                        <rdf:li rdf:parseType="Resource">
                           <xmpG:swatchName>R=102 G=45 B=145</xmpG:swatchName>
                           <xmpG:mode>RGB</xmpG:mode>
                           <xmpG:type>PROCESS</xmpG:type>
                           <xmpG:red>102</xmpG:red>
                           <xmpG:green>45</xmpG:green>
                           <xmpG:blue>145</xmpG:blue>
                        </rdf:li>
                        <rdf:li rdf:parseType="Resource">
                           <xmpG:swatchName>R=147 G=39 B=143</xmpG:swatchName>
                           <xmpG:mode>RGB</xmpG:mode>
                           <xmpG:type>PROCESS</xmpG:type>
                           <xmpG:red>147</xmpG:red>
                           <xmpG:green>39</xmpG:green>
                           <xmpG:blue>143</xmpG:blue>
                        </rdf:li>
                        <rdf:li rdf:parseType="Resource">
                           <xmpG:swatchName>R=158 G=0 B=93</xmpG:swatchName>
                           <xmpG:mode>RGB</xmpG:mode>
                           <xmpG:type>PROCESS</xmpG:type>
                           <xmpG:red>158</xmpG:red>
                           <xmpG:green>0</xmpG:green>
                           <xmpG:blue>93</xmpG:blue>
                        </rdf:li>
                        <rdf:li rdf:parseType="Resource">
                           <xmpG:swatchName>R=212 G=20 B=90</xmpG:swatchName>
                           <xmpG:mode>RGB</xmpG:mode>
                           <xmpG:type>PROCESS</xmpG:type>
                           <xmpG:red>212</xmpG:red>
                           <xmpG:green>20</xmpG:green>
                           <xmpG:blue>90</xmpG:blue>
                        </rdf:li>
                        <rdf:li rdf:parseType="Resource">
                           <xmpG:swatchName>R=237 G=30 B=121</xmpG:swatchName>
                           <xmpG:mode>RGB</xmpG:mode>
                           <xmpG:type>PROCESS</xmpG:type>
                           <xmpG:red>237</xmpG:red>
                           <xmpG:green>30</xmpG:green>
                           <xmpG:blue>121</xmpG:blue>
                        </rdf:li>
                        <rdf:li rdf:parseType="Resource">
                           <xmpG:swatchName>R=199 G=178 B=153</xmpG:swatchName>
                           <xmpG:mode>RGB</xmpG:mode>
                           <xmpG:type>PROCESS</xmpG:type>
                           <xmpG:red>199</xmpG:red>
                           <xmpG:green>178</xmpG:green>
                           <xmpG:blue>153</xmpG:blue>
                        </rdf:li>
                        <rdf:li rdf:parseType="Resource">
                           <xmpG:swatchName>R=153 G=134 B=117</xmpG:swatchName>
                           <xmpG:mode>RGB</xmpG:mode>
                           <xmpG:type>PROCESS</xmpG:type>
                           <xmpG:red>153</xmpG:red>
                           <xmpG:green>134</xmpG:green>
                           <xmpG:blue>117</xmpG:blue>
                        </rdf:li>
                        <rdf:li rdf:parseType="Resource">
                           <xmpG:swatchName>R=115 G=99 B=87</xmpG:swatchName>
                           <xmpG:mode>RGB</xmpG:mode>
                           <xmpG:type>PROCESS</xmpG:type>
                           <xmpG:red>115</xmpG:red>
                           <xmpG:green>99</xmpG:green>
                           <xmpG:blue>87</xmpG:blue>
                        </rdf:li>
                        <rdf:li rdf:parseType="Resource">
                           <xmpG:swatchName>R=83 G=71 B=65</xmpG:swatchName>
                           <xmpG:mode>RGB</xmpG:mode>
                           <xmpG:type>PROCESS</xmpG:type>
                           <xmpG:red>83</xmpG:red>
                           <xmpG:green>71</xmpG:green>
                           <xmpG:blue>65</xmpG:blue>
                        </rdf:li>
                        <rdf:li rdf:parseType="Resource">
                           <xmpG:swatchName>R=198 G=156 B=109</xmpG:swatchName>
                           <xmpG:mode>RGB</xmpG:mode>
                           <xmpG:type>PROCESS</xmpG:type>
                           <xmpG:red>198</xmpG:red>
                           <xmpG:green>156</xmpG:green>
                           <xmpG:blue>109</xmpG:blue>
                        </rdf:li>
                        <rdf:li rdf:parseType="Resource">
                           <xmpG:swatchName>R=166 G=124 B=82</xmpG:swatchName>
                           <xmpG:mode>RGB</xmpG:mode>
                           <xmpG:type>PROCESS</xmpG:type>
                           <xmpG:red>166</xmpG:red>
                           <xmpG:green>124</xmpG:green>
                           <xmpG:blue>82</xmpG:blue>
                        </rdf:li>
                        <rdf:li rdf:parseType="Resource">
                           <xmpG:swatchName>R=140 G=98 B=57</xmpG:swatchName>
                           <xmpG:mode>RGB</xmpG:mode>
                           <xmpG:type>PROCESS</xmpG:type>
                           <xmpG:red>140</xmpG:red>
                           <xmpG:green>98</xmpG:green>
                           <xmpG:blue>57</xmpG:blue>
                        </rdf:li>
                        <rdf:li rdf:parseType="Resource">
                           <xmpG:swatchName>R=117 G=76 B=36</xmpG:swatchName>
                           <xmpG:mode>RGB</xmpG:mode>
                           <xmpG:type>PROCESS</xmpG:type>
                           <xmpG:red>117</xmpG:red>
                           <xmpG:green>76</xmpG:green>
                           <xmpG:blue>36</xmpG:blue>
                        </rdf:li>
                        <rdf:li rdf:parseType="Resource">
                           <xmpG:swatchName>R=96 G=56 B=19</xmpG:swatchName>
                           <xmpG:mode>RGB</xmpG:mode>
                           <xmpG:type>PROCESS</xmpG:type>
                           <xmpG:red>96</xmpG:red>
                           <xmpG:green>56</xmpG:green>
                           <xmpG:blue>19</xmpG:blue>
                        </rdf:li>
                        <rdf:li rdf:parseType="Resource">
                           <xmpG:swatchName>R=66 G=33 B=11</xmpG:swatchName>
                           <xmpG:mode>RGB</xmpG:mode>
                           <xmpG:type>PROCESS</xmpG:type>
                           <xmpG:red>66</xmpG:red>
                           <xmpG:green>33</xmpG:green>
                           <xmpG:blue>11</xmpG:blue>
                        </rdf:li>
                     </rdf:Seq>
                  </xmpG:Colorants>
               </rdf:li>
               <rdf:li rdf:parseType="Resource">
                  <xmpG:groupName>Grays</xmpG:groupName>
                  <xmpG:groupType>0</xmpG:groupType>
                  <xmpG:Colorants>
                     <rdf:Seq>
                        <rdf:li rdf:parseType="Resource">
                           <xmpG:swatchName>R=0 G=0 B=0</xmpG:swatchName>
                           <xmpG:mode>RGB</xmpG:mode>
                           <xmpG:type>PROCESS</xmpG:type>
                           <xmpG:red>0</xmpG:red>
                           <xmpG:green>0</xmpG:green>
                           <xmpG:blue>0</xmpG:blue>
                        </rdf:li>
                        <rdf:li rdf:parseType="Resource">
                           <xmpG:swatchName>R=26 G=26 B=26</xmpG:swatchName>
                           <xmpG:mode>RGB</xmpG:mode>
                           <xmpG:type>PROCESS</xmpG:type>
                           <xmpG:red>26</xmpG:red>
                           <xmpG:green>26</xmpG:green>
                           <xmpG:blue>26</xmpG:blue>
                        </rdf:li>
                        <rdf:li rdf:parseType="Resource">
                           <xmpG:swatchName>R=51 G=51 B=51</xmpG:swatchName>
                           <xmpG:mode>RGB</xmpG:mode>
                           <xmpG:type>PROCESS</xmpG:type>
                           <xmpG:red>51</xmpG:red>
                           <xmpG:green>51</xmpG:green>
                           <xmpG:blue>51</xmpG:blue>
                        </rdf:li>
                        <rdf:li rdf:parseType="Resource">
                           <xmpG:swatchName>R=77 G=77 B=77</xmpG:swatchName>
                           <xmpG:mode>RGB</xmpG:mode>
                           <xmpG:type>PROCESS</xmpG:type>
                           <xmpG:red>77</xmpG:red>
                           <xmpG:green>77</xmpG:green>
                           <xmpG:blue>77</xmpG:blue>
                        </rdf:li>
                        <rdf:li rdf:parseType="Resource">
                           <xmpG:swatchName>R=102 G=102 B=102</xmpG:swatchName>
                           <xmpG:mode>RGB</xmpG:mode>
                           <xmpG:type>PROCESS</xmpG:type>
                           <xmpG:red>102</xmpG:red>
                           <xmpG:green>102</xmpG:green>
                           <xmpG:blue>102</xmpG:blue>
                        </rdf:li>
                        <rdf:li rdf:parseType="Resource">
                           <xmpG:swatchName>R=128 G=128 B=128</xmpG:swatchName>
                           <xmpG:mode>RGB</xmpG:mode>
                           <xmpG:type>PROCESS</xmpG:type>
                           <xmpG:red>128</xmpG:red>
                           <xmpG:green>128</xmpG:green>
                           <xmpG:blue>128</xmpG:blue>
                        </rdf:li>
                        <rdf:li rdf:parseType="Resource">
                           <xmpG:swatchName>R=153 G=153 B=153</xmpG:swatchName>
                           <xmpG:mode>RGB</xmpG:mode>
                           <xmpG:type>PROCESS</xmpG:type>
                           <xmpG:red>153</xmpG:red>
                           <xmpG:green>153</xmpG:green>
                           <xmpG:blue>153</xmpG:blue>
                        </rdf:li>
                        <rdf:li rdf:parseType="Resource">
                           <xmpG:swatchName>R=179 G=179 B=179</xmpG:swatchName>
                           <xmpG:mode>RGB</xmpG:mode>
                           <xmpG:type>PROCESS</xmpG:type>
                           <xmpG:red>179</xmpG:red>
                           <xmpG:green>179</xmpG:green>
                           <xmpG:blue>179</xmpG:blue>
                        </rdf:li>
                        <rdf:li rdf:parseType="Resource">
                           <xmpG:swatchName>R=204 G=204 B=204</xmpG:swatchName>
                           <xmpG:mode>RGB</xmpG:mode>
                           <xmpG:type>PROCESS</xmpG:type>
                           <xmpG:red>204</xmpG:red>
                           <xmpG:green>204</xmpG:green>
                           <xmpG:blue>204</xmpG:blue>
                        </rdf:li>
                        <rdf:li rdf:parseType="Resource">
                           <xmpG:swatchName>R=230 G=230 B=230</xmpG:swatchName>
                           <xmpG:mode>RGB</xmpG:mode>
                           <xmpG:type>PROCESS</xmpG:type>
                           <xmpG:red>230</xmpG:red>
                           <xmpG:green>230</xmpG:green>
                           <xmpG:blue>230</xmpG:blue>
                        </rdf:li>
                        <rdf:li rdf:parseType="Resource">
                           <xmpG:swatchName>R=242 G=242 B=242</xmpG:swatchName>
                           <xmpG:mode>RGB</xmpG:mode>
                           <xmpG:type>PROCESS</xmpG:type>
                           <xmpG:red>242</xmpG:red>
                           <xmpG:green>242</xmpG:green>
                           <xmpG:blue>242</xmpG:blue>
                        </rdf:li>
                     </rdf:Seq>
                  </xmpG:Colorants>
               </rdf:li>
               <rdf:li rdf:parseType="Resource">
                  <xmpG:groupName>Carmel</xmpG:groupName>
                  <xmpG:groupType>1</xmpG:groupType>
                  <xmpG:Colorants>
                     <rdf:Seq>
                        <rdf:li rdf:parseType="Resource">
                           <xmpG:swatchName>R=141 G=198 B=255</xmpG:swatchName>
                           <xmpG:mode>RGB</xmpG:mode>
                           <xmpG:type>PROCESS</xmpG:type>
                           <xmpG:red>141</xmpG:red>
                           <xmpG:green>198</xmpG:green>
                           <xmpG:blue>255</xmpG:blue>
                        </rdf:li>
                        <rdf:li rdf:parseType="Resource">
                           <xmpG:swatchName>R=246 G=234 B=117</xmpG:swatchName>
                           <xmpG:mode>RGB</xmpG:mode>
                           <xmpG:type>PROCESS</xmpG:type>
                           <xmpG:red>246</xmpG:red>
                           <xmpG:green>234</xmpG:green>
                           <xmpG:blue>117</xmpG:blue>
                        </rdf:li>
                        <rdf:li rdf:parseType="Resource">
                           <xmpG:swatchName>R=18 G=36 B=56</xmpG:swatchName>
                           <xmpG:mode>RGB</xmpG:mode>
                           <xmpG:type>PROCESS</xmpG:type>
                           <xmpG:red>18</xmpG:red>
                           <xmpG:green>36</xmpG:green>
                           <xmpG:blue>56</xmpG:blue>
                        </rdf:li>
                     </rdf:Seq>
                  </xmpG:Colorants>
               </rdf:li>
            </rdf:Seq>
         </xmpTPg:SwatchGroups>
      </rdf:Description>
   </rdf:RDF>
</x:xmpmeta>
                                                                                                    
                                                                                                    
                                                                                                    
                                                                                                    
                                                                                                    
                                                                                                    
                                                                                                    
                                                                                                    
                                                                                                    
                                                                                                    
                                                                                                    
                                                                                                    
                                                                                                    
                                                                                                    
                                                                                                    
                                                                                                    
                                                                                                    
                                                                                                    
                                                                                                    
                                                                                                    
                           
<?xpacket end="w"?>
	</metadata>
<g>
	<polygon class="st0" points="41,10 41,18.4 41,36 41,39 44,39 61.6,39 70,39 63.5,33.7 59.3,30.3 65.3,24.5 67.5,22.4 65.4,20.2 
		59.8,14.6 57.6,12.5 55.5,14.7 49.7,20.7 46.3,16.5 41,10 	"/>
	<polygon class="st1" points="57.7,16.8 63.2,22.3 54.8,30.5 61.6,36 44,36 44,18.4 49.5,25.2 57.7,16.8 	"/>
	<polygon class="st0" points="39,71 39,62.6 39,45 39,42 36,42 18.4,42 10,42 16.5,47.3 20.7,50.7 14.7,56.5 12.5,58.6 14.6,60.8 
		20.2,66.4 22.4,68.5 24.5,66.3 30.3,60.3 33.7,64.5 39,71 	"/>
	<polygon class="st1" points="22.3,64.2 16.8,58.7 25.2,50.5 18.4,45 36,45 36,62.6 30.5,55.8 22.3,64.2 	"/>
</g>
</svg>
